Hours,Total cells-mean,Total cells-std,Live cells-mean,Live cells-std,Dead cells-mean,Dead cells-std,
0.0,3.2e+03,49.1,3.13e+03,56.8,
1.0,7.08e+03,79.3,6.94e+03,102,
2.0,1.6e+04,391,1.57e+04,354,
3.0,2.29e+04,706,2.26e+04,754,
