<?xml version="1.0" encoding="utf-8" standalone="no"?>
<!DOCTYPE svg PUBLIC "-//W3C//DTD SVG 1.1//EN"
  "http://www.w3.org/Graphics/SVG/1.1/DTD/svg11.dtd">
<!-- Created with matplotlib (http://matplotlib.org/) -->
<svg height="510pt" version="1.1" viewBox="0 0 571 510" width="571pt" xmlns="http://www.w3.org/2000/svg" xmlns:xlink="http://www.w3.org/1999/xlink">
 <defs>
  <style type="text/css">
*{stroke-linecap:butt;stroke-linejoin:round;}
  </style>
 </defs>
 <g id="figure_1">
  <g id="patch_1">
   <path d="
M0 510.488
L571.329 510.488
L571.329 -5.68434e-14
L0 -5.68434e-14
z
" style="fill:#ffffff;"/>
  </g>
  <g id="axes_1">
   <g id="patch_2">
    <path d="
M51.5634 391.447
L271.014 391.447
L271.014 37.455
L51.5634 37.455
z
" style="fill:#ffffff;"/>
   </g>
   <g id="matplotlib.axis_1">
    <g id="xtick_1">
     <g id="line2d_1">
      <path clip-path="url(#p72474cd35b)" d="
M55.103 391.447
L55.103 37.455" style="fill:none;opacity:0.2;stroke:#b2b2b2;stroke-linecap:square;stroke-width:0.5;"/>
     </g>
     <g id="line2d_2">
      <defs>
       <path d="
M0 0
L0 4" id="m8a7fcc65d0" style="stroke:#000000;"/>
      </defs>
      <g>
       <use style="stroke:#000000;" x="55.1029614417" xlink:href="#m8a7fcc65d0" y="391.4475"/>
      </g>
     </g>
     <g id="line2d_3">
      <defs>
       <path d="
M0 0
L0 -4" id="mf06237e818" style="stroke:#000000;"/>
      </defs>
      <g>
       <use style="stroke:#000000;" x="55.1029614417" xlink:href="#mf06237e818" y="37.455"/>
      </g>
     </g>
     <g id="text_1">
      <!-- $\mathdefault{0.0}$ -->
      <defs>
       <path d="
M4.15625 35.2969
Q4.15625 48 6.76562 55.7344
Q9.375 63.4844 14.5156 67.6719
Q19.6719 71.875 27.4844 71.875
Q33.25 71.875 37.5938 69.5469
Q41.9375 67.2344 44.7656 62.8594
Q47.6094 58.5 49.2188 52.2188
Q50.8281 45.9531 50.8281 35.2969
Q50.8281 22.7031 48.2344 14.9688
Q45.6562 7.23438 40.5 3
Q35.3594 -1.21875 27.4844 -1.21875
Q17.1406 -1.21875 11.2344 6.20312
Q4.15625 15.1406 4.15625 35.2969
M13.1875 35.2969
Q13.1875 17.6719 17.3125 11.8281
Q21.4375 6 27.4844 6
Q33.5469 6 37.6719 11.8594
Q41.7969 17.7188 41.7969 35.2969
Q41.7969 52.9844 37.6719 58.7812
Q33.5469 64.5938 27.3906 64.5938
Q21.3438 64.5938 17.7188 59.4688
Q13.1875 52.9375 13.1875 35.2969" id="ArialMT-30"/>
       <path d="
M9.07812 0
L9.07812 10.0156
L19.0938 10.0156
L19.0938 0
z
" id="ArialMT-2e"/>
      </defs>
      <g transform="translate(46.8229614417 410.036875)scale(0.12 -0.12)">
       <use transform="translate(0.0 0.125)" xlink:href="#ArialMT-30"/>
       <use transform="translate(55.615234375 0.125)" xlink:href="#ArialMT-2e"/>
       <use transform="translate(82.275390625 0.125)" xlink:href="#ArialMT-30"/>
      </g>
     </g>
    </g>
    <g id="xtick_2">
     <g id="line2d_4">
      <path clip-path="url(#p72474cd35b)" d="
M90.4982 391.447
L90.4982 37.455" style="fill:none;opacity:0.2;stroke:#b2b2b2;stroke-linecap:square;stroke-width:0.5;"/>
     </g>
     <g id="line2d_5">
      <g>
       <use style="stroke:#000000;" x="90.4982008589" xlink:href="#m8a7fcc65d0" y="391.4475"/>
      </g>
     </g>
     <g id="line2d_6">
      <g>
       <use style="stroke:#000000;" x="90.4982008589" xlink:href="#mf06237e818" y="37.455"/>
      </g>
     </g>
     <g id="text_2">
      <!-- $\mathdefault{0.5}$ -->
      <defs>
       <path d="
M4.15625 18.75
L13.375 19.5312
Q14.4062 12.7969 18.1406 9.39062
Q21.875 6 27.1562 6
Q33.5 6 37.8906 10.7812
Q42.2812 15.5781 42.2812 23.4844
Q42.2812 31 38.0625 35.3438
Q33.8438 39.7031 27 39.7031
Q22.75 39.7031 19.3281 37.7656
Q15.9219 35.8438 13.9688 32.7656
L5.71875 33.8438
L12.6406 70.6094
L48.25 70.6094
L48.25 62.2031
L19.6719 62.2031
L15.8281 42.9688
Q22.2656 47.4688 29.3438 47.4688
Q38.7188 47.4688 45.1562 40.9688
Q51.6094 34.4688 51.6094 24.2656
Q51.6094 14.5469 45.9531 7.46875
Q39.0625 -1.21875 27.1562 -1.21875
Q17.3906 -1.21875 11.2031 4.25
Q5.03125 9.71875 4.15625 18.75" id="ArialMT-35"/>
      </defs>
      <g transform="translate(82.2182008589 410.036875)scale(0.12 -0.12)">
       <use transform="translate(0.0 0.125)" xlink:href="#ArialMT-30"/>
       <use transform="translate(55.615234375 0.125)" xlink:href="#ArialMT-2e"/>
       <use transform="translate(82.275390625 0.125)" xlink:href="#ArialMT-35"/>
      </g>
     </g>
    </g>
    <g id="xtick_3">
     <g id="line2d_7">
      <path clip-path="url(#p72474cd35b)" d="
M125.893 391.447
L125.893 37.455" style="fill:none;opacity:0.2;stroke:#b2b2b2;stroke-linecap:square;stroke-width:0.5;"/>
     </g>
     <g id="line2d_8">
      <g>
       <use style="stroke:#000000;" x="125.893440276" xlink:href="#m8a7fcc65d0" y="391.4475"/>
      </g>
     </g>
     <g id="line2d_9">
      <g>
       <use style="stroke:#000000;" x="125.893440276" xlink:href="#mf06237e818" y="37.455"/>
      </g>
     </g>
     <g id="text_3">
      <!-- $\mathdefault{1.0}$ -->
      <defs>
       <path d="
M37.25 0
L28.4688 0
L28.4688 56
Q25.2969 52.9844 20.1406 49.9531
Q14.9844 46.9219 10.8906 45.4062
L10.8906 53.9062
Q18.2656 57.375 23.7812 62.2969
Q29.2969 67.2344 31.5938 71.875
L37.25 71.875
z
" id="ArialMT-31"/>
      </defs>
      <g transform="translate(117.613440276 410.036875)scale(0.12 -0.12)">
       <use transform="translate(0.0 0.125)" xlink:href="#ArialMT-31"/>
       <use transform="translate(55.615234375 0.125)" xlink:href="#ArialMT-2e"/>
       <use transform="translate(82.275390625 0.125)" xlink:href="#ArialMT-30"/>
      </g>
     </g>
    </g>
    <g id="xtick_4">
     <g id="line2d_10">
      <path clip-path="url(#p72474cd35b)" d="
M161.289 391.447
L161.289 37.455" style="fill:none;opacity:0.2;stroke:#b2b2b2;stroke-linecap:square;stroke-width:0.5;"/>
     </g>
     <g id="line2d_11">
      <g>
       <use style="stroke:#000000;" x="161.288679693" xlink:href="#m8a7fcc65d0" y="391.4475"/>
      </g>
     </g>
     <g id="line2d_12">
      <g>
       <use style="stroke:#000000;" x="161.288679693" xlink:href="#mf06237e818" y="37.455"/>
      </g>
     </g>
     <g id="text_4">
      <!-- $\mathdefault{1.5}$ -->
      <g transform="translate(153.008679693 410.036875)scale(0.12 -0.12)">
       <use transform="translate(0.0 0.125)" xlink:href="#ArialMT-31"/>
       <use transform="translate(55.615234375 0.125)" xlink:href="#ArialMT-2e"/>
       <use transform="translate(82.275390625 0.125)" xlink:href="#ArialMT-35"/>
      </g>
     </g>
    </g>
    <g id="xtick_5">
     <g id="line2d_13">
      <path clip-path="url(#p72474cd35b)" d="
M196.684 391.447
L196.684 37.455" style="fill:none;opacity:0.2;stroke:#b2b2b2;stroke-linecap:square;stroke-width:0.5;"/>
     </g>
     <g id="line2d_14">
      <g>
       <use style="stroke:#000000;" x="196.68391911" xlink:href="#m8a7fcc65d0" y="391.4475"/>
      </g>
     </g>
     <g id="line2d_15">
      <g>
       <use style="stroke:#000000;" x="196.68391911" xlink:href="#mf06237e818" y="37.455"/>
      </g>
     </g>
     <g id="text_5">
      <!-- $\mathdefault{2.0}$ -->
      <defs>
       <path d="
M50.3438 8.45312
L50.3438 0
L3.03125 0
Q2.9375 3.17188 4.04688 6.10938
Q5.85938 10.9375 9.82812 15.625
Q13.8125 20.3125 21.3438 26.4688
Q33.0156 36.0312 37.1094 41.625
Q41.2188 47.2188 41.2188 52.2031
Q41.2188 57.4219 37.4688 61
Q33.7344 64.5938 27.7344 64.5938
Q21.3906 64.5938 17.5781 60.7812
Q13.7656 56.9844 13.7188 50.25
L4.6875 51.1719
Q5.60938 61.2812 11.6562 66.5781
Q17.7188 71.875 27.9375 71.875
Q38.2344 71.875 44.2344 66.1562
Q50.25 60.4531 50.25 52
Q50.25 47.7031 48.4844 43.5469
Q46.7344 39.4062 42.6562 34.8125
Q38.5781 30.2188 29.1094 22.2188
Q21.1875 15.5781 18.9375 13.2031
Q16.7031 10.8438 15.2344 8.45312
z
" id="ArialMT-32"/>
      </defs>
      <g transform="translate(188.40391911 410.036875)scale(0.12 -0.12)">
       <use transform="translate(0.0 0.125)" xlink:href="#ArialMT-32"/>
       <use transform="translate(55.615234375 0.125)" xlink:href="#ArialMT-2e"/>
       <use transform="translate(82.275390625 0.125)" xlink:href="#ArialMT-30"/>
      </g>
     </g>
    </g>
    <g id="xtick_6">
     <g id="line2d_16">
      <path clip-path="url(#p72474cd35b)" d="
M232.079 391.447
L232.079 37.455" style="fill:none;opacity:0.2;stroke:#b2b2b2;stroke-linecap:square;stroke-width:0.5;"/>
     </g>
     <g id="line2d_17">
      <g>
       <use style="stroke:#000000;" x="232.079158528" xlink:href="#m8a7fcc65d0" y="391.4475"/>
      </g>
     </g>
     <g id="line2d_18">
      <g>
       <use style="stroke:#000000;" x="232.079158528" xlink:href="#mf06237e818" y="37.455"/>
      </g>
     </g>
     <g id="text_6">
      <!-- $\mathdefault{2.5}$ -->
      <g transform="translate(223.799158528 410.036875)scale(0.12 -0.12)">
       <use transform="translate(0.0 0.125)" xlink:href="#ArialMT-32"/>
       <use transform="translate(55.615234375 0.125)" xlink:href="#ArialMT-2e"/>
       <use transform="translate(82.275390625 0.125)" xlink:href="#ArialMT-35"/>
      </g>
     </g>
    </g>
    <g id="xtick_7">
     <g id="line2d_19">
      <path clip-path="url(#p72474cd35b)" d="
M267.474 391.447
L267.474 37.455" style="fill:none;opacity:0.2;stroke:#b2b2b2;stroke-linecap:square;stroke-width:0.5;"/>
     </g>
     <g id="line2d_20">
      <g>
       <use style="stroke:#000000;" x="267.474397945" xlink:href="#m8a7fcc65d0" y="391.4475"/>
      </g>
     </g>
     <g id="line2d_21">
      <g>
       <use style="stroke:#000000;" x="267.474397945" xlink:href="#mf06237e818" y="37.455"/>
      </g>
     </g>
     <g id="text_7">
      <!-- $\mathdefault{3.0}$ -->
      <defs>
       <path d="
M4.20312 18.8906
L12.9844 20.0625
Q14.5 12.5938 18.1406 9.29688
Q21.7812 6 27 6
Q33.2031 6 37.4688 10.2969
Q41.75 14.5938 41.75 20.9531
Q41.75 27 37.7969 30.9219
Q33.8438 34.8594 27.7344 34.8594
Q25.25 34.8594 21.5312 33.8906
L22.5156 41.6094
Q23.3906 41.5 23.9219 41.5
Q29.5469 41.5 34.0312 44.4219
Q38.5312 47.3594 38.5312 53.4688
Q38.5312 58.2969 35.25 61.4688
Q31.9844 64.6562 26.8125 64.6562
Q21.6875 64.6562 18.2656 61.4219
Q14.8438 58.2031 13.875 51.7656
L5.07812 53.3281
Q6.6875 62.1562 12.3906 67.0156
Q18.1094 71.875 26.6094 71.875
Q32.4688 71.875 37.3906 69.3594
Q42.3281 66.8438 44.9375 62.5
Q47.5625 58.1562 47.5625 53.2656
Q47.5625 48.6406 45.0625 44.8281
Q42.5781 41.0156 37.7031 38.7656
Q44.0469 37.3125 47.5625 32.6875
Q51.0781 28.0781 51.0781 21.1406
Q51.0781 11.7656 44.2344 5.25
Q37.4062 -1.26562 26.9531 -1.26562
Q17.5312 -1.26562 11.2969 4.34375
Q5.07812 9.96875 4.20312 18.8906" id="ArialMT-33"/>
      </defs>
      <g transform="translate(259.194397945 410.036875)scale(0.12 -0.12)">
       <use transform="translate(0.0 0.125)" xlink:href="#ArialMT-33"/>
       <use transform="translate(55.615234375 0.125)" xlink:href="#ArialMT-2e"/>
       <use transform="translate(82.275390625 0.125)" xlink:href="#ArialMT-30"/>
      </g>
     </g>
    </g>
    <g id="text_8">
     <!-- time (Days) -->
     <defs>
      <path d="
M12.3594 -21.0469
L6.0625 -21.0469
Q20.6562 2.39062 20.6562 25.875
Q20.6562 35.0625 18.5625 44.0938
Q16.8906 51.4219 13.9219 58.1562
Q12.0156 62.5469 6.0625 72.7969
L12.3594 72.7969
Q21.5312 60.5469 25.9219 48.1875
Q29.6875 37.5469 29.6875 25.9219
Q29.6875 12.75 24.625 0.4375
Q19.5781 -11.8594 12.3594 -21.0469" id="ArialMT-29"/>
      <path d="
M6.64062 61.4688
L6.64062 71.5781
L15.4375 71.5781
L15.4375 61.4688
z

M6.64062 0
L6.64062 51.8594
L15.4375 51.8594
L15.4375 0
z
" id="ArialMT-69"/>
      <path d="
M3.07812 15.4844
L11.7656 16.8438
Q12.5 11.625 15.8438 8.84375
Q19.1875 6.0625 25.2031 6.0625
Q31.25 6.0625 34.1719 8.51562
Q37.1094 10.9844 37.1094 14.3125
Q37.1094 17.2812 34.5156 19
Q32.7188 20.1719 25.5312 21.9688
Q15.875 24.4219 12.1406 26.2031
Q8.40625 27.9844 6.46875 31.125
Q4.54688 34.2812 4.54688 38.0938
Q4.54688 41.5469 6.125 44.5
Q7.71875 47.4688 10.4531 49.4219
Q12.5 50.9219 16.0312 51.9688
Q19.5781 53.0312 23.6406 53.0312
Q29.7344 53.0312 34.3438 51.2656
Q38.9688 49.5156 41.1562 46.5
Q43.3594 43.5 44.1875 38.4844
L35.5938 37.3125
Q35.0156 41.3125 32.2031 43.5469
Q29.3906 45.7969 24.2656 45.7969
Q18.2188 45.7969 15.625 43.7969
Q13.0312 41.7969 13.0312 39.1094
Q13.0312 37.4062 14.1094 36.0312
Q15.1875 34.625 17.4844 33.6875
Q18.7969 33.2031 25.25 31.4531
Q34.5781 28.9531 38.25 27.3594
Q41.9375 25.7812 44.0312 22.75
Q46.1406 19.7344 46.1406 15.2344
Q46.1406 10.8438 43.5781 6.95312
Q41.0156 3.07812 36.1719 0.953125
Q31.3438 -1.17188 25.25 -1.17188
Q15.1406 -1.17188 9.84375 3.03125
Q4.54688 7.23438 3.07812 15.4844" id="ArialMT-73"/>
      <path d="
M25.7812 7.85938
L27.0469 0.09375
Q23.3438 -0.6875 20.4062 -0.6875
Q15.625 -0.6875 12.9844 0.828125
Q10.3594 2.34375 9.28125 4.8125
Q8.20312 7.28125 8.20312 15.1875
L8.20312 45.0156
L1.76562 45.0156
L1.76562 51.8594
L8.20312 51.8594
L8.20312 64.7031
L16.9375 69.9688
L16.9375 51.8594
L25.7812 51.8594
L25.7812 45.0156
L16.9375 45.0156
L16.9375 14.7031
Q16.9375 10.9375 17.4062 9.85938
Q17.875 8.79688 18.9219 8.15625
Q19.9688 7.51562 21.9219 7.51562
Q23.3906 7.51562 25.7812 7.85938" id="ArialMT-74"/>
      <path d="
M23.3906 -21.0469
Q16.1094 -11.8594 11.0781 0.4375
Q6.0625 12.75 6.0625 25.9219
Q6.0625 37.5469 9.8125 48.1875
Q14.2031 60.5469 23.3906 72.7969
L29.6875 72.7969
Q23.7812 62.6406 21.875 58.2969
Q18.8906 51.5625 17.1875 44.2344
Q15.0938 35.1094 15.0938 25.875
Q15.0938 2.39062 29.6875 -21.0469
z
" id="ArialMT-28"/>
      <path d="
M6.59375 0
L6.59375 51.8594
L14.4531 51.8594
L14.4531 44.5781
Q16.8906 48.3906 20.9375 50.7031
Q25 53.0312 30.1719 53.0312
Q35.9375 53.0312 39.625 50.6406
Q43.3125 48.25 44.8281 43.9531
Q50.9844 53.0312 60.8438 53.0312
Q68.5625 53.0312 72.7031 48.75
Q76.8594 44.4844 76.8594 35.5938
L76.8594 0
L68.1094 0
L68.1094 32.6719
Q68.1094 37.9375 67.25 40.25
Q66.4062 42.5781 64.1562 43.9844
Q61.9219 45.4062 58.8906 45.4062
Q53.4219 45.4062 49.7969 41.7656
Q46.1875 38.1406 46.1875 30.125
L46.1875 0
L37.4062 0
L37.4062 33.6875
Q37.4062 39.5469 35.25 42.4688
Q33.1094 45.4062 28.2188 45.4062
Q24.5156 45.4062 21.3594 43.4531
Q18.2188 41.5 16.7969 37.7344
Q15.375 33.9844 15.375 26.9062
L15.375 0
z
" id="ArialMT-6d"/>
      <path d="
M6.20312 -19.9688
L5.21875 -11.7188
Q8.10938 -12.5 10.25 -12.5
Q13.1875 -12.5 14.9375 -11.5156
Q16.7031 -10.5469 17.8281 -8.79688
Q18.6562 -7.46875 20.5156 -2.25
Q20.75 -1.51562 21.2969 -0.09375
L1.60938 51.8594
L11.0781 51.8594
L21.875 21.8281
Q23.9688 16.1094 25.6406 9.8125
Q27.1562 15.875 29.25 21.625
L40.3281 51.8594
L49.125 51.8594
L29.3906 -0.875
Q26.2188 -9.42188 24.4688 -12.6406
Q22.125 -17 19.0938 -19.0156
Q16.0625 -21.0469 11.8594 -21.0469
Q9.32812 -21.0469 6.20312 -19.9688" id="ArialMT-79"/>
      <path id="ArialMT-20"/>
      <path d="
M7.71875 0
L7.71875 71.5781
L32.375 71.5781
Q40.7188 71.5781 45.125 70.5625
Q51.2656 69.1406 55.6094 65.4375
Q61.2812 60.6406 64.0781 53.1875
Q66.8906 45.75 66.8906 36.1875
Q66.8906 28.0312 64.9844 21.7344
Q63.0938 15.4375 60.1094 11.2969
Q57.125 7.17188 53.5781 4.79688
Q50.0469 2.4375 45.0469 1.21875
Q40.0469 0 33.5469 0
z

M17.1875 8.45312
L32.4688 8.45312
Q39.5469 8.45312 43.5781 9.76562
Q47.6094 11.0781 50 13.4844
Q53.375 16.8438 55.25 22.5312
Q57.125 28.2188 57.125 36.3281
Q57.125 47.5625 53.4375 53.5938
Q49.75 59.625 44.4844 61.6719
Q40.6719 63.1406 32.2344 63.1406
L17.1875 63.1406
z
" id="ArialMT-44"/>
      <path d="
M42.0938 16.7031
L51.1719 15.5781
Q49.0312 7.625 43.2188 3.21875
Q37.4062 -1.17188 28.375 -1.17188
Q17 -1.17188 10.3281 5.82812
Q3.65625 12.8438 3.65625 25.4844
Q3.65625 38.5781 10.3906 45.7969
Q17.1406 53.0312 27.875 53.0312
Q38.2812 53.0312 44.875 45.9531
Q51.4688 38.875 51.4688 26.0312
Q51.4688 25.25 51.4219 23.6875
L12.75 23.6875
Q13.2344 15.1406 17.5781 10.5938
Q21.9219 6.0625 28.4219 6.0625
Q33.25 6.0625 36.6719 8.59375
Q40.0938 11.1406 42.0938 16.7031
M13.2344 30.9062
L42.1875 30.9062
Q41.6094 37.4531 38.875 40.7188
Q34.6719 45.7969 27.9844 45.7969
Q21.9219 45.7969 17.7969 41.75
Q13.6719 37.7031 13.2344 30.9062" id="ArialMT-65"/>
      <path d="
M40.4375 6.39062
Q35.5469 2.25 31.0312 0.53125
Q26.5156 -1.17188 21.3438 -1.17188
Q12.7969 -1.17188 8.20312 3
Q3.60938 7.17188 3.60938 13.6719
Q3.60938 17.4844 5.34375 20.625
Q7.07812 23.7812 9.89062 25.6875
Q12.7031 27.5938 16.2188 28.5625
Q18.7969 29.25 24.0312 29.8906
Q34.6719 31.1562 39.7031 32.9062
Q39.75 34.7188 39.75 35.2031
Q39.75 40.5781 37.25 42.7812
Q33.8906 45.75 27.25 45.75
Q21.0469 45.75 18.0938 43.5781
Q15.1406 41.4062 13.7188 35.8906
L5.125 37.0625
Q6.29688 42.5781 8.98438 45.9688
Q11.6719 49.3594 16.75 51.1875
Q21.8281 53.0312 28.5156 53.0312
Q35.1562 53.0312 39.2969 51.4688
Q43.4531 49.9062 45.4062 47.5312
Q47.3594 45.1719 48.1406 41.5469
Q48.5781 39.3125 48.5781 33.4531
L48.5781 21.7344
Q48.5781 9.46875 49.1406 6.21875
Q49.7031 2.98438 51.375 0
L42.1875 0
Q40.8281 2.73438 40.4375 6.39062
M39.7031 26.0312
Q34.9062 24.0781 25.3438 22.7031
Q19.9219 21.9219 17.6719 20.9375
Q15.4375 19.9688 14.2031 18.0938
Q12.9844 16.2188 12.9844 13.9219
Q12.9844 10.4062 15.6406 8.0625
Q18.3125 5.71875 23.4375 5.71875
Q28.5156 5.71875 32.4688 7.9375
Q36.4219 10.1562 38.2812 14.0156
Q39.7031 17 39.7031 22.7969
z
" id="ArialMT-61"/>
     </defs>
     <g transform="translate(125.763679693 427.6134375)scale(0.14 -0.14)">
      <use xlink:href="#ArialMT-74"/>
      <use x="27.783203125" xlink:href="#ArialMT-69"/>
      <use x="50.0" xlink:href="#ArialMT-6d"/>
      <use x="133.30078125" xlink:href="#ArialMT-65"/>
      <use x="188.916015625" xlink:href="#ArialMT-20"/>
      <use x="216.69921875" xlink:href="#ArialMT-28"/>
      <use x="250.0" xlink:href="#ArialMT-44"/>
      <use x="322.216796875" xlink:href="#ArialMT-61"/>
      <use x="377.83203125" xlink:href="#ArialMT-79"/>
      <use x="427.83203125" xlink:href="#ArialMT-73"/>
      <use x="477.83203125" xlink:href="#ArialMT-29"/>
     </g>
    </g>
   </g>
   <g id="matplotlib.axis_2">
    <g id="ytick_1">
     <g id="line2d_22">
      <path clip-path="url(#p72474cd35b)" d="
M51.5634 391.447
L271.014 391.447" style="fill:none;opacity:0.2;stroke:#b2b2b2;stroke-linecap:square;stroke-width:0.5;"/>
     </g>
     <g id="line2d_23">
      <defs>
       <path d="
M0 0
L-4 0" id="mc35cc452be" style="stroke:#000000;"/>
      </defs>
      <g>
       <use style="stroke:#000000;" x="51.5634375" xlink:href="#mc35cc452be" y="391.4475"/>
      </g>
     </g>
     <g id="line2d_24">
      <defs>
       <path d="
M0 0
L4 0" id="m82fbe672db" style="stroke:#000000;"/>
      </defs>
      <g>
       <use style="stroke:#000000;" x="271.013921886" xlink:href="#m82fbe672db" y="391.4475"/>
      </g>
     </g>
     <g id="text_9">
      <!-- $\mathdefault{0.0}$ -->
      <g transform="translate(25.0034375 394.5496875)scale(0.12 -0.12)">
       <use transform="translate(0.0 0.125)" xlink:href="#ArialMT-30"/>
       <use transform="translate(55.615234375 0.125)" xlink:href="#ArialMT-2e"/>
       <use transform="translate(82.275390625 0.125)" xlink:href="#ArialMT-30"/>
      </g>
     </g>
    </g>
    <g id="ytick_2">
     <g id="line2d_25">
      <path clip-path="url(#p72474cd35b)" d="
M51.5634 352.115
L271.014 352.115" style="fill:none;opacity:0.2;stroke:#b2b2b2;stroke-linecap:square;stroke-width:0.5;"/>
     </g>
     <g id="line2d_26">
      <g>
       <use style="stroke:#000000;" x="51.5634375" xlink:href="#mc35cc452be" y="352.115"/>
      </g>
     </g>
     <g id="line2d_27">
      <g>
       <use style="stroke:#000000;" x="271.013921886" xlink:href="#m82fbe672db" y="352.115"/>
      </g>
     </g>
     <g id="text_10">
      <!-- $\mathdefault{0.5}$ -->
      <g transform="translate(25.0034375 355.2171875)scale(0.12 -0.12)">
       <use transform="translate(0.0 0.125)" xlink:href="#ArialMT-30"/>
       <use transform="translate(55.615234375 0.125)" xlink:href="#ArialMT-2e"/>
       <use transform="translate(82.275390625 0.125)" xlink:href="#ArialMT-35"/>
      </g>
     </g>
    </g>
    <g id="ytick_3">
     <g id="line2d_28">
      <path clip-path="url(#p72474cd35b)" d="
M51.5634 312.782
L271.014 312.782" style="fill:none;opacity:0.2;stroke:#b2b2b2;stroke-linecap:square;stroke-width:0.5;"/>
     </g>
     <g id="line2d_29">
      <g>
       <use style="stroke:#000000;" x="51.5634375" xlink:href="#mc35cc452be" y="312.7825"/>
      </g>
     </g>
     <g id="line2d_30">
      <g>
       <use style="stroke:#000000;" x="271.013921886" xlink:href="#m82fbe672db" y="312.7825"/>
      </g>
     </g>
     <g id="text_11">
      <!-- $\mathdefault{1.0}$ -->
      <g transform="translate(25.0034375 315.8846875)scale(0.12 -0.12)">
       <use transform="translate(0.0 0.125)" xlink:href="#ArialMT-31"/>
       <use transform="translate(55.615234375 0.125)" xlink:href="#ArialMT-2e"/>
       <use transform="translate(82.275390625 0.125)" xlink:href="#ArialMT-30"/>
      </g>
     </g>
    </g>
    <g id="ytick_4">
     <g id="line2d_31">
      <path clip-path="url(#p72474cd35b)" d="
M51.5634 273.45
L271.014 273.45" style="fill:none;opacity:0.2;stroke:#b2b2b2;stroke-linecap:square;stroke-width:0.5;"/>
     </g>
     <g id="line2d_32">
      <g>
       <use style="stroke:#000000;" x="51.5634375" xlink:href="#mc35cc452be" y="273.45"/>
      </g>
     </g>
     <g id="line2d_33">
      <g>
       <use style="stroke:#000000;" x="271.013921886" xlink:href="#m82fbe672db" y="273.45"/>
      </g>
     </g>
     <g id="text_12">
      <!-- $\mathdefault{1.5}$ -->
      <g transform="translate(25.0034375 276.5521875)scale(0.12 -0.12)">
       <use transform="translate(0.0 0.125)" xlink:href="#ArialMT-31"/>
       <use transform="translate(55.615234375 0.125)" xlink:href="#ArialMT-2e"/>
       <use transform="translate(82.275390625 0.125)" xlink:href="#ArialMT-35"/>
      </g>
     </g>
    </g>
    <g id="ytick_5">
     <g id="line2d_34">
      <path clip-path="url(#p72474cd35b)" d="
M51.5634 234.117
L271.014 234.117" style="fill:none;opacity:0.2;stroke:#b2b2b2;stroke-linecap:square;stroke-width:0.5;"/>
     </g>
     <g id="line2d_35">
      <g>
       <use style="stroke:#000000;" x="51.5634375" xlink:href="#mc35cc452be" y="234.1175"/>
      </g>
     </g>
     <g id="line2d_36">
      <g>
       <use style="stroke:#000000;" x="271.013921886" xlink:href="#m82fbe672db" y="234.1175"/>
      </g>
     </g>
     <g id="text_13">
      <!-- $\mathdefault{2.0}$ -->
      <g transform="translate(25.0034375 237.2196875)scale(0.12 -0.12)">
       <use transform="translate(0.0 0.125)" xlink:href="#ArialMT-32"/>
       <use transform="translate(55.615234375 0.125)" xlink:href="#ArialMT-2e"/>
       <use transform="translate(82.275390625 0.125)" xlink:href="#ArialMT-30"/>
      </g>
     </g>
    </g>
    <g id="ytick_6">
     <g id="line2d_37">
      <path clip-path="url(#p72474cd35b)" d="
M51.5634 194.785
L271.014 194.785" style="fill:none;opacity:0.2;stroke:#b2b2b2;stroke-linecap:square;stroke-width:0.5;"/>
     </g>
     <g id="line2d_38">
      <g>
       <use style="stroke:#000000;" x="51.5634375" xlink:href="#mc35cc452be" y="194.785"/>
      </g>
     </g>
     <g id="line2d_39">
      <g>
       <use style="stroke:#000000;" x="271.013921886" xlink:href="#m82fbe672db" y="194.785"/>
      </g>
     </g>
     <g id="text_14">
      <!-- $\mathdefault{2.5}$ -->
      <g transform="translate(25.0034375 197.8871875)scale(0.12 -0.12)">
       <use transform="translate(0.0 0.125)" xlink:href="#ArialMT-32"/>
       <use transform="translate(55.615234375 0.125)" xlink:href="#ArialMT-2e"/>
       <use transform="translate(82.275390625 0.125)" xlink:href="#ArialMT-35"/>
      </g>
     </g>
    </g>
    <g id="ytick_7">
     <g id="line2d_40">
      <path clip-path="url(#p72474cd35b)" d="
M51.5634 155.452
L271.014 155.452" style="fill:none;opacity:0.2;stroke:#b2b2b2;stroke-linecap:square;stroke-width:0.5;"/>
     </g>
     <g id="line2d_41">
      <g>
       <use style="stroke:#000000;" x="51.5634375" xlink:href="#mc35cc452be" y="155.4525"/>
      </g>
     </g>
     <g id="line2d_42">
      <g>
       <use style="stroke:#000000;" x="271.013921886" xlink:href="#m82fbe672db" y="155.4525"/>
      </g>
     </g>
     <g id="text_15">
      <!-- $\mathdefault{3.0}$ -->
      <g transform="translate(25.0034375 158.5546875)scale(0.12 -0.12)">
       <use transform="translate(0.0 0.125)" xlink:href="#ArialMT-33"/>
       <use transform="translate(55.615234375 0.125)" xlink:href="#ArialMT-2e"/>
       <use transform="translate(82.275390625 0.125)" xlink:href="#ArialMT-30"/>
      </g>
     </g>
    </g>
    <g id="ytick_8">
     <g id="line2d_43">
      <path clip-path="url(#p72474cd35b)" d="
M51.5634 116.12
L271.014 116.12" style="fill:none;opacity:0.2;stroke:#b2b2b2;stroke-linecap:square;stroke-width:0.5;"/>
     </g>
     <g id="line2d_44">
      <g>
       <use style="stroke:#000000;" x="51.5634375" xlink:href="#mc35cc452be" y="116.12"/>
      </g>
     </g>
     <g id="line2d_45">
      <g>
       <use style="stroke:#000000;" x="271.013921886" xlink:href="#m82fbe672db" y="116.12"/>
      </g>
     </g>
     <g id="text_16">
      <!-- $\mathdefault{3.5}$ -->
      <g transform="translate(25.0034375 119.2221875)scale(0.12 -0.12)">
       <use transform="translate(0.0 0.125)" xlink:href="#ArialMT-33"/>
       <use transform="translate(55.615234375 0.125)" xlink:href="#ArialMT-2e"/>
       <use transform="translate(82.275390625 0.125)" xlink:href="#ArialMT-35"/>
      </g>
     </g>
    </g>
    <g id="ytick_9">
     <g id="line2d_46">
      <path clip-path="url(#p72474cd35b)" d="
M51.5634 76.7875
L271.014 76.7875" style="fill:none;opacity:0.2;stroke:#b2b2b2;stroke-linecap:square;stroke-width:0.5;"/>
     </g>
     <g id="line2d_47">
      <g>
       <use style="stroke:#000000;" x="51.5634375" xlink:href="#mc35cc452be" y="76.7875"/>
      </g>
     </g>
     <g id="line2d_48">
      <g>
       <use style="stroke:#000000;" x="271.013921886" xlink:href="#m82fbe672db" y="76.7875"/>
      </g>
     </g>
     <g id="text_17">
      <!-- $\mathdefault{4.0}$ -->
      <defs>
       <path d="
M32.3281 0
L32.3281 17.1406
L1.26562 17.1406
L1.26562 25.2031
L33.9375 71.5781
L41.1094 71.5781
L41.1094 25.2031
L50.7812 25.2031
L50.7812 17.1406
L41.1094 17.1406
L41.1094 0
z

M32.3281 25.2031
L32.3281 57.4688
L9.90625 25.2031
z
" id="ArialMT-34"/>
      </defs>
      <g transform="translate(25.0034375 79.8896875)scale(0.12 -0.12)">
       <use transform="translate(0.0 0.125)" xlink:href="#ArialMT-34"/>
       <use transform="translate(55.615234375 0.125)" xlink:href="#ArialMT-2e"/>
       <use transform="translate(82.275390625 0.125)" xlink:href="#ArialMT-30"/>
      </g>
     </g>
    </g>
    <g id="ytick_10">
     <g id="line2d_49">
      <path clip-path="url(#p72474cd35b)" d="
M51.5634 37.455
L271.014 37.455" style="fill:none;opacity:0.2;stroke:#b2b2b2;stroke-linecap:square;stroke-width:0.5;"/>
     </g>
     <g id="line2d_50">
      <g>
       <use style="stroke:#000000;" x="51.5634375" xlink:href="#mc35cc452be" y="37.455"/>
      </g>
     </g>
     <g id="line2d_51">
      <g>
       <use style="stroke:#000000;" x="271.013921886" xlink:href="#m82fbe672db" y="37.455"/>
      </g>
     </g>
     <g id="text_18">
      <!-- $\mathdefault{4.5}$ -->
      <g transform="translate(25.0034375 40.5571875)scale(0.12 -0.12)">
       <use transform="translate(0.0 0.421875)" xlink:href="#ArialMT-34"/>
       <use transform="translate(55.615234375 0.421875)" xlink:href="#ArialMT-2e"/>
       <use transform="translate(82.275390625 0.421875)" xlink:href="#ArialMT-35"/>
      </g>
     </g>
    </g>
    <g id="text_19">
     <!-- Number of Cells -->
     <defs>
      <path d="
M40.5781 0
L40.5781 7.625
Q34.5156 -1.17188 24.125 -1.17188
Q19.5312 -1.17188 15.5469 0.578125
Q11.5781 2.34375 9.64062 5
Q7.71875 7.67188 6.9375 11.5312
Q6.39062 14.1094 6.39062 19.7344
L6.39062 51.8594
L15.1875 51.8594
L15.1875 23.0938
Q15.1875 16.2188 15.7188 13.8125
Q16.5469 10.3594 19.2344 8.375
Q21.9219 6.39062 25.875 6.39062
Q29.8281 6.39062 33.2969 8.42188
Q36.7656 10.4531 38.2031 13.9375
Q39.6562 17.4375 39.6562 24.0781
L39.6562 51.8594
L48.4375 51.8594
L48.4375 0
z
" id="ArialMT-75"/>
      <path d="
M7.625 0
L7.625 71.5781
L17.3281 71.5781
L54.9375 15.375
L54.9375 71.5781
L64.0156 71.5781
L64.0156 0
L54.2969 0
L16.7031 56.25
L16.7031 0
z
" id="ArialMT-4e"/>
      <path d="
M6.5 0
L6.5 51.8594
L14.4062 51.8594
L14.4062 44
Q17.4375 49.5156 20 51.2656
Q22.5625 53.0312 25.6406 53.0312
Q30.0781 53.0312 34.6719 50.2031
L31.6406 42.0469
Q28.4219 43.9531 25.2031 43.9531
Q22.3125 43.9531 20.0156 42.2188
Q17.7188 40.4844 16.75 37.4062
Q15.2812 32.7188 15.2812 27.1562
L15.2812 0
z
" id="ArialMT-72"/>
      <path d="
M8.6875 0
L8.6875 45.0156
L0.921875 45.0156
L0.921875 51.8594
L8.6875 51.8594
L8.6875 57.375
Q8.6875 62.5938 9.625 65.1406
Q10.8906 68.5625 14.0781 70.6719
Q17.2812 72.7969 23.0469 72.7969
Q26.7656 72.7969 31.25 71.9219
L29.9375 64.2656
Q27.2031 64.75 24.75 64.75
Q20.75 64.75 19.0938 63.0312
Q17.4375 61.3281 17.4375 56.6406
L17.4375 51.8594
L27.5469 51.8594
L27.5469 45.0156
L17.4375 45.0156
L17.4375 0
z
" id="ArialMT-66"/>
      <path d="
M6.39062 0
L6.39062 71.5781
L15.1875 71.5781
L15.1875 0
z
" id="ArialMT-6c"/>
      <path d="
M14.7031 0
L6.54688 0
L6.54688 71.5781
L15.3281 71.5781
L15.3281 46.0469
Q20.9062 53.0312 29.5469 53.0312
Q34.3281 53.0312 38.5938 51.0938
Q42.875 49.1719 45.625 45.6719
Q48.3906 42.1875 49.9531 37.25
Q51.5156 32.3281 51.5156 26.7031
Q51.5156 13.375 44.9219 6.09375
Q38.3281 -1.17188 29.1094 -1.17188
Q19.9219 -1.17188 14.7031 6.5
z

M14.5938 26.3125
Q14.5938 17 17.1406 12.8438
Q21.2969 6.0625 28.375 6.0625
Q34.125 6.0625 38.3281 11.0625
Q42.5312 16.0625 42.5312 25.9844
Q42.5312 36.1406 38.5 40.9688
Q34.4688 45.7969 28.7656 45.7969
Q23 45.7969 18.7969 40.7969
Q14.5938 35.7969 14.5938 26.3125" id="ArialMT-62"/>
      <path d="
M3.32812 25.9219
Q3.32812 40.3281 11.3281 47.2656
Q18.0156 53.0312 27.6406 53.0312
Q38.3281 53.0312 45.1094 46.0156
Q51.9062 39.0156 51.9062 26.6562
Q51.9062 16.6562 48.9062 10.9062
Q45.9062 5.17188 40.1562 2
Q34.4219 -1.17188 27.6406 -1.17188
Q16.75 -1.17188 10.0312 5.8125
Q3.32812 12.7969 3.32812 25.9219
M12.3594 25.9219
Q12.3594 15.9688 16.7031 11.0156
Q21.0469 6.0625 27.6406 6.0625
Q34.1875 6.0625 38.5312 11.0312
Q42.875 16.0156 42.875 26.2188
Q42.875 35.8438 38.5 40.7969
Q34.125 45.75 27.6406 45.75
Q21.0469 45.75 16.7031 40.8125
Q12.3594 35.8906 12.3594 25.9219" id="ArialMT-6f"/>
      <path d="
M58.7969 25.0938
L68.2656 22.7031
Q65.2812 11.0312 57.5469 4.90625
Q49.8125 -1.21875 38.625 -1.21875
Q27.0469 -1.21875 19.7969 3.48438
Q12.5469 8.20312 8.76562 17.1406
Q4.98438 26.0781 4.98438 36.3281
Q4.98438 47.5156 9.25 55.8281
Q13.5312 64.1562 21.4062 68.4688
Q29.2969 72.7969 38.7656 72.7969
Q49.5156 72.7969 56.8281 67.3281
Q64.1562 61.8594 67.0469 51.9531
L57.7188 49.75
Q55.2188 57.5625 50.4844 61.125
Q45.75 64.7031 38.5781 64.7031
Q30.3281 64.7031 24.7812 60.7344
Q19.2344 56.7812 16.9844 50.1094
Q14.75 43.4531 14.75 36.375
Q14.75 27.25 17.4062 20.4375
Q20.0625 13.625 25.6719 10.25
Q31.2969 6.89062 37.8438 6.89062
Q45.7969 6.89062 51.3125 11.4688
Q56.8438 16.0625 58.7969 25.0938" id="ArialMT-43"/>
     </defs>
     <g transform="translate(17.2209375 264.36125)rotate(-90.0)scale(0.14 -0.14)">
      <use xlink:href="#ArialMT-4e"/>
      <use x="72.216796875" xlink:href="#ArialMT-75"/>
      <use x="127.83203125" xlink:href="#ArialMT-6d"/>
      <use x="211.1328125" xlink:href="#ArialMT-62"/>
      <use x="266.748046875" xlink:href="#ArialMT-65"/>
      <use x="322.36328125" xlink:href="#ArialMT-72"/>
      <use x="355.6640625" xlink:href="#ArialMT-20"/>
      <use x="383.447265625" xlink:href="#ArialMT-6f"/>
      <use x="439.0625" xlink:href="#ArialMT-66"/>
      <use x="466.845703125" xlink:href="#ArialMT-20"/>
      <use x="494.62890625" xlink:href="#ArialMT-43"/>
      <use x="566.845703125" xlink:href="#ArialMT-65"/>
      <use x="622.4609375" xlink:href="#ArialMT-6c"/>
      <use x="644.677734375" xlink:href="#ArialMT-6c"/>
      <use x="666.89453125" xlink:href="#ArialMT-73"/>
     </g>
    </g>
    <g id="text_20">
     <!-- $\times\mathdefault{10^{12}}\mathdefault{}$ -->
     <defs>
      <path d="
M7.85938 19.9688
L23.25 35.3594
L7.90625 50.6875
L13.875 56.6406
L29.2031 41.3125
L44.4844 56.5938
L50.3438 50.6875
L35.1094 35.4062
L50.4375 20.0625
L44.4844 14.1094
L29.1562 29.4375
L13.7656 14.0625
z
" id="ArialMT-d7"/>
     </defs>
     <g transform="translate(51.5634375 34.455)scale(0.12 -0.12)">
      <use transform="translate(16.66015625 0.90625)" xlink:href="#ArialMT-d7"/>
      <use transform="translate(75.8984375 0.90625)" xlink:href="#ArialMT-31"/>
      <use transform="translate(131.513671875 0.90625)" xlink:href="#ArialMT-30"/>
      <use transform="translate(187.12890625 50.6875)scale(0.7)" xlink:href="#ArialMT-31"/>
      <use transform="translate(226.0595703125 50.6875)scale(0.7)" xlink:href="#ArialMT-32"/>
     </g>
    </g>
   </g>
   <g id="LineCollection_1">
    <path clip-path="url(#p72474cd35b)" d="
M55.103 391.447
L55.103 391.447" style="fill:none;stroke:#000000;stroke-width:2.0;"/>
    <path clip-path="url(#p72474cd35b)" d="
M125.893 391.447
L125.893 391.447" style="fill:none;stroke:#000000;stroke-width:2.0;"/>
    <path clip-path="url(#p72474cd35b)" d="
M196.684 391.447
L196.684 391.447" style="fill:none;stroke:#000000;stroke-width:2.0;"/>
    <path clip-path="url(#p72474cd35b)" d="
M267.474 391.447
L267.474 391.447" style="fill:none;stroke:#000000;stroke-width:2.0;"/>
   </g>
   <g id="line2d_52">
    <path clip-path="url(#p72474cd35b)" d="
M55.103 391.447
L85.4417 391.447
L115.781 391.441
L146.119 391.393
L176.458 390.968
L206.797 387.225
L237.136 354.274
L267.474 64.187" style="fill:none;"/>
    <defs>
     <path d="
M0 -3.5
L-3.5 3.5
L3.5 3.5
z
" id="m6f1ef337d9" style="stroke:#000000;stroke-linejoin:miter;stroke-width:1.5;"/>
    </defs>
    <g clip-path="url(#p72474cd35b)">
     <use style="fill:none;stroke:#000000;stroke-linejoin:miter;stroke-width:1.5;" x="55.1029614417" xlink:href="#m6f1ef337d9" y="391.447429677"/>
     <use style="fill:none;stroke:#000000;stroke-linejoin:miter;stroke-width:1.5;" x="85.441738085" xlink:href="#m6f1ef337d9" y="391.446805857"/>
     <use style="fill:none;stroke:#000000;stroke-linejoin:miter;stroke-width:1.5;" x="115.780514728" xlink:href="#m6f1ef337d9" y="391.44132035"/>
     <use style="fill:none;stroke:#000000;stroke-linejoin:miter;stroke-width:1.5;" x="146.119291372" xlink:href="#m6f1ef337d9" y="391.393027906"/>
     <use style="fill:none;stroke:#000000;stroke-linejoin:miter;stroke-width:1.5;" x="176.458068015" xlink:href="#m6f1ef337d9" y="390.967878542"/>
     <use style="fill:none;stroke:#000000;stroke-linejoin:miter;stroke-width:1.5;" x="206.796844658" xlink:href="#m6f1ef337d9" y="387.22501591"/>
     <use style="fill:none;stroke:#000000;stroke-linejoin:miter;stroke-width:1.5;" x="237.135621301" xlink:href="#m6f1ef337d9" y="354.274195771"/>
     <use style="fill:none;stroke:#000000;stroke-linejoin:miter;stroke-width:1.5;" x="267.474397945" xlink:href="#m6f1ef337d9" y="64.1869877158"/>
    </g>
   </g>
   <g id="line2d_53">
    <path clip-path="url(#p72474cd35b)" d="
M55.103 391.447
L57.2481 391.447
L59.3933 391.447
L61.5385 391.447
L63.6836 391.447
L65.8288 391.447
L67.974 391.447
L70.1191 391.447
L72.2643 391.447
L74.4095 391.447
L76.5546 391.447
L78.6998 391.447
L80.845 391.447
L82.9901 391.447
L85.1353 391.447
L87.2805 391.447
L89.4256 391.447
L91.5708 391.446
L93.7159 391.446
L95.8611 391.446
L98.0063 391.446
L100.151 391.445
L102.297 391.445
L104.442 391.445
L106.587 391.444
L108.732 391.444
L110.877 391.443
L113.022 391.442
L115.168 391.442
L117.313 391.441
L119.458 391.439
L121.603 391.438
L123.748 391.437
L125.893 391.435
L128.039 391.433
L130.184 391.43
L132.329 391.427
L134.474 391.424
L136.619 391.42
L138.764 391.415
L140.91 391.41
L143.055 391.404
L145.2 391.397
L147.345 391.388
L149.49 391.378
L151.635 391.367
L153.781 391.353
L155.926 391.337
L158.071 391.319
L160.216 391.298
L162.361 391.273
L164.506 391.244
L166.652 391.21
L168.797 391.171
L170.942 391.125
L173.087 391.071
L175.232 391.008
L177.377 390.935
L179.523 390.85
L181.668 390.751
L183.813 390.635
L185.958 390.5
L188.103 390.342
L190.248 390.158
L192.394 389.944
L194.539 389.694
L196.684 389.403
L198.829 389.063
L200.974 388.666
L203.119 388.204
L205.265 387.664
L207.41 387.035
L209.555 386.302
L211.7 385.446
L213.845 384.449
L215.99 383.285
L218.136 381.928
L220.281 380.345
L222.426 378.499
L224.571 376.346
L226.716 373.836
L228.861 370.908
L231.007 367.493
L233.152 363.51
L235.297 358.865
L237.442 353.448
L239.587 347.131
L241.732 339.763
L243.878 331.17
L246.023 321.148
L248.168 309.461
L250.313 295.83
L252.458 279.932
L254.603 261.392
L256.749 239.77
L258.894 214.552
L261.039 185.142
L263.184 150.842
L265.329 110.84
L267.474 64.187" style="fill:none;stroke:#000000;stroke-linecap:square;stroke-width:1.5;"/>
   </g>
   <g id="line2d_54">
    <defs>
     <path d="
M3 1.83697e-16
L-3 -1.83697e-16" id="m1bd5d76403" style="stroke:#000000;stroke-width:2.0;"/>
    </defs>
    <g clip-path="url(#p72474cd35b)">
     <use style="stroke:#000000;stroke-width:2.0;" x="55.1029614417" xlink:href="#m1bd5d76403" y="391.447430832"/>
     <use style="stroke:#000000;stroke-width:2.0;" x="125.893440276" xlink:href="#m1bd5d76403" y="391.447351378"/>
     <use style="stroke:#000000;stroke-width:2.0;" x="196.68391911" xlink:href="#m1bd5d76403" y="391.447222461"/>
     <use style="stroke:#000000;stroke-width:2.0;" x="267.474397945" xlink:href="#m1bd5d76403" y="391.447049461"/>
    </g>
   </g>
   <g id="line2d_55">
    <g clip-path="url(#p72474cd35b)">
     <use style="stroke:#000000;stroke-width:2.0;" x="55.1029614417" xlink:href="#m1bd5d76403" y="391.447428522"/>
     <use style="stroke:#000000;stroke-width:2.0;" x="125.893440276" xlink:href="#m1bd5d76403" y="391.447334937"/>
     <use style="stroke:#000000;stroke-width:2.0;" x="196.68391911" xlink:href="#m1bd5d76403" y="391.447150051"/>
     <use style="stroke:#000000;stroke-width:2.0;" x="267.474397945" xlink:href="#m1bd5d76403" y="391.446949875"/>
    </g>
   </g>
   <g id="line2d_56">
    <defs>
     <path d="
M0 -3.5
L-3.5 3.5
L3.5 3.5
z
" id="mc4325aa518" style="stroke:#000000;stroke-linejoin:miter;stroke-width:2.0;"/>
    </defs>
    <g clip-path="url(#p72474cd35b)">
     <use style="stroke:#000000;stroke-linejoin:miter;stroke-width:2.0;" x="55.1029614417" xlink:href="#mc4325aa518" y="391.447429677"/>
     <use style="stroke:#000000;stroke-linejoin:miter;stroke-width:2.0;" x="125.893440276" xlink:href="#mc4325aa518" y="391.447343158"/>
     <use style="stroke:#000000;stroke-linejoin:miter;stroke-width:2.0;" x="196.68391911" xlink:href="#mc4325aa518" y="391.447186256"/>
     <use style="stroke:#000000;stroke-linejoin:miter;stroke-width:2.0;" x="267.474397945" xlink:href="#mc4325aa518" y="391.446999668"/>
    </g>
   </g>
   <g id="patch_3">
    <path d="
M51.5634 37.455
L271.014 37.455" style="fill:none;stroke:#000000;stroke-linecap:square;stroke-linejoin:miter;"/>
   </g>
   <g id="patch_4">
    <path d="
M271.014 391.447
L271.014 37.455" style="fill:none;stroke:#000000;stroke-linecap:square;stroke-linejoin:miter;"/>
   </g>
   <g id="patch_5">
    <path d="
M51.5634 391.447
L51.5634 37.455" style="fill:none;stroke:#000000;stroke-linecap:square;stroke-linejoin:miter;"/>
   </g>
   <g id="patch_6">
    <path d="
M51.5634 391.447
L271.014 391.447" style="fill:none;stroke:#000000;stroke-linecap:square;stroke-linejoin:miter;"/>
   </g>
   <g id="legend_1">
    <g id="patch_7">
     <path d="
M88.4942 481.449
L238.083 481.449
Q240.963 481.449 240.963 478.569
L240.963 438.927
Q240.963 436.047 238.083 436.047
L88.4942 436.047
Q85.6142 436.047 85.6142 438.927
L85.6142 478.569
Q85.6142 481.449 88.4942 481.449
z
" style="fill:#4c4c4c;opacity:0.5;stroke:#4c4c4c;stroke-linejoin:miter;"/>
    </g>
    <g id="patch_8">
     <path d="
M86.4942 479.449
L236.083 479.449
Q238.963 479.449 238.963 476.569
L238.963 436.927
Q238.963 434.047 236.083 434.047
L86.4942 434.047
Q83.6142 434.047 83.6142 436.927
L83.6142 476.569
Q83.6142 479.449 86.4942 479.449
z
" style="fill:#ffffff;stroke:#000000;stroke-linejoin:miter;"/>
    </g>
    <g id="line2d_57">
     <path d="
M89.3742 445.249
L118.174 445.249" style="fill:none;"/>
    </g>
    <g id="line2d_58">
     <g>
      <use style="fill:none;stroke:#000000;stroke-linejoin:miter;stroke-width:1.5;" x="103.774179693" xlink:href="#m6f1ef337d9" y="445.2495"/>
     </g>
    </g>
    <g id="text_21">
     <!-- Live cells (fitted) -->
     <defs>
      <path d="
M40.2344 0
L40.2344 6.54688
Q35.2969 -1.17188 25.7344 -1.17188
Q19.5312 -1.17188 14.3281 2.25
Q9.125 5.67188 6.26562 11.7969
Q3.42188 17.9219 3.42188 25.875
Q3.42188 33.6406 6 39.9688
Q8.59375 46.2969 13.7656 49.6562
Q18.9531 53.0312 25.3438 53.0312
Q30.0312 53.0312 33.6875 51.0469
Q37.3594 49.0781 39.6562 45.9062
L39.6562 71.5781
L48.3906 71.5781
L48.3906 0
z

M12.4531 25.875
Q12.4531 15.9219 16.6406 10.9844
Q20.8438 6.0625 26.5625 6.0625
Q32.3281 6.0625 36.3438 10.7656
Q40.375 15.4844 40.375 25.1406
Q40.375 35.7969 36.2656 40.7656
Q32.1719 45.75 26.1719 45.75
Q20.3125 45.75 16.375 40.9688
Q12.4531 36.1875 12.4531 25.875" id="ArialMT-64"/>
      <path d="
M7.32812 0
L7.32812 71.5781
L16.7969 71.5781
L16.7969 8.45312
L52.0469 8.45312
L52.0469 0
z
" id="ArialMT-4c"/>
      <path d="
M40.4375 19
L49.0781 17.875
Q47.6562 8.9375 41.8125 3.875
Q35.9844 -1.17188 27.4844 -1.17188
Q16.8438 -1.17188 10.375 5.78125
Q3.90625 12.75 3.90625 25.7344
Q3.90625 34.125 6.6875 40.4219
Q9.46875 46.7344 15.1562 49.875
Q20.8438 53.0312 27.5469 53.0312
Q35.9844 53.0312 41.3594 48.75
Q46.7344 44.4844 48.25 36.625
L39.7031 35.2969
Q38.4844 40.5312 35.375 43.1562
Q32.2812 45.7969 27.875 45.7969
Q21.2344 45.7969 17.0781 41.0312
Q12.9375 36.2812 12.9375 25.9844
Q12.9375 15.5312 16.9375 10.7969
Q20.9531 6.0625 27.3906 6.0625
Q32.5625 6.0625 36.0312 9.23438
Q39.5 12.4062 40.4375 19" id="ArialMT-63"/>
      <path d="
M21 0
L1.26562 51.8594
L10.5469 51.8594
L21.6875 20.7969
Q23.4844 15.7656 25 10.3594
Q26.1719 14.4531 28.2656 20.2188
L39.7969 51.8594
L48.8281 51.8594
L29.2031 0
z
" id="ArialMT-76"/>
     </defs>
     <g transform="translate(129.694179693 450.2895)scale(0.144 -0.144)">
      <use xlink:href="#ArialMT-4c"/>
      <use x="55.615234375" xlink:href="#ArialMT-69"/>
      <use x="77.83203125" xlink:href="#ArialMT-76"/>
      <use x="127.83203125" xlink:href="#ArialMT-65"/>
      <use x="183.447265625" xlink:href="#ArialMT-20"/>
      <use x="211.23046875" xlink:href="#ArialMT-63"/>
      <use x="261.23046875" xlink:href="#ArialMT-65"/>
      <use x="316.845703125" xlink:href="#ArialMT-6c"/>
      <use x="339.0625" xlink:href="#ArialMT-6c"/>
      <use x="361.279296875" xlink:href="#ArialMT-73"/>
      <use x="411.279296875" xlink:href="#ArialMT-20"/>
      <use x="439.0625" xlink:href="#ArialMT-28"/>
      <use x="472.36328125" xlink:href="#ArialMT-66"/>
      <use x="500.146484375" xlink:href="#ArialMT-69"/>
      <use x="522.36328125" xlink:href="#ArialMT-74"/>
      <use x="550.146484375" xlink:href="#ArialMT-74"/>
      <use x="577.9296875" xlink:href="#ArialMT-65"/>
      <use x="633.544921875" xlink:href="#ArialMT-64"/>
      <use x="689.16015625" xlink:href="#ArialMT-29"/>
     </g>
    </g>
    <g id="LineCollection_2">
     <path d="
M103.774 472.987
L103.774 458.587" style="fill:none;stroke:#000000;stroke-width:2.0;"/>
    </g>
    <g id="line2d_59">
     <g>
      <use style="stroke:#000000;stroke-width:2.0;" x="103.774179693" xlink:href="#m1bd5d76403" y="472.9875"/>
     </g>
    </g>
    <g id="line2d_60">
     <g>
      <use style="stroke:#000000;stroke-width:2.0;" x="103.774179693" xlink:href="#m1bd5d76403" y="458.5875"/>
     </g>
    </g>
    <g id="line2d_61"/>
    <g id="line2d_62">
     <g>
      <use style="stroke:#000000;stroke-linejoin:miter;stroke-width:2.0;" x="103.774179693" xlink:href="#mc4325aa518" y="465.7875"/>
     </g>
    </g>
    <g id="text_22">
     <!-- Live cells -->
     <g transform="translate(129.694179693 470.8275)scale(0.144 -0.144)">
      <use xlink:href="#ArialMT-4c"/>
      <use x="55.615234375" xlink:href="#ArialMT-69"/>
      <use x="77.83203125" xlink:href="#ArialMT-76"/>
      <use x="127.83203125" xlink:href="#ArialMT-65"/>
      <use x="183.447265625" xlink:href="#ArialMT-20"/>
      <use x="211.23046875" xlink:href="#ArialMT-63"/>
      <use x="261.23046875" xlink:href="#ArialMT-65"/>
      <use x="316.845703125" xlink:href="#ArialMT-6c"/>
      <use x="339.0625" xlink:href="#ArialMT-6c"/>
      <use x="361.279296875" xlink:href="#ArialMT-73"/>
     </g>
    </g>
   </g>
  </g>
  <g id="axes_2">
   <g id="patch_9">
    <path d="
M333.083 391.447
L552.534 391.447
L552.534 37.455
L333.083 37.455
z
" style="fill:#ffffff;"/>
   </g>
   <g id="matplotlib.axis_3">
    <g id="xtick_8">
     <g id="line2d_63">
      <path clip-path="url(#p418472bc67)" d="
M336.623 391.447
L336.623 37.455" style="fill:none;opacity:0.2;stroke:#b2b2b2;stroke-linecap:square;stroke-width:0.5;"/>
     </g>
     <g id="line2d_64">
      <g>
       <use style="stroke:#000000;" x="336.622961442" xlink:href="#m8a7fcc65d0" y="391.4475"/>
      </g>
     </g>
     <g id="line2d_65">
      <g>
       <use style="stroke:#000000;" x="336.622961442" xlink:href="#mf06237e818" y="37.455"/>
      </g>
     </g>
     <g id="text_23">
      <!-- $\mathdefault{0.0}$ -->
      <g transform="translate(328.342961442 410.036875)scale(0.12 -0.12)">
       <use transform="translate(0.0 0.125)" xlink:href="#ArialMT-30"/>
       <use transform="translate(55.615234375 0.125)" xlink:href="#ArialMT-2e"/>
       <use transform="translate(82.275390625 0.125)" xlink:href="#ArialMT-30"/>
      </g>
     </g>
    </g>
    <g id="xtick_9">
     <g id="line2d_66">
      <path clip-path="url(#p418472bc67)" d="
M372.018 391.447
L372.018 37.455" style="fill:none;opacity:0.2;stroke:#b2b2b2;stroke-linecap:square;stroke-width:0.5;"/>
     </g>
     <g id="line2d_67">
      <g>
       <use style="stroke:#000000;" x="372.018200859" xlink:href="#m8a7fcc65d0" y="391.4475"/>
      </g>
     </g>
     <g id="line2d_68">
      <g>
       <use style="stroke:#000000;" x="372.018200859" xlink:href="#mf06237e818" y="37.455"/>
      </g>
     </g>
     <g id="text_24">
      <!-- $\mathdefault{0.5}$ -->
      <g transform="translate(363.738200859 410.036875)scale(0.12 -0.12)">
       <use transform="translate(0.0 0.125)" xlink:href="#ArialMT-30"/>
       <use transform="translate(55.615234375 0.125)" xlink:href="#ArialMT-2e"/>
       <use transform="translate(82.275390625 0.125)" xlink:href="#ArialMT-35"/>
      </g>
     </g>
    </g>
    <g id="xtick_10">
     <g id="line2d_69">
      <path clip-path="url(#p418472bc67)" d="
M407.413 391.447
L407.413 37.455" style="fill:none;opacity:0.2;stroke:#b2b2b2;stroke-linecap:square;stroke-width:0.5;"/>
     </g>
     <g id="line2d_70">
      <g>
       <use style="stroke:#000000;" x="407.413440276" xlink:href="#m8a7fcc65d0" y="391.4475"/>
      </g>
     </g>
     <g id="line2d_71">
      <g>
       <use style="stroke:#000000;" x="407.413440276" xlink:href="#mf06237e818" y="37.455"/>
      </g>
     </g>
     <g id="text_25">
      <!-- $\mathdefault{1.0}$ -->
      <g transform="translate(399.133440276 410.036875)scale(0.12 -0.12)">
       <use transform="translate(0.0 0.125)" xlink:href="#ArialMT-31"/>
       <use transform="translate(55.615234375 0.125)" xlink:href="#ArialMT-2e"/>
       <use transform="translate(82.275390625 0.125)" xlink:href="#ArialMT-30"/>
      </g>
     </g>
    </g>
    <g id="xtick_11">
     <g id="line2d_72">
      <path clip-path="url(#p418472bc67)" d="
M442.809 391.447
L442.809 37.455" style="fill:none;opacity:0.2;stroke:#b2b2b2;stroke-linecap:square;stroke-width:0.5;"/>
     </g>
     <g id="line2d_73">
      <g>
       <use style="stroke:#000000;" x="442.808679693" xlink:href="#m8a7fcc65d0" y="391.4475"/>
      </g>
     </g>
     <g id="line2d_74">
      <g>
       <use style="stroke:#000000;" x="442.808679693" xlink:href="#mf06237e818" y="37.455"/>
      </g>
     </g>
     <g id="text_26">
      <!-- $\mathdefault{1.5}$ -->
      <g transform="translate(434.528679693 410.036875)scale(0.12 -0.12)">
       <use transform="translate(0.0 0.125)" xlink:href="#ArialMT-31"/>
       <use transform="translate(55.615234375 0.125)" xlink:href="#ArialMT-2e"/>
       <use transform="translate(82.275390625 0.125)" xlink:href="#ArialMT-35"/>
      </g>
     </g>
    </g>
    <g id="xtick_12">
     <g id="line2d_75">
      <path clip-path="url(#p418472bc67)" d="
M478.204 391.447
L478.204 37.455" style="fill:none;opacity:0.2;stroke:#b2b2b2;stroke-linecap:square;stroke-width:0.5;"/>
     </g>
     <g id="line2d_76">
      <g>
       <use style="stroke:#000000;" x="478.20391911" xlink:href="#m8a7fcc65d0" y="391.4475"/>
      </g>
     </g>
     <g id="line2d_77">
      <g>
       <use style="stroke:#000000;" x="478.20391911" xlink:href="#mf06237e818" y="37.455"/>
      </g>
     </g>
     <g id="text_27">
      <!-- $\mathdefault{2.0}$ -->
      <g transform="translate(469.92391911 410.036875)scale(0.12 -0.12)">
       <use transform="translate(0.0 0.125)" xlink:href="#ArialMT-32"/>
       <use transform="translate(55.615234375 0.125)" xlink:href="#ArialMT-2e"/>
       <use transform="translate(82.275390625 0.125)" xlink:href="#ArialMT-30"/>
      </g>
     </g>
    </g>
    <g id="xtick_13">
     <g id="line2d_78">
      <path clip-path="url(#p418472bc67)" d="
M513.599 391.447
L513.599 37.455" style="fill:none;opacity:0.2;stroke:#b2b2b2;stroke-linecap:square;stroke-width:0.5;"/>
     </g>
     <g id="line2d_79">
      <g>
       <use style="stroke:#000000;" x="513.599158528" xlink:href="#m8a7fcc65d0" y="391.4475"/>
      </g>
     </g>
     <g id="line2d_80">
      <g>
       <use style="stroke:#000000;" x="513.599158528" xlink:href="#mf06237e818" y="37.455"/>
      </g>
     </g>
     <g id="text_28">
      <!-- $\mathdefault{2.5}$ -->
      <g transform="translate(505.319158528 410.036875)scale(0.12 -0.12)">
       <use transform="translate(0.0 0.125)" xlink:href="#ArialMT-32"/>
       <use transform="translate(55.615234375 0.125)" xlink:href="#ArialMT-2e"/>
       <use transform="translate(82.275390625 0.125)" xlink:href="#ArialMT-35"/>
      </g>
     </g>
    </g>
    <g id="xtick_14">
     <g id="line2d_81">
      <path clip-path="url(#p418472bc67)" d="
M548.994 391.447
L548.994 37.455" style="fill:none;opacity:0.2;stroke:#b2b2b2;stroke-linecap:square;stroke-width:0.5;"/>
     </g>
     <g id="line2d_82">
      <g>
       <use style="stroke:#000000;" x="548.994397945" xlink:href="#m8a7fcc65d0" y="391.4475"/>
      </g>
     </g>
     <g id="line2d_83">
      <g>
       <use style="stroke:#000000;" x="548.994397945" xlink:href="#mf06237e818" y="37.455"/>
      </g>
     </g>
     <g id="text_29">
      <!-- $\mathdefault{3.0}$ -->
      <g transform="translate(540.714397945 410.036875)scale(0.12 -0.12)">
       <use transform="translate(0.0 0.125)" xlink:href="#ArialMT-33"/>
       <use transform="translate(55.615234375 0.125)" xlink:href="#ArialMT-2e"/>
       <use transform="translate(82.275390625 0.125)" xlink:href="#ArialMT-30"/>
      </g>
     </g>
    </g>
    <g id="text_30">
     <!-- time (Days) -->
     <g transform="translate(407.283679693 427.6134375)scale(0.14 -0.14)">
      <use xlink:href="#ArialMT-74"/>
      <use x="27.783203125" xlink:href="#ArialMT-69"/>
      <use x="50.0" xlink:href="#ArialMT-6d"/>
      <use x="133.30078125" xlink:href="#ArialMT-65"/>
      <use x="188.916015625" xlink:href="#ArialMT-20"/>
      <use x="216.69921875" xlink:href="#ArialMT-28"/>
      <use x="250.0" xlink:href="#ArialMT-44"/>
      <use x="322.216796875" xlink:href="#ArialMT-61"/>
      <use x="377.83203125" xlink:href="#ArialMT-79"/>
      <use x="427.83203125" xlink:href="#ArialMT-73"/>
      <use x="477.83203125" xlink:href="#ArialMT-29"/>
     </g>
    </g>
   </g>
   <g id="matplotlib.axis_4">
    <g id="ytick_11">
     <g id="line2d_84">
      <path clip-path="url(#p418472bc67)" d="
M333.083 391.447
L552.534 391.447" style="fill:none;opacity:0.2;stroke:#b2b2b2;stroke-linecap:square;stroke-width:0.5;"/>
     </g>
     <g id="line2d_85">
      <g>
       <use style="stroke:#000000;" x="333.0834375" xlink:href="#mc35cc452be" y="391.4475"/>
      </g>
     </g>
     <g id="line2d_86">
      <g>
       <use style="stroke:#000000;" x="552.533921886" xlink:href="#m82fbe672db" y="391.4475"/>
      </g>
     </g>
     <g id="text_31">
      <!-- $\mathdefault{0.1}$ -->
      <g transform="translate(306.5234375 394.5496875)scale(0.12 -0.12)">
       <use transform="translate(0.0 0.125)" xlink:href="#ArialMT-30"/>
       <use transform="translate(55.615234375 0.125)" xlink:href="#ArialMT-2e"/>
       <use transform="translate(82.275390625 0.125)" xlink:href="#ArialMT-31"/>
      </g>
     </g>
    </g>
    <g id="ytick_12">
     <g id="line2d_87">
      <path clip-path="url(#p418472bc67)" d="
M333.083 332.449
L552.534 332.449" style="fill:none;opacity:0.2;stroke:#b2b2b2;stroke-linecap:square;stroke-width:0.5;"/>
     </g>
     <g id="line2d_88">
      <g>
       <use style="stroke:#000000;" x="333.0834375" xlink:href="#mc35cc452be" y="332.44875"/>
      </g>
     </g>
     <g id="line2d_89">
      <g>
       <use style="stroke:#000000;" x="552.533921886" xlink:href="#m82fbe672db" y="332.44875"/>
      </g>
     </g>
     <g id="text_32">
      <!-- $\mathdefault{0.2}$ -->
      <g transform="translate(306.5234375 335.5509375)scale(0.12 -0.12)">
       <use transform="translate(0.0 0.125)" xlink:href="#ArialMT-30"/>
       <use transform="translate(55.615234375 0.125)" xlink:href="#ArialMT-2e"/>
       <use transform="translate(82.275390625 0.125)" xlink:href="#ArialMT-32"/>
      </g>
     </g>
    </g>
    <g id="ytick_13">
     <g id="line2d_90">
      <path clip-path="url(#p418472bc67)" d="
M333.083 273.45
L552.534 273.45" style="fill:none;opacity:0.2;stroke:#b2b2b2;stroke-linecap:square;stroke-width:0.5;"/>
     </g>
     <g id="line2d_91">
      <g>
       <use style="stroke:#000000;" x="333.0834375" xlink:href="#mc35cc452be" y="273.45"/>
      </g>
     </g>
     <g id="line2d_92">
      <g>
       <use style="stroke:#000000;" x="552.533921886" xlink:href="#m82fbe672db" y="273.45"/>
      </g>
     </g>
     <g id="text_33">
      <!-- $\mathdefault{0.3}$ -->
      <g transform="translate(306.5234375 276.5521875)scale(0.12 -0.12)">
       <use transform="translate(0.0 0.125)" xlink:href="#ArialMT-30"/>
       <use transform="translate(55.615234375 0.125)" xlink:href="#ArialMT-2e"/>
       <use transform="translate(82.275390625 0.125)" xlink:href="#ArialMT-33"/>
      </g>
     </g>
    </g>
    <g id="ytick_14">
     <g id="line2d_93">
      <path clip-path="url(#p418472bc67)" d="
M333.083 214.451
L552.534 214.451" style="fill:none;opacity:0.2;stroke:#b2b2b2;stroke-linecap:square;stroke-width:0.5;"/>
     </g>
     <g id="line2d_94">
      <g>
       <use style="stroke:#000000;" x="333.0834375" xlink:href="#mc35cc452be" y="214.45125"/>
      </g>
     </g>
     <g id="line2d_95">
      <g>
       <use style="stroke:#000000;" x="552.533921886" xlink:href="#m82fbe672db" y="214.45125"/>
      </g>
     </g>
     <g id="text_34">
      <!-- $\mathdefault{0.4}$ -->
      <g transform="translate(306.5234375 217.5534375)scale(0.12 -0.12)">
       <use transform="translate(0.0 0.125)" xlink:href="#ArialMT-30"/>
       <use transform="translate(55.615234375 0.125)" xlink:href="#ArialMT-2e"/>
       <use transform="translate(82.275390625 0.125)" xlink:href="#ArialMT-34"/>
      </g>
     </g>
    </g>
    <g id="ytick_15">
     <g id="line2d_96">
      <path clip-path="url(#p418472bc67)" d="
M333.083 155.452
L552.534 155.452" style="fill:none;opacity:0.2;stroke:#b2b2b2;stroke-linecap:square;stroke-width:0.5;"/>
     </g>
     <g id="line2d_97">
      <g>
       <use style="stroke:#000000;" x="333.0834375" xlink:href="#mc35cc452be" y="155.4525"/>
      </g>
     </g>
     <g id="line2d_98">
      <g>
       <use style="stroke:#000000;" x="552.533921886" xlink:href="#m82fbe672db" y="155.4525"/>
      </g>
     </g>
     <g id="text_35">
      <!-- $\mathdefault{0.5}$ -->
      <g transform="translate(306.5234375 158.5546875)scale(0.12 -0.12)">
       <use transform="translate(0.0 0.125)" xlink:href="#ArialMT-30"/>
       <use transform="translate(55.615234375 0.125)" xlink:href="#ArialMT-2e"/>
       <use transform="translate(82.275390625 0.125)" xlink:href="#ArialMT-35"/>
      </g>
     </g>
    </g>
    <g id="ytick_16">
     <g id="line2d_99">
      <path clip-path="url(#p418472bc67)" d="
M333.083 96.4538
L552.534 96.4538" style="fill:none;opacity:0.2;stroke:#b2b2b2;stroke-linecap:square;stroke-width:0.5;"/>
     </g>
     <g id="line2d_100">
      <g>
       <use style="stroke:#000000;" x="333.0834375" xlink:href="#mc35cc452be" y="96.45375"/>
      </g>
     </g>
     <g id="line2d_101">
      <g>
       <use style="stroke:#000000;" x="552.533921886" xlink:href="#m82fbe672db" y="96.45375"/>
      </g>
     </g>
     <g id="text_36">
      <!-- $\mathdefault{0.6}$ -->
      <defs>
       <path d="
M49.75 54.0469
L41.0156 53.375
Q39.8438 58.5469 37.7031 60.8906
Q34.125 64.6562 28.9062 64.6562
Q24.7031 64.6562 21.5312 62.3125
Q17.3906 59.2812 14.9844 53.4688
Q12.5938 47.6562 12.5 36.9219
Q15.6719 41.75 20.2656 44.0938
Q24.8594 46.4375 29.8906 46.4375
Q38.6719 46.4375 44.8438 39.9688
Q51.0312 33.5 51.0312 23.25
Q51.0312 16.5 48.125 10.7188
Q45.2188 4.9375 40.1406 1.85938
Q35.0625 -1.21875 28.6094 -1.21875
Q17.625 -1.21875 10.6875 6.85938
Q3.76562 14.9375 3.76562 33.5
Q3.76562 54.25 11.4219 63.6719
Q18.1094 71.875 29.4375 71.875
Q37.8906 71.875 43.2812 67.1406
Q48.6875 62.4062 49.75 54.0469
M13.875 23.1875
Q13.875 18.6562 15.7969 14.5
Q17.7188 10.3594 21.1875 8.17188
Q24.6562 6 28.4688 6
Q34.0312 6 38.0312 10.4844
Q42.0469 14.9844 42.0469 22.7031
Q42.0469 30.125 38.0781 34.3906
Q34.125 38.6719 28.125 38.6719
Q22.1719 38.6719 18.0156 34.3906
Q13.875 30.125 13.875 23.1875" id="ArialMT-36"/>
      </defs>
      <g transform="translate(306.5234375 99.5559375)scale(0.12 -0.12)">
       <use transform="translate(0.0 0.125)" xlink:href="#ArialMT-30"/>
       <use transform="translate(55.615234375 0.125)" xlink:href="#ArialMT-2e"/>
       <use transform="translate(82.275390625 0.125)" xlink:href="#ArialMT-36"/>
      </g>
     </g>
    </g>
    <g id="ytick_17">
     <g id="line2d_102">
      <path clip-path="url(#p418472bc67)" d="
M333.083 37.455
L552.534 37.455" style="fill:none;opacity:0.2;stroke:#b2b2b2;stroke-linecap:square;stroke-width:0.5;"/>
     </g>
     <g id="line2d_103">
      <g>
       <use style="stroke:#000000;" x="333.0834375" xlink:href="#mc35cc452be" y="37.455"/>
      </g>
     </g>
     <g id="line2d_104">
      <g>
       <use style="stroke:#000000;" x="552.533921886" xlink:href="#m82fbe672db" y="37.455"/>
      </g>
     </g>
     <g id="text_37">
      <!-- $\mathdefault{0.7}$ -->
      <defs>
       <path d="
M4.73438 62.2031
L4.73438 70.6562
L51.0781 70.6562
L51.0781 63.8125
Q44.2344 56.5469 37.5156 44.4844
Q30.8125 32.4219 27.1562 19.6719
Q24.5156 10.6875 23.7812 0
L14.75 0
Q14.8906 8.45312 18.0625 20.4062
Q21.2344 32.375 27.1719 43.4844
Q33.1094 54.5938 39.7969 62.2031
z
" id="ArialMT-37"/>
      </defs>
      <g transform="translate(306.5234375 40.5571875)scale(0.12 -0.12)">
       <use transform="translate(0.0 0.125)" xlink:href="#ArialMT-30"/>
       <use transform="translate(55.615234375 0.125)" xlink:href="#ArialMT-2e"/>
       <use transform="translate(82.275390625 0.125)" xlink:href="#ArialMT-37"/>
      </g>
     </g>
    </g>
    <g id="text_38">
     <!-- Fraction of live cells -->
     <defs>
      <path d="
M6.59375 0
L6.59375 51.8594
L14.5 51.8594
L14.5 44.4844
Q20.2188 53.0312 31 53.0312
Q35.6875 53.0312 39.625 51.3438
Q43.5625 49.6562 45.5156 46.9219
Q47.4688 44.1875 48.25 40.4375
Q48.7344 37.9844 48.7344 31.8906
L48.7344 0
L39.9375 0
L39.9375 31.5469
Q39.9375 36.9219 38.9062 39.5781
Q37.8906 42.2344 35.2812 43.8125
Q32.6719 45.4062 29.1562 45.4062
Q23.5312 45.4062 19.4531 41.8438
Q15.375 38.2812 15.375 28.3281
L15.375 0
z
" id="ArialMT-6e"/>
      <path d="
M8.20312 0
L8.20312 71.5781
L56.5 71.5781
L56.5 63.1406
L17.6719 63.1406
L17.6719 40.9688
L51.2656 40.9688
L51.2656 32.5156
L17.6719 32.5156
L17.6719 0
z
" id="ArialMT-46"/>
     </defs>
     <g transform="translate(298.7409375 275.64328125)rotate(-90.0)scale(0.14 -0.14)">
      <use xlink:href="#ArialMT-46"/>
      <use x="61.083984375" xlink:href="#ArialMT-72"/>
      <use x="94.384765625" xlink:href="#ArialMT-61"/>
      <use x="150.0" xlink:href="#ArialMT-63"/>
      <use x="200.0" xlink:href="#ArialMT-74"/>
      <use x="227.783203125" xlink:href="#ArialMT-69"/>
      <use x="250.0" xlink:href="#ArialMT-6f"/>
      <use x="305.615234375" xlink:href="#ArialMT-6e"/>
      <use x="361.23046875" xlink:href="#ArialMT-20"/>
      <use x="389.013671875" xlink:href="#ArialMT-6f"/>
      <use x="444.62890625" xlink:href="#ArialMT-66"/>
      <use x="472.412109375" xlink:href="#ArialMT-20"/>
      <use x="500.1953125" xlink:href="#ArialMT-6c"/>
      <use x="522.412109375" xlink:href="#ArialMT-69"/>
      <use x="544.62890625" xlink:href="#ArialMT-76"/>
      <use x="594.62890625" xlink:href="#ArialMT-65"/>
      <use x="650.244140625" xlink:href="#ArialMT-20"/>
      <use x="678.02734375" xlink:href="#ArialMT-63"/>
      <use x="728.02734375" xlink:href="#ArialMT-65"/>
      <use x="783.642578125" xlink:href="#ArialMT-6c"/>
      <use x="805.859375" xlink:href="#ArialMT-6c"/>
      <use x="828.076171875" xlink:href="#ArialMT-73"/>
     </g>
    </g>
   </g>
   <g id="LineCollection_3">
    <path clip-path="url(#p418472bc67)" d="
M336.623 129.252
L336.623 119.625" style="fill:none;stroke:#000000;stroke-width:2.0;"/>
    <path clip-path="url(#p418472bc67)" d="
M407.413 151.415
L407.413 96.3367" style="fill:none;stroke:#000000;stroke-width:2.0;"/>
    <path clip-path="url(#p418472bc67)" d="
M478.204 160.76
L478.204 126.452" style="fill:none;stroke:#000000;stroke-width:2.0;"/>
    <path clip-path="url(#p418472bc67)" d="
M548.994 151.929
L548.994 93.2076" style="fill:none;stroke:#000000;stroke-width:2.0;"/>
   </g>
   <g id="LineCollection_4">
    <path clip-path="url(#p418472bc67)" d="
M336.623 247.878
L336.623 237.155" style="fill:none;stroke:#000000;stroke-width:2.0;"/>
    <path clip-path="url(#p418472bc67)" d="
M407.413 283.272
L407.413 270.731" style="fill:none;stroke:#000000;stroke-width:2.0;"/>
    <path clip-path="url(#p418472bc67)" d="
M478.204 271.903
L478.204 259.263" style="fill:none;stroke:#000000;stroke-width:2.0;"/>
    <path clip-path="url(#p418472bc67)" d="
M548.994 269.696
L548.994 238.719" style="fill:none;stroke:#000000;stroke-width:2.0;"/>
   </g>
   <g id="LineCollection_5">
    <path clip-path="url(#p418472bc67)" d="
M336.623 321.656
L336.623 319.486" style="fill:none;stroke:#000000;stroke-width:2.0;"/>
    <path clip-path="url(#p418472bc67)" d="
M407.413 347.207
L407.413 339.328" style="fill:none;stroke:#000000;stroke-width:2.0;"/>
    <path clip-path="url(#p418472bc67)" d="
M478.204 353.797
L478.204 337.44" style="fill:none;stroke:#000000;stroke-width:2.0;"/>
    <path clip-path="url(#p418472bc67)" d="
M548.994 343.802
L548.994 335.457" style="fill:none;stroke:#000000;stroke-width:2.0;"/>
   </g>
   <g id="line2d_105">
    <path clip-path="url(#p418472bc67)" d="
M336.623 124.438
L366.962 144.374
L397.301 147.775
L427.639 148.156
L457.978 148.2
L488.317 148.205
L518.656 148.205
L548.994 148.205" style="fill:none;stroke-dasharray:6.000000,6.000000;stroke-dashoffset:0.0;"/>
    <defs>
     <path d="
M-3.5 0
L3.5 0
M0 3.5
L0 -3.5" id="mdc93b4c959" style="stroke:#000000;stroke-width:1.5;"/>
    </defs>
    <g clip-path="url(#p418472bc67)">
     <use style="fill:none;stroke:#000000;stroke-width:1.5;" x="336.622961442" xlink:href="#mdc93b4c959" y="124.438458666"/>
     <use style="fill:none;stroke:#000000;stroke-width:1.5;" x="366.961738085" xlink:href="#mdc93b4c959" y="144.37366033"/>
     <use style="fill:none;stroke:#000000;stroke-width:1.5;" x="397.300514728" xlink:href="#mdc93b4c959" y="147.774759638"/>
     <use style="fill:none;stroke:#000000;stroke-width:1.5;" x="427.639291372" xlink:href="#mdc93b4c959" y="148.156312833"/>
     <use style="fill:none;stroke:#000000;stroke-width:1.5;" x="457.978068015" xlink:href="#mdc93b4c959" y="148.199593401"/>
     <use style="fill:none;stroke:#000000;stroke-width:1.5;" x="488.316844658" xlink:href="#mdc93b4c959" y="148.204508586"/>
     <use style="fill:none;stroke:#000000;stroke-width:1.5;" x="518.655621301" xlink:href="#mdc93b4c959" y="148.205066904"/>
     <use style="fill:none;stroke:#000000;stroke-width:1.5;" x="548.994397945" xlink:href="#mdc93b4c959" y="148.20512995"/>
    </g>
   </g>
   <g id="line2d_106">
    <path clip-path="url(#p418472bc67)" d="
M336.623 124.438
L338.768 119.54
L340.913 121.693
L343.058 125.436
L345.204 128.948
L347.349 131.9
L349.494 134.355
L351.639 136.412
L353.784 138.15
L355.929 139.624
L358.075 140.877
L360.22 141.943
L362.365 142.851
L364.51 143.626
L366.655 144.287
L368.8 144.852
L370.946 145.335
L373.091 145.747
L375.236 146.1
L377.381 146.402
L379.526 146.66
L381.671 146.881
L383.817 147.071
L385.962 147.233
L388.107 147.372
L390.252 147.491
L392.397 147.593
L394.542 147.68
L396.688 147.755
L398.833 147.82
L400.978 147.875
L403.123 147.922
L405.268 147.962
L407.413 147.997
L409.559 148.027
L411.704 148.052
L413.849 148.074
L415.994 148.093
L418.139 148.109
L420.284 148.122
L422.43 148.134
L424.575 148.144
L426.72 148.153
L428.865 148.16
L431.01 148.167
L433.155 148.172
L435.301 148.177
L437.446 148.181
L439.591 148.184
L441.736 148.187
L443.881 148.19
L446.026 148.192
L448.172 148.194
L450.317 148.196
L452.462 148.197
L454.607 148.198
L456.752 148.199
L458.897 148.2
L461.043 148.201
L463.188 148.201
L465.333 148.202
L467.478 148.202
L469.623 148.203
L471.768 148.203
L473.914 148.203
L476.059 148.204
L478.204 148.204
L480.349 148.204
L482.494 148.204
L484.639 148.204
L486.785 148.204
L488.93 148.205
L491.075 148.205
L493.22 148.205
L495.365 148.205
L497.51 148.205
L499.656 148.205
L501.801 148.205
L503.946 148.205
L506.091 148.205
L508.236 148.205
L510.381 148.205
L512.527 148.205
L514.672 148.205
L516.817 148.205
L518.962 148.205
L521.107 148.205
L523.252 148.205
L525.398 148.205
L527.543 148.205
L529.688 148.205
L531.833 148.205
L533.978 148.205
L536.123 148.205
L538.269 148.205
L540.414 148.205
L542.559 148.205
L544.704 148.205
L546.849 148.205
L548.994 148.205" style="fill:none;stroke:#000000;stroke-dasharray:6.000000,6.000000;stroke-dashoffset:0.0;stroke-linecap:round;stroke-width:1.5;"/>
   </g>
   <g id="line2d_107">
    <g clip-path="url(#p418472bc67)">
     <use style="stroke:#000000;stroke-width:2.0;" x="336.622961442" xlink:href="#m1bd5d76403" y="129.251983472"/>
     <use style="stroke:#000000;stroke-width:2.0;" x="407.413440276" xlink:href="#m1bd5d76403" y="151.414531445"/>
     <use style="stroke:#000000;stroke-width:2.0;" x="478.20391911" xlink:href="#m1bd5d76403" y="160.760004079"/>
     <use style="stroke:#000000;stroke-width:2.0;" x="548.994397945" xlink:href="#m1bd5d76403" y="151.928836273"/>
    </g>
   </g>
   <g id="line2d_108">
    <g clip-path="url(#p418472bc67)">
     <use style="stroke:#000000;stroke-width:2.0;" x="336.622961442" xlink:href="#m1bd5d76403" y="119.62493386"/>
     <use style="stroke:#000000;stroke-width:2.0;" x="407.413440276" xlink:href="#m1bd5d76403" y="96.3366747691"/>
     <use style="stroke:#000000;stroke-width:2.0;" x="478.20391911" xlink:href="#m1bd5d76403" y="126.45236295"/>
     <use style="stroke:#000000;stroke-width:2.0;" x="548.994397945" xlink:href="#m1bd5d76403" y="93.2075685602"/>
    </g>
   </g>
   <g id="line2d_109">
    <defs>
     <path d="
M-3.5 0
L3.5 0
M0 3.5
L0 -3.5" id="maba838d692" style="stroke:#000000;stroke-width:2.0;"/>
    </defs>
    <g clip-path="url(#p418472bc67)">
     <use style="stroke:#000000;stroke-width:2.0;" x="336.622961442" xlink:href="#maba838d692" y="124.438458666"/>
     <use style="stroke:#000000;stroke-width:2.0;" x="407.413440276" xlink:href="#maba838d692" y="123.875603107"/>
     <use style="stroke:#000000;stroke-width:2.0;" x="478.20391911" xlink:href="#maba838d692" y="143.606183515"/>
     <use style="stroke:#000000;stroke-width:2.0;" x="548.994397945" xlink:href="#maba838d692" y="122.568202416"/>
    </g>
   </g>
   <g id="line2d_110">
    <path clip-path="url(#p418472bc67)" d="
M336.623 242.516
L366.962 269.045
L397.301 271.061
L427.639 271.287
L457.978 271.313
L488.317 271.316
L518.656 271.316
L548.994 271.316" style="fill:none;stroke-dasharray:3.000000,5.000000,1.000000,5.000000;stroke-dashoffset:0.0;"/>
    <defs>
     <path d="
M0 3.5
C0.928211 3.5 1.81853 3.13122 2.47487 2.47487
C3.13122 1.81853 3.5 0.928211 3.5 0
C3.5 -0.928211 3.13122 -1.81853 2.47487 -2.47487
C1.81853 -3.13122 0.928211 -3.5 0 -3.5
C-0.928211 -3.5 -1.81853 -3.13122 -2.47487 -2.47487
C-3.13122 -1.81853 -3.5 -0.928211 -3.5 0
C-3.5 0.928211 -3.13122 1.81853 -2.47487 2.47487
C-1.81853 3.13122 -0.928211 3.5 0 3.5
z
" id="mb18a8f1a61" style="stroke:#000000;stroke-width:1.5;"/>
    </defs>
    <g clip-path="url(#p418472bc67)">
     <use style="fill:none;stroke:#000000;stroke-width:1.5;" x="336.622961442" xlink:href="#mb18a8f1a61" y="242.516047038"/>
     <use style="fill:none;stroke:#000000;stroke-width:1.5;" x="366.961738085" xlink:href="#mb18a8f1a61" y="269.045488648"/>
     <use style="fill:none;stroke:#000000;stroke-width:1.5;" x="397.300514728" xlink:href="#mb18a8f1a61" y="271.061225158"/>
     <use style="fill:none;stroke:#000000;stroke-width:1.5;" x="427.639291372" xlink:href="#mb18a8f1a61" y="271.287362169"/>
     <use style="fill:none;stroke:#000000;stroke-width:1.5;" x="457.978068015" xlink:href="#mb18a8f1a61" y="271.313012229"/>
     <use style="fill:none;stroke:#000000;stroke-width:1.5;" x="488.316844658" xlink:href="#mb18a8f1a61" y="271.315925589"/>
     <use style="fill:none;stroke:#000000;stroke-width:1.5;" x="518.655621301" xlink:href="#mb18a8f1a61" y="271.31625649"/>
     <use style="fill:none;stroke:#000000;stroke-width:1.5;" x="548.994397945" xlink:href="#mb18a8f1a61" y="271.316294256"/>
    </g>
   </g>
   <g id="line2d_111">
    <path clip-path="url(#p418472bc67)" d="
M336.623 242.516
L338.768 252.594
L340.913 256.116
L343.058 258.233
L345.204 260.056
L347.349 261.689
L349.494 263.111
L351.639 264.325
L353.784 265.356
L355.929 266.23
L358.075 266.973
L360.22 267.605
L362.365 268.143
L364.51 268.603
L366.655 268.994
L368.8 269.329
L370.946 269.615
L373.091 269.86
L375.236 270.069
L377.381 270.248
L379.526 270.401
L381.671 270.532
L383.817 270.644
L385.962 270.74
L388.107 270.823
L390.252 270.893
L392.397 270.954
L394.542 271.005
L396.688 271.05
L398.833 271.088
L400.978 271.12
L403.123 271.148
L405.268 271.172
L407.413 271.193
L409.559 271.21
L411.704 271.226
L413.849 271.239
L415.994 271.25
L418.139 271.259
L420.284 271.267
L422.43 271.274
L424.575 271.28
L426.72 271.285
L428.865 271.29
L431.01 271.294
L433.155 271.297
L435.301 271.3
L437.446 271.302
L439.591 271.304
L441.736 271.306
L443.881 271.307
L446.026 271.309
L448.172 271.31
L450.317 271.311
L452.462 271.311
L454.607 271.312
L456.752 271.313
L458.897 271.313
L461.043 271.314
L463.188 271.314
L465.333 271.314
L467.478 271.315
L469.623 271.315
L471.768 271.315
L473.914 271.315
L476.059 271.315
L478.204 271.316
L480.349 271.316
L482.494 271.316
L484.639 271.316
L486.785 271.316
L488.93 271.316
L491.075 271.316
L493.22 271.316
L495.365 271.316
L497.51 271.316
L499.656 271.316
L501.801 271.316
L503.946 271.316
L506.091 271.316
L508.236 271.316
L510.381 271.316
L512.527 271.316
L514.672 271.316
L516.817 271.316
L518.962 271.316
L521.107 271.316
L523.252 271.316
L525.398 271.316
L527.543 271.316
L529.688 271.316
L531.833 271.316
L533.978 271.316
L536.123 271.316
L538.269 271.316
L540.414 271.316
L542.559 271.316
L544.704 271.316
L546.849 271.316
L548.994 271.316" style="fill:none;stroke:#000000;stroke-dasharray:3.000000,5.000000,1.000000,5.000000;stroke-dashoffset:0.0;stroke-linecap:round;stroke-width:1.5;"/>
   </g>
   <g id="line2d_112">
    <g clip-path="url(#p418472bc67)">
     <use style="stroke:#000000;stroke-width:2.0;" x="336.622961442" xlink:href="#m1bd5d76403" y="247.877520102"/>
     <use style="stroke:#000000;stroke-width:2.0;" x="407.413440276" xlink:href="#m1bd5d76403" y="283.272067676"/>
     <use style="stroke:#000000;stroke-width:2.0;" x="478.20391911" xlink:href="#m1bd5d76403" y="271.903184169"/>
     <use style="stroke:#000000;stroke-width:2.0;" x="548.994397945" xlink:href="#m1bd5d76403" y="269.696169153"/>
    </g>
   </g>
   <g id="line2d_113">
    <g clip-path="url(#p418472bc67)">
     <use style="stroke:#000000;stroke-width:2.0;" x="336.622961442" xlink:href="#m1bd5d76403" y="237.154573975"/>
     <use style="stroke:#000000;stroke-width:2.0;" x="407.413440276" xlink:href="#m1bd5d76403" y="270.730975388"/>
     <use style="stroke:#000000;stroke-width:2.0;" x="478.20391911" xlink:href="#m1bd5d76403" y="259.262541632"/>
     <use style="stroke:#000000;stroke-width:2.0;" x="548.994397945" xlink:href="#m1bd5d76403" y="238.719289819"/>
    </g>
   </g>
   <g id="line2d_114">
    <defs>
     <path d="
M0 3.5
C0.928211 3.5 1.81853 3.13122 2.47487 2.47487
C3.13122 1.81853 3.5 0.928211 3.5 0
C3.5 -0.928211 3.13122 -1.81853 2.47487 -2.47487
C1.81853 -3.13122 0.928211 -3.5 0 -3.5
C-0.928211 -3.5 -1.81853 -3.13122 -2.47487 -2.47487
C-3.13122 -1.81853 -3.5 -0.928211 -3.5 0
C-3.5 0.928211 -3.13122 1.81853 -2.47487 2.47487
C-1.81853 3.13122 -0.928211 3.5 0 3.5
z
" id="m4df2e3dc5f" style="stroke:#000000;stroke-width:2.0;"/>
    </defs>
    <g clip-path="url(#p418472bc67)">
     <use style="stroke:#000000;stroke-width:2.0;" x="336.622961442" xlink:href="#m4df2e3dc5f" y="242.516047038"/>
     <use style="stroke:#000000;stroke-width:2.0;" x="407.413440276" xlink:href="#m4df2e3dc5f" y="277.001521532"/>
     <use style="stroke:#000000;stroke-width:2.0;" x="478.20391911" xlink:href="#m4df2e3dc5f" y="265.5828629"/>
     <use style="stroke:#000000;stroke-width:2.0;" x="548.994397945" xlink:href="#m4df2e3dc5f" y="254.207729486"/>
    </g>
   </g>
   <g id="line2d_115">
    <path clip-path="url(#p418472bc67)" d="
M336.623 320.571
L366.962 340.453
L397.301 341.675
L427.639 341.812
L457.978 341.828
L488.317 341.83
L518.656 341.83
L548.994 341.83" style="fill:none;stroke-dasharray:1.000000,3.000000;stroke-dashoffset:0.0;"/>
    <defs>
     <path d="
M-3.5 3.5
L3.5 -3.5
M-3.5 -3.5
L3.5 3.5" id="m7d75fa88c4" style="stroke:#000000;stroke-width:1.5;"/>
    </defs>
    <g clip-path="url(#p418472bc67)">
     <use style="fill:none;stroke:#000000;stroke-width:1.5;" x="336.622961442" xlink:href="#m7d75fa88c4" y="320.571119709"/>
     <use style="fill:none;stroke:#000000;stroke-width:1.5;" x="366.961738085" xlink:href="#m7d75fa88c4" y="340.452894321"/>
     <use style="fill:none;stroke:#000000;stroke-width:1.5;" x="397.300514728" xlink:href="#m7d75fa88c4" y="341.675147235"/>
     <use style="fill:none;stroke:#000000;stroke-width:1.5;" x="427.639291372" xlink:href="#m7d75fa88c4" y="341.812266834"/>
     <use style="fill:none;stroke:#000000;stroke-width:1.5;" x="457.978068015" xlink:href="#m7d75fa88c4" y="341.827819927"/>
     <use style="fill:none;stroke:#000000;stroke-width:1.5;" x="488.316844658" xlink:href="#m7d75fa88c4" y="341.829586303"/>
     <use style="fill:none;stroke:#000000;stroke-width:1.5;" x="518.655621301" xlink:href="#m7d75fa88c4" y="341.829786945"/>
     <use style="fill:none;stroke:#000000;stroke-width:1.5;" x="548.994397945" xlink:href="#m7d75fa88c4" y="341.82980993"/>
    </g>
   </g>
   <g id="line2d_116">
    <path clip-path="url(#p418472bc67)" d="
M336.623 320.571
L338.768 327.474
L340.913 331.503
L343.058 333.635
L345.204 334.978
L347.349 336.005
L349.494 336.863
L351.639 337.594
L353.784 338.216
L355.929 338.746
L358.075 339.196
L360.22 339.579
L362.365 339.906
L364.51 340.184
L366.655 340.422
L368.8 340.625
L370.946 340.798
L373.091 340.947
L375.236 341.073
L377.381 341.182
L379.526 341.275
L381.671 341.354
L383.817 341.422
L385.962 341.48
L388.107 341.53
L390.252 341.573
L392.397 341.61
L394.542 341.641
L396.688 341.668
L398.833 341.691
L400.978 341.711
L403.123 341.728
L405.268 341.743
L407.413 341.755
L409.559 341.766
L411.704 341.775
L413.849 341.783
L415.994 341.789
L418.139 341.795
L420.284 341.8
L422.43 341.804
L424.575 341.808
L426.72 341.811
L428.865 341.814
L431.01 341.816
L433.155 341.818
L435.301 341.82
L437.446 341.821
L439.591 341.822
L441.736 341.823
L443.881 341.824
L446.026 341.825
L448.172 341.826
L450.317 341.826
L452.462 341.827
L454.607 341.827
L456.752 341.828
L458.897 341.828
L461.043 341.828
L463.188 341.828
L465.333 341.829
L467.478 341.829
L469.623 341.829
L471.768 341.829
L473.914 341.829
L476.059 341.829
L478.204 341.829
L480.349 341.829
L482.494 341.829
L484.639 341.83
L486.785 341.83
L488.93 341.83
L491.075 341.83
L493.22 341.83
L495.365 341.83
L497.51 341.83
L499.656 341.83
L501.801 341.83
L503.946 341.83
L506.091 341.83
L508.236 341.83
L510.381 341.83
L512.527 341.83
L514.672 341.83
L516.817 341.83
L518.962 341.83
L521.107 341.83
L523.252 341.83
L525.398 341.83
L527.543 341.83
L529.688 341.83
L531.833 341.83
L533.978 341.83
L536.123 341.83
L538.269 341.83
L540.414 341.83
L542.559 341.83
L544.704 341.83
L546.849 341.83
L548.994 341.83" style="fill:none;stroke:#000000;stroke-dasharray:1.000000,3.000000;stroke-dashoffset:0.0;stroke-linecap:round;stroke-width:1.5;"/>
   </g>
   <g id="line2d_117">
    <g clip-path="url(#p418472bc67)">
     <use style="stroke:#000000;stroke-width:2.0;" x="336.622961442" xlink:href="#m1bd5d76403" y="321.656154627"/>
     <use style="stroke:#000000;stroke-width:2.0;" x="407.413440276" xlink:href="#m1bd5d76403" y="347.206840111"/>
     <use style="stroke:#000000;stroke-width:2.0;" x="478.20391911" xlink:href="#m1bd5d76403" y="353.796649886"/>
     <use style="stroke:#000000;stroke-width:2.0;" x="548.994397945" xlink:href="#m1bd5d76403" y="343.801863822"/>
    </g>
   </g>
   <g id="line2d_118">
    <g clip-path="url(#p418472bc67)">
     <use style="stroke:#000000;stroke-width:2.0;" x="336.622961442" xlink:href="#m1bd5d76403" y="319.48608479"/>
     <use style="stroke:#000000;stroke-width:2.0;" x="407.413440276" xlink:href="#m1bd5d76403" y="339.327633463"/>
     <use style="stroke:#000000;stroke-width:2.0;" x="478.20391911" xlink:href="#m1bd5d76403" y="337.439637377"/>
     <use style="stroke:#000000;stroke-width:2.0;" x="548.994397945" xlink:href="#m1bd5d76403" y="335.456859023"/>
    </g>
   </g>
   <g id="line2d_119">
    <defs>
     <path d="
M-3.5 3.5
L3.5 -3.5
M-3.5 -3.5
L3.5 3.5" id="m4607c5190d" style="stroke:#000000;stroke-width:2.0;"/>
    </defs>
    <g clip-path="url(#p418472bc67)">
     <use style="stroke:#000000;stroke-width:2.0;" x="336.622961442" xlink:href="#m4607c5190d" y="320.571119709"/>
     <use style="stroke:#000000;stroke-width:2.0;" x="407.413440276" xlink:href="#m4607c5190d" y="343.267236787"/>
     <use style="stroke:#000000;stroke-width:2.0;" x="478.20391911" xlink:href="#m4607c5190d" y="345.618143631"/>
     <use style="stroke:#000000;stroke-width:2.0;" x="548.994397945" xlink:href="#m4607c5190d" y="339.629361422"/>
    </g>
   </g>
   <g id="patch_10">
    <path d="
M333.083 37.455
L552.534 37.455" style="fill:none;stroke:#000000;stroke-linecap:square;stroke-linejoin:miter;"/>
   </g>
   <g id="patch_11">
    <path d="
M552.534 391.447
L552.534 37.455" style="fill:none;stroke:#000000;stroke-linecap:square;stroke-linejoin:miter;"/>
   </g>
   <g id="patch_12">
    <path d="
M333.083 391.447
L333.083 37.455" style="fill:none;stroke:#000000;stroke-linecap:square;stroke-linejoin:miter;"/>
   </g>
   <g id="patch_13">
    <path d="
M333.083 391.447
L552.534 391.447" style="fill:none;stroke:#000000;stroke-linecap:square;stroke-linejoin:miter;"/>
   </g>
   <g id="legend_2">
    <g id="patch_14">
     <path d="
M326.369 505.288
L563.249 505.288
Q566.129 505.288 566.129 502.408
L566.129 438.927
Q566.129 436.047 563.249 436.047
L326.369 436.047
Q323.489 436.047 323.489 438.927
L323.489 502.408
Q323.489 505.288 326.369 505.288
z
" style="fill:#4c4c4c;opacity:0.5;stroke:#4c4c4c;stroke-linejoin:miter;"/>
    </g>
    <g id="patch_15">
     <path d="
M324.369 503.288
L561.249 503.288
Q564.129 503.288 564.129 500.408
L564.129 436.927
Q564.129 434.047 561.249 434.047
L324.369 434.047
Q321.489 434.047 321.489 436.927
L321.489 500.408
Q321.489 503.288 324.369 503.288
z
" style="fill:#ffffff;stroke:#000000;stroke-linejoin:miter;"/>
    </g>
    <g id="line2d_120">
     <path d="
M327.249 445.279
L356.049 445.279" style="fill:none;stroke-dasharray:6.000000,6.000000;stroke-dashoffset:0.0;"/>
    </g>
    <g id="line2d_121">
     <g>
      <use style="fill:none;stroke:#000000;stroke-width:1.5;" x="341.648679693" xlink:href="#mdc93b4c959" y="445.27875"/>
     </g>
    </g>
    <g id="text_39">
     <!-- $G_0G_1$ (fitted) -->
     <defs>
      <path d="
M41.2188 28.0781
L41.2188 36.4688
L71.5312 36.5312
L71.5312 9.96875
Q64.5469 4.39062 57.125 1.57812
Q49.7031 -1.21875 41.8906 -1.21875
Q31.3438 -1.21875 22.7188 3.29688
Q14.1094 7.8125 9.71875 16.3594
Q5.32812 24.9062 5.32812 35.4531
Q5.32812 45.9062 9.6875 54.9531
Q14.0625 64.0156 22.2656 68.4062
Q30.4688 72.7969 41.1562 72.7969
Q48.9219 72.7969 55.1875 70.2812
Q61.4688 67.7812 65.0312 63.2812
Q68.6094 58.7969 70.4531 51.5625
L61.9219 49.2188
Q60.2969 54.6875 57.9062 57.8125
Q55.5156 60.9375 51.0625 62.8125
Q46.625 64.7031 41.2188 64.7031
Q34.7188 64.7031 29.9844 62.7188
Q25.25 60.75 22.3438 57.5156
Q19.4375 54.2969 17.8281 50.4375
Q15.0938 43.7969 15.0938 36.0312
Q15.0938 26.4688 18.3906 20.0156
Q21.6875 13.5781 27.9844 10.4531
Q34.2812 7.32812 41.3594 7.32812
Q47.5156 7.32812 53.375 9.6875
Q59.2344 12.0625 62.25 14.75
L62.25 28.0781
z
" id="ArialMT-47"/>
     </defs>
     <g transform="translate(367.568679693 450.31875)scale(0.144 -0.144)">
      <use transform="translate(0.0 0.203125)" xlink:href="#ArialMT-47"/>
      <use transform="translate(77.783203125 -29.665625000000006)scale(0.7)" xlink:href="#ArialMT-30"/>
      <use transform="translate(133.3984375 0.203125)" xlink:href="#ArialMT-47"/>
      <use transform="translate(211.181640625 -29.665625000000006)scale(0.7)" xlink:href="#ArialMT-31"/>
      <use transform="translate(266.796875 0.203125)" xlink:href="#ArialMT-20"/>
      <use transform="translate(294.580078125 0.203125)" xlink:href="#ArialMT-28"/>
      <use transform="translate(327.880859375 0.203125)" xlink:href="#ArialMT-66"/>
      <use transform="translate(355.6640625 0.203125)" xlink:href="#ArialMT-69"/>
      <use transform="translate(377.880859375 0.203125)" xlink:href="#ArialMT-74"/>
      <use transform="translate(405.6640625 0.203125)" xlink:href="#ArialMT-74"/>
      <use transform="translate(433.447265625 0.203125)" xlink:href="#ArialMT-65"/>
      <use transform="translate(489.0625 0.203125)" xlink:href="#ArialMT-64"/>
      <use transform="translate(544.677734375 0.203125)" xlink:href="#ArialMT-29"/>
     </g>
    </g>
    <g id="line2d_122">
     <path d="
M327.249 467.425
L356.049 467.425" style="fill:none;stroke-dasharray:3.000000,5.000000,1.000000,5.000000;stroke-dashoffset:0.0;"/>
    </g>
    <g id="line2d_123">
     <g>
      <use style="fill:none;stroke:#000000;stroke-width:1.5;" x="341.648679693" xlink:href="#mb18a8f1a61" y="467.4255"/>
     </g>
    </g>
    <g id="text_40">
     <!-- S (fitted) -->
     <defs>
      <path d="
M4.5 23
L13.4219 23.7812
Q14.0625 18.4062 16.375 14.9688
Q18.7031 11.5312 23.5781 9.40625
Q28.4688 7.28125 34.5781 7.28125
Q39.9844 7.28125 44.1406 8.89062
Q48.2969 10.5 50.3125 13.2969
Q52.3438 16.1094 52.3438 19.4375
Q52.3438 22.7969 50.3906 25.3125
Q48.4375 27.8281 43.9531 29.5469
Q41.0625 30.6719 31.2031 33.0312
Q21.3438 35.4062 17.3906 37.5
Q12.25 40.1875 9.73438 44.1562
Q7.23438 48.1406 7.23438 53.0781
Q7.23438 58.5 10.2969 63.2031
Q13.375 67.9219 19.2812 70.3594
Q25.2031 72.7969 32.4219 72.7969
Q40.375 72.7969 46.4531 70.2344
Q52.5469 67.6719 55.8125 62.6875
Q59.0781 57.7188 59.3281 51.4219
L50.25 50.7344
Q49.5156 57.5156 45.2812 60.9844
Q41.0625 64.4531 32.8125 64.4531
Q24.2188 64.4531 20.2812 61.2969
Q16.3594 58.1562 16.3594 53.7188
Q16.3594 49.8594 19.1406 47.3594
Q21.875 44.875 33.4219 42.2656
Q44.9688 39.6562 49.2656 37.7031
Q55.5156 34.8125 58.4844 30.3906
Q61.4688 25.9844 61.4688 20.2188
Q61.4688 14.5 58.2031 9.4375
Q54.9375 4.39062 48.7969 1.57812
Q42.6719 -1.21875 35.0156 -1.21875
Q25.2969 -1.21875 18.7188 1.60938
Q12.1562 4.4375 8.42188 10.125
Q4.6875 15.8281 4.5 23" id="ArialMT-53"/>
     </defs>
     <g transform="translate(367.568679693 472.4655)scale(0.144 -0.144)">
      <use xlink:href="#ArialMT-53"/>
      <use x="66.69921875" xlink:href="#ArialMT-20"/>
      <use x="94.482421875" xlink:href="#ArialMT-28"/>
      <use x="127.783203125" xlink:href="#ArialMT-66"/>
      <use x="155.56640625" xlink:href="#ArialMT-69"/>
      <use x="177.783203125" xlink:href="#ArialMT-74"/>
      <use x="205.56640625" xlink:href="#ArialMT-74"/>
      <use x="233.349609375" xlink:href="#ArialMT-65"/>
      <use x="288.96484375" xlink:href="#ArialMT-64"/>
      <use x="344.580078125" xlink:href="#ArialMT-29"/>
     </g>
    </g>
    <g id="line2d_124">
     <path d="
M327.249 488.168
L356.049 488.168" style="fill:none;stroke-dasharray:1.000000,3.000000;stroke-dashoffset:0.0;"/>
    </g>
    <g id="line2d_125">
     <g>
      <use style="fill:none;stroke:#000000;stroke-width:1.5;" x="341.648679693" xlink:href="#m7d75fa88c4" y="488.16825"/>
     </g>
    </g>
    <g id="text_41">
     <!-- $G_2M$ (fitted) -->
     <defs>
      <path d="
M7.42188 0
L7.42188 71.5781
L21.6875 71.5781
L38.625 20.9062
Q40.9688 13.8125 42.0469 10.2969
Q43.2656 14.2031 45.8438 21.7812
L62.9844 71.5781
L75.7344 71.5781
L75.7344 0
L66.6094 0
L66.6094 59.9062
L45.7969 0
L37.25 0
L16.5469 60.9375
L16.5469 0
z
" id="ArialMT-4d"/>
     </defs>
     <g transform="translate(367.568679693 493.20825)scale(0.144 -0.144)">
      <use transform="translate(0.0 0.203125)" xlink:href="#ArialMT-47"/>
      <use transform="translate(77.783203125 -29.665625000000006)scale(0.7)" xlink:href="#ArialMT-32"/>
      <use transform="translate(133.3984375 0.203125)" xlink:href="#ArialMT-4d"/>
      <use transform="translate(216.69921875 0.203125)" xlink:href="#ArialMT-20"/>
      <use transform="translate(244.482421875 0.203125)" xlink:href="#ArialMT-28"/>
      <use transform="translate(277.783203125 0.203125)" xlink:href="#ArialMT-66"/>
      <use transform="translate(305.56640625 0.203125)" xlink:href="#ArialMT-69"/>
      <use transform="translate(327.783203125 0.203125)" xlink:href="#ArialMT-74"/>
      <use transform="translate(355.56640625 0.203125)" xlink:href="#ArialMT-74"/>
      <use transform="translate(383.349609375 0.203125)" xlink:href="#ArialMT-65"/>
      <use transform="translate(438.96484375 0.203125)" xlink:href="#ArialMT-64"/>
      <use transform="translate(494.580078125 0.203125)" xlink:href="#ArialMT-29"/>
     </g>
    </g>
    <g id="LineCollection_6">
     <path d="
M494.001 452.479
L494.001 438.079" style="fill:none;stroke:#000000;stroke-width:2.0;"/>
    </g>
    <g id="line2d_126">
     <g>
      <use style="stroke:#000000;stroke-width:2.0;" x="494.000679693" xlink:href="#m1bd5d76403" y="452.47875"/>
     </g>
    </g>
    <g id="line2d_127">
     <g>
      <use style="stroke:#000000;stroke-width:2.0;" x="494.000679693" xlink:href="#m1bd5d76403" y="438.07875"/>
     </g>
    </g>
    <g id="line2d_128"/>
    <g id="line2d_129">
     <g>
      <use style="stroke:#000000;stroke-width:2.0;" x="494.000679693" xlink:href="#maba838d692" y="445.27875"/>
     </g>
    </g>
    <g id="text_42">
     <!-- $G_0G_1$ -->
     <g transform="translate(519.920679693 450.31875)scale(0.144 -0.144)">
      <use transform="translate(0.0 0.203125)" xlink:href="#ArialMT-47"/>
      <use transform="translate(77.783203125 -29.665625000000006)scale(0.7)" xlink:href="#ArialMT-30"/>
      <use transform="translate(133.3984375 0.203125)" xlink:href="#ArialMT-47"/>
      <use transform="translate(211.181640625 -29.665625000000006)scale(0.7)" xlink:href="#ArialMT-31"/>
     </g>
    </g>
    <g id="LineCollection_7">
     <path d="
M494.001 474.45
L494.001 460.05" style="fill:none;stroke:#000000;stroke-width:2.0;"/>
    </g>
    <g id="line2d_130">
     <g>
      <use style="stroke:#000000;stroke-width:2.0;" x="494.000679693" xlink:href="#m1bd5d76403" y="474.45"/>
     </g>
    </g>
    <g id="line2d_131">
     <g>
      <use style="stroke:#000000;stroke-width:2.0;" x="494.000679693" xlink:href="#m1bd5d76403" y="460.05"/>
     </g>
    </g>
    <g id="line2d_132"/>
    <g id="line2d_133">
     <g>
      <use style="stroke:#000000;stroke-width:2.0;" x="494.000679693" xlink:href="#m4df2e3dc5f" y="467.25"/>
     </g>
    </g>
    <g id="text_43">
     <!-- S -->
     <g transform="translate(519.920679693 472.29)scale(0.144 -0.144)">
      <use xlink:href="#ArialMT-53"/>
     </g>
    </g>
    <g id="LineCollection_8">
     <path d="
M494.001 495.024
L494.001 480.624" style="fill:none;stroke:#000000;stroke-width:2.0;"/>
    </g>
    <g id="line2d_134">
     <g>
      <use style="stroke:#000000;stroke-width:2.0;" x="494.000679693" xlink:href="#m1bd5d76403" y="495.024"/>
     </g>
    </g>
    <g id="line2d_135">
     <g>
      <use style="stroke:#000000;stroke-width:2.0;" x="494.000679693" xlink:href="#m1bd5d76403" y="480.624"/>
     </g>
    </g>
    <g id="line2d_136"/>
    <g id="line2d_137">
     <g>
      <use style="stroke:#000000;stroke-width:2.0;" x="494.000679693" xlink:href="#m4607c5190d" y="487.824"/>
     </g>
    </g>
    <g id="text_44">
     <!-- $G_2M$ -->
     <g transform="translate(519.920679693 492.864)scale(0.144 -0.144)">
      <use transform="translate(0.0 0.203125)" xlink:href="#ArialMT-47"/>
      <use transform="translate(77.783203125 -29.665625000000006)scale(0.7)" xlink:href="#ArialMT-32"/>
      <use transform="translate(133.3984375 0.203125)" xlink:href="#ArialMT-4d"/>
     </g>
    </g>
   </g>
  </g>
  <g id="text_45">
   <!-- Flow cytometry model -->
   <defs>
    <path d="
M16.1562 0
L0.296875 51.8594
L9.375 51.8594
L17.625 21.9219
L20.7031 10.7969
Q20.9062 11.625 23.3906 21.4844
L31.6406 51.8594
L40.6719 51.8594
L48.4375 21.7812
L51.0312 11.8594
L54 21.875
L62.8906 51.8594
L71.4375 51.8594
L55.2188 0
L46.0938 0
L37.8438 31.0625
L35.8438 39.8906
L25.3438 0
z
" id="ArialMT-77"/>
   </defs>
   <g transform="translate(185.7025 21.515625)scale(0.2 -0.2)">
    <use xlink:href="#ArialMT-46"/>
    <use x="61.083984375" xlink:href="#ArialMT-6c"/>
    <use x="83.30078125" xlink:href="#ArialMT-6f"/>
    <use x="138.916015625" xlink:href="#ArialMT-77"/>
    <use x="211.1328125" xlink:href="#ArialMT-20"/>
    <use x="238.916015625" xlink:href="#ArialMT-63"/>
    <use x="288.916015625" xlink:href="#ArialMT-79"/>
    <use x="338.916015625" xlink:href="#ArialMT-74"/>
    <use x="366.69921875" xlink:href="#ArialMT-6f"/>
    <use x="422.314453125" xlink:href="#ArialMT-6d"/>
    <use x="505.615234375" xlink:href="#ArialMT-65"/>
    <use x="561.23046875" xlink:href="#ArialMT-74"/>
    <use x="589.013671875" xlink:href="#ArialMT-72"/>
    <use x="622.314453125" xlink:href="#ArialMT-79"/>
    <use x="672.314453125" xlink:href="#ArialMT-20"/>
    <use x="700.09765625" xlink:href="#ArialMT-6d"/>
    <use x="783.3984375" xlink:href="#ArialMT-6f"/>
    <use x="839.013671875" xlink:href="#ArialMT-64"/>
    <use x="894.62890625" xlink:href="#ArialMT-65"/>
    <use x="950.244140625" xlink:href="#ArialMT-6c"/>
   </g>
  </g>
 </g>
 <defs>
  <clipPath id="p418472bc67">
   <rect height="353.9925" width="219.450484386" x="333.0834375" y="37.455"/>
  </clipPath>
  <clipPath id="p72474cd35b">
   <rect height="353.9925" width="219.450484386" x="51.5634375" y="37.455"/>
  </clipPath>
 </defs>
</svg>
