<?xml version="1.0" encoding="UTF-8"?>
<MultiCellDS version="0.0" type="cell_line">
	<cell_line MultiCellDB_ID="-1" ID="0" MultiCellDB_name="HCC827" label="HCC827">
		<metadata>
			<description>
				Digital cell line for HCC827 cells, generated from data provided by Edwin Juarez on 2016-03-01. These are Lung tumorgenic cells.
			</description>
			<citation>
				<text>
					If this digital cell line is used in a publication, cite it as:
					"These are the results from running CellPD (Version 1.0)..."
					[1] E. Juarez et al., CellPD: A Cell Line Digitizer to estimate and record critical cell line growth parameters (2016, in preparation)
					[2] S. H. Friedman et al., Recording microenvironment-dependent cell phenotypes as digital cell lines with MultiCellDS (2016, in preparation)
				</text>			
				<URL>N/A</URL>
			</citation>
			<curation curated="false">  
				<created>2016-03-01T14:33:59.994760-08:00</created>
				<last_modified>2016-03-01T14:33:59.994760-08:00</last_modified>
				<version>1.0</version>
				<creator>
					<orcid-identifier>
						<path>0000-0003-1062-3642</path>
						<given-names>Edwin</given-names>		
						<family-name>Juarez</family-name>
						<email>juarezro@usc.edu</email>
						<url>MathCancer.org</url>
						<organization-name>University of Southern California</organization-name>
						<department-name>Electrical Engineering</department-name>
					</orcid-identifier>
				</creator>
				<current_contact>  
					<orcid-identifier>
						<path>0000-0003-1062-3642</path>
						<given-names>Edwin</given-names>		
						<family-name>Juarez</family-name>
						<email>juarezro@usc.edu</email>
						<url>MathCancer.org</url>
						<organization-name>University of Southern California</organization-name>
						<department-name>Electrical Engineering</department-name>
					</orcid-identifier>
				</current_contact>
				<curator>  
					<orcid-identifier>
						<path>0000-0003-1062-3642</path>
						<given-names>Edwin</given-names>		
						<family-name>Juarez</family-name>
						<email>juarezro@usc.edu</email>
						<url>http://MathCancer.org</url>
						<organization-name>University of Southern California</organization-name>
						<department-name>Center for Applied Molecular Medicine</department-name>
					</orcid-identifier>
				</curator>
				<last_modified_by>
					<orcid-identifier>
						<path>0000-0003-1062-3642</path>
						<given-names>Edwin</given-names>		
						<family-name>Juarez</family-name>
						<email>juarezro@usc.edu</email>
						<url>MathCancer.org</url>
						<organization-name>University of Southern California</organization-name>
						<department-name>Electrical Engineering</department-name>
					</orcid-identifier>
				</last_modified_by>
			</curation>
			<data_origins> 
				<data_origin>
					<citation>
						<URL>N/A</URL>
					</citation>
				</data_origin>
			</data_origins>
			<data_analysis> 
				<URL>http://MathCancer.org</URL>
				<notes>cell_line/phenotype_dataset/phenotype/cell_cycle/cell_cycle_phase/duration does not have associated uncertainty measures because it is a derived quantity from the corresponding rate.</notes>
			</data_analysis>
			<cell_origin>
				<CLO_ID>0003659</CLO_ID>
				<BTO_ID>0004082</BTO_ID>
				<species>Homo sapiens</species>
				<organ>Lung</organ>
				<disease>adenocarcinoma</disease>
				<morphology>epithelial</morphology>
			</cell_origin>
			<notes>
				//cell_cycle[@model="live_dead_logistic"]/cell_cycle_phase[@name="birth_phase"]/birth_phase//cell_cycle[@model="live_dead_logistic"]/cell_cycle_phase[@name="birth_phase"]/death_phase//cell_cycle[@model="live_dead_logistic"]/cell_cycle_phase[@name="birth_phase"]/cell_death/duration//cell_cycle[@model="live_dead_logistic"]/cell_cycle_phase[@name="birth_phase"]/cell_cycle_arrest
			</notes>
		</metadata>	
		<phenotype_dataset ID="0" keywords="Normoxia">
			<microenvironment>
				<scale>
					<variables>
						<variable type="concentration" ChEBI_ID="25806" name="oxygen" units="mmHg">
							<mean measurement_type="Estimated">
							0.01
							</mean>
						</variable>
					</variables>
				</scale>
			</microenvironment>			
			<phenotype type="expected">
				
				<cell_cycle model="live" ID="0">
					<cell_cycle_phase name="growth_phase" ID="0">
						<birt_rate units="1/hours" measurement_type="inferred" standard_error_of_the_mean ="0.000752">
						0.0263
						</birt_rate>
						<duration units="hours" measurement_type="inferred">
						38
						</duration>
					</cell_cycle_phase>
				</cell_cycle>
				<cell_cycle model="live_logistic" ID="1">
					<cell_cycle_phase name="growth_phase" ID="0">
						<net_birth_rate  units="1/hours" measurement_type="inferred" standard_error_of_the_mean ="1.11e-16">
						0.0324
						</net_birth_rate >
						<duration units="hours" measurement_type="inferred">
						30.9
						</duration>
						<cell_cycle_arrest>
							<condition type="maximum_cell_density" units="number of cells" measurement_type="inferred" standard_error_of_the_mean ="5.71e-10">
							3.92e+04
							</condition>
						</cell_cycle_arrest>
					</cell_cycle_phase>
				</cell_cycle>
				<cell_cycle model="total" ID="2">
					<cell_cycle_phase name="growth_phase" ID="0">
						<birt_rate units="1/hours" measurement_type="inferred" standard_error_of_the_mean ="0.000759">
						0.0258
						</birt_rate>
						<duration units="hours" measurement_type="inferred">
						38.7
						</duration>
					</cell_cycle_phase>
				</cell_cycle>
				<cell_cycle model="total_logistic" ID="3">
					<cell_cycle_phase name="growth_phase" ID="0">
						<net_birth_rate  units="1/hours" measurement_type="inferred" standard_error_of_the_mean ="3.02e-16">
						0.032
						</net_birth_rate >
						<duration units="hours" measurement_type="inferred">
						31.2
						</duration>
						<cell_cycle_arrest>
							<condition type="maximum_cell_density" units="number of cells" measurement_type="inferred" standard_error_of_the_mean ="1.56e-09">
							4.03e+04
							</condition>
						</cell_cycle_arrest>
					</cell_cycle_phase>
				</cell_cycle>
				<cell_cycle model="live_dead" ID="4">
					<cell_cycle_phase name="birth_phase" ID="0">
						<birth_rate units="1/hours" measurement_type="inferred" standard_error_of_the_mean ="0.000587">
						0.027
						</birth_rate>
						<duration units="hours" measurement_type="inferred">
						37
						</duration>
						<death_rate units="1/hours" measurement_type="inferred" standard_error_of_the_mean ="0.000145">
						0.000728
						</death_rate>
					</cell_cycle_phase>
				</cell_cycle>
				<cell_death type="Apoptosis">
					<duration units="1/hours" measurement_type="inferred" standard_error_of_the_mean ="0">
					0
					</duration>
				</cell_death>
				<cell_cycle model="live_dead_logistic" ID="5">
					<cell_cycle_phase name="birth_phase" ID="0">
						<birth_rate units="1/hours" measurement_type="inferred" standard_error_of_the_mean ="0.149">
						0.12
						</birth_rate>
						<duration units="hours" measurement_type="inferred">
						8.33
						</duration>
						<death_rate units="1/hours" measurement_type="inferred" standard_error_of_the_mean ="0.0981">
						0.0869
						</death_rate>
						<cell_cycle_arrest>
							<condition type="maximum_cell_density" units="number of cells" measurement_type="inferred" standard_error_of_the_mean ="9.51e+05">
							1.3e+05
							</condition>
						</cell_cycle_arrest>
					</cell_cycle_phase>
				</cell_cycle>
				<cell_death type="Apoptosis">
					<duration units="1/hours" measurement_type="inferred" standard_error_of_the_mean ="3.26">
					2.47
					</duration>
				</cell_death>
			</phenotype>
		</phenotype_dataset>
	</cell_line>
</MultiCellDS>