<table>
<tr><th>Parameter  </th><th>  Value</th><th>  Std. Error</th><th>units  </th><th>  Inv_value</th></tr>
<tr><td>growth_rate</td><td>0.0348 </td><td>0.000474    </td><td>1/hours</td><td>28.7       </td></tr>
</table>