<?xml version="1.0" encoding="utf-8" standalone="no"?>
<!DOCTYPE svg PUBLIC "-//W3C//DTD SVG 1.1//EN"
  "http://www.w3.org/Graphics/SVG/1.1/DTD/svg11.dtd">
<!-- Created with matplotlib (http://matplotlib.org/) -->
<svg height="276pt" version="1.1" viewBox="0 0 420 276" width="420pt" xmlns="http://www.w3.org/2000/svg" xmlns:xlink="http://www.w3.org/1999/xlink">
 <defs>
  <style type="text/css">
*{stroke-linecap:butt;stroke-linejoin:round;}
  </style>
 </defs>
 <g id="figure_1">
  <g id="patch_1">
   <path d="
M0 276.48
L420.48 276.48
L420.48 0
L0 0
z
" style="fill:#ffffff;"/>
  </g>
  <g id="axes_1">
   <g id="patch_2">
    <path d="
M33.76 248.306
L406.56 248.306
L406.56 20.055
L33.76 20.055
z
" style="fill:#ffffff;"/>
   </g>
   <g id="matplotlib.axis_1">
    <g id="xtick_1">
     <g id="line2d_1">
      <path clip-path="url(#p9c8bef6b30)" d="
M33.76 248.306
L33.76 20.055" style="fill:none;opacity:0.2;stroke:#b2b2b2;stroke-linecap:square;stroke-width:0.5;"/>
     </g>
     <g id="line2d_2">
      <defs>
       <path d="
M0 0
L0 4" id="m8a7fcc65d0" style="stroke:#000000;"/>
      </defs>
      <g>
       <use style="stroke:#000000;" x="33.76" xlink:href="#m8a7fcc65d0" y="248.305625"/>
      </g>
     </g>
     <g id="line2d_3">
      <defs>
       <path d="
M0 0
L0 -4" id="mf06237e818" style="stroke:#000000;"/>
      </defs>
      <g>
       <use style="stroke:#000000;" x="33.76" xlink:href="#mf06237e818" y="20.055"/>
      </g>
     </g>
     <g id="text_1">
      <!-- $\mathdefault{0}$ -->
      <defs>
       <path d="
M4.15625 35.2969
Q4.15625 48 6.76562 55.7344
Q9.375 63.4844 14.5156 67.6719
Q19.6719 71.875 27.4844 71.875
Q33.25 71.875 37.5938 69.5469
Q41.9375 67.2344 44.7656 62.8594
Q47.6094 58.5 49.2188 52.2188
Q50.8281 45.9531 50.8281 35.2969
Q50.8281 22.7031 48.2344 14.9688
Q45.6562 7.23438 40.5 3
Q35.3594 -1.21875 27.4844 -1.21875
Q17.1406 -1.21875 11.2344 6.20312
Q4.15625 15.1406 4.15625 35.2969
M13.1875 35.2969
Q13.1875 17.6719 17.3125 11.8281
Q21.4375 6 27.4844 6
Q33.5469 6 37.6719 11.8594
Q41.7969 17.7188 41.7969 35.2969
Q41.7969 52.9844 37.6719 58.7812
Q33.5469 64.5938 27.3906 64.5938
Q21.3438 64.5938 17.7188 59.4688
Q13.1875 52.9375 13.1875 35.2969" id="ArialMT-30"/>
      </defs>
      <g transform="translate(30.4 266.895)scale(0.12 -0.12)">
       <use transform="translate(0.0 0.125)" xlink:href="#ArialMT-30"/>
      </g>
     </g>
    </g>
    <g id="xtick_2">
     <g id="line2d_4">
      <path clip-path="url(#p9c8bef6b30)" d="
M80.36 248.306
L80.36 20.055" style="fill:none;opacity:0.2;stroke:#b2b2b2;stroke-linecap:square;stroke-width:0.5;"/>
     </g>
     <g id="line2d_5">
      <g>
       <use style="stroke:#000000;" x="80.36" xlink:href="#m8a7fcc65d0" y="248.305625"/>
      </g>
     </g>
     <g id="line2d_6">
      <g>
       <use style="stroke:#000000;" x="80.36" xlink:href="#mf06237e818" y="20.055"/>
      </g>
     </g>
     <g id="text_2">
      <!-- $\mathdefault{10}$ -->
      <defs>
       <path d="
M37.25 0
L28.4688 0
L28.4688 56
Q25.2969 52.9844 20.1406 49.9531
Q14.9844 46.9219 10.8906 45.4062
L10.8906 53.9062
Q18.2656 57.375 23.7812 62.2969
Q29.2969 67.2344 31.5938 71.875
L37.25 71.875
z
" id="ArialMT-31"/>
      </defs>
      <g transform="translate(73.64 266.895)scale(0.12 -0.12)">
       <use transform="translate(0.0 0.125)" xlink:href="#ArialMT-31"/>
       <use transform="translate(55.615234375 0.125)" xlink:href="#ArialMT-30"/>
      </g>
     </g>
    </g>
    <g id="xtick_3">
     <g id="line2d_7">
      <path clip-path="url(#p9c8bef6b30)" d="
M126.96 248.306
L126.96 20.055" style="fill:none;opacity:0.2;stroke:#b2b2b2;stroke-linecap:square;stroke-width:0.5;"/>
     </g>
     <g id="line2d_8">
      <g>
       <use style="stroke:#000000;" x="126.96" xlink:href="#m8a7fcc65d0" y="248.305625"/>
      </g>
     </g>
     <g id="line2d_9">
      <g>
       <use style="stroke:#000000;" x="126.96" xlink:href="#mf06237e818" y="20.055"/>
      </g>
     </g>
     <g id="text_3">
      <!-- $\mathdefault{20}$ -->
      <defs>
       <path d="
M50.3438 8.45312
L50.3438 0
L3.03125 0
Q2.9375 3.17188 4.04688 6.10938
Q5.85938 10.9375 9.82812 15.625
Q13.8125 20.3125 21.3438 26.4688
Q33.0156 36.0312 37.1094 41.625
Q41.2188 47.2188 41.2188 52.2031
Q41.2188 57.4219 37.4688 61
Q33.7344 64.5938 27.7344 64.5938
Q21.3906 64.5938 17.5781 60.7812
Q13.7656 56.9844 13.7188 50.25
L4.6875 51.1719
Q5.60938 61.2812 11.6562 66.5781
Q17.7188 71.875 27.9375 71.875
Q38.2344 71.875 44.2344 66.1562
Q50.25 60.4531 50.25 52
Q50.25 47.7031 48.4844 43.5469
Q46.7344 39.4062 42.6562 34.8125
Q38.5781 30.2188 29.1094 22.2188
Q21.1875 15.5781 18.9375 13.2031
Q16.7031 10.8438 15.2344 8.45312
z
" id="ArialMT-32"/>
      </defs>
      <g transform="translate(120.24 266.895)scale(0.12 -0.12)">
       <use transform="translate(0.0 0.125)" xlink:href="#ArialMT-32"/>
       <use transform="translate(55.615234375 0.125)" xlink:href="#ArialMT-30"/>
      </g>
     </g>
    </g>
    <g id="xtick_4">
     <g id="line2d_10">
      <path clip-path="url(#p9c8bef6b30)" d="
M173.56 248.306
L173.56 20.055" style="fill:none;opacity:0.2;stroke:#b2b2b2;stroke-linecap:square;stroke-width:0.5;"/>
     </g>
     <g id="line2d_11">
      <g>
       <use style="stroke:#000000;" x="173.56" xlink:href="#m8a7fcc65d0" y="248.305625"/>
      </g>
     </g>
     <g id="line2d_12">
      <g>
       <use style="stroke:#000000;" x="173.56" xlink:href="#mf06237e818" y="20.055"/>
      </g>
     </g>
     <g id="text_4">
      <!-- $\mathdefault{30}$ -->
      <defs>
       <path d="
M4.20312 18.8906
L12.9844 20.0625
Q14.5 12.5938 18.1406 9.29688
Q21.7812 6 27 6
Q33.2031 6 37.4688 10.2969
Q41.75 14.5938 41.75 20.9531
Q41.75 27 37.7969 30.9219
Q33.8438 34.8594 27.7344 34.8594
Q25.25 34.8594 21.5312 33.8906
L22.5156 41.6094
Q23.3906 41.5 23.9219 41.5
Q29.5469 41.5 34.0312 44.4219
Q38.5312 47.3594 38.5312 53.4688
Q38.5312 58.2969 35.25 61.4688
Q31.9844 64.6562 26.8125 64.6562
Q21.6875 64.6562 18.2656 61.4219
Q14.8438 58.2031 13.875 51.7656
L5.07812 53.3281
Q6.6875 62.1562 12.3906 67.0156
Q18.1094 71.875 26.6094 71.875
Q32.4688 71.875 37.3906 69.3594
Q42.3281 66.8438 44.9375 62.5
Q47.5625 58.1562 47.5625 53.2656
Q47.5625 48.6406 45.0625 44.8281
Q42.5781 41.0156 37.7031 38.7656
Q44.0469 37.3125 47.5625 32.6875
Q51.0781 28.0781 51.0781 21.1406
Q51.0781 11.7656 44.2344 5.25
Q37.4062 -1.26562 26.9531 -1.26562
Q17.5312 -1.26562 11.2969 4.34375
Q5.07812 9.96875 4.20312 18.8906" id="ArialMT-33"/>
      </defs>
      <g transform="translate(166.84 266.895)scale(0.12 -0.12)">
       <use transform="translate(0.0 0.125)" xlink:href="#ArialMT-33"/>
       <use transform="translate(55.615234375 0.125)" xlink:href="#ArialMT-30"/>
      </g>
     </g>
    </g>
    <g id="xtick_5">
     <g id="line2d_13">
      <path clip-path="url(#p9c8bef6b30)" d="
M220.16 248.306
L220.16 20.055" style="fill:none;opacity:0.2;stroke:#b2b2b2;stroke-linecap:square;stroke-width:0.5;"/>
     </g>
     <g id="line2d_14">
      <g>
       <use style="stroke:#000000;" x="220.16" xlink:href="#m8a7fcc65d0" y="248.305625"/>
      </g>
     </g>
     <g id="line2d_15">
      <g>
       <use style="stroke:#000000;" x="220.16" xlink:href="#mf06237e818" y="20.055"/>
      </g>
     </g>
     <g id="text_5">
      <!-- $\mathdefault{40}$ -->
      <defs>
       <path d="
M32.3281 0
L32.3281 17.1406
L1.26562 17.1406
L1.26562 25.2031
L33.9375 71.5781
L41.1094 71.5781
L41.1094 25.2031
L50.7812 25.2031
L50.7812 17.1406
L41.1094 17.1406
L41.1094 0
z

M32.3281 25.2031
L32.3281 57.4688
L9.90625 25.2031
z
" id="ArialMT-34"/>
      </defs>
      <g transform="translate(213.44 266.895)scale(0.12 -0.12)">
       <use transform="translate(0.0 0.125)" xlink:href="#ArialMT-34"/>
       <use transform="translate(55.615234375 0.125)" xlink:href="#ArialMT-30"/>
      </g>
     </g>
    </g>
    <g id="xtick_6">
     <g id="line2d_16">
      <path clip-path="url(#p9c8bef6b30)" d="
M266.76 248.306
L266.76 20.055" style="fill:none;opacity:0.2;stroke:#b2b2b2;stroke-linecap:square;stroke-width:0.5;"/>
     </g>
     <g id="line2d_17">
      <g>
       <use style="stroke:#000000;" x="266.76" xlink:href="#m8a7fcc65d0" y="248.305625"/>
      </g>
     </g>
     <g id="line2d_18">
      <g>
       <use style="stroke:#000000;" x="266.76" xlink:href="#mf06237e818" y="20.055"/>
      </g>
     </g>
     <g id="text_6">
      <!-- $\mathdefault{50}$ -->
      <defs>
       <path d="
M4.15625 18.75
L13.375 19.5312
Q14.4062 12.7969 18.1406 9.39062
Q21.875 6 27.1562 6
Q33.5 6 37.8906 10.7812
Q42.2812 15.5781 42.2812 23.4844
Q42.2812 31 38.0625 35.3438
Q33.8438 39.7031 27 39.7031
Q22.75 39.7031 19.3281 37.7656
Q15.9219 35.8438 13.9688 32.7656
L5.71875 33.8438
L12.6406 70.6094
L48.25 70.6094
L48.25 62.2031
L19.6719 62.2031
L15.8281 42.9688
Q22.2656 47.4688 29.3438 47.4688
Q38.7188 47.4688 45.1562 40.9688
Q51.6094 34.4688 51.6094 24.2656
Q51.6094 14.5469 45.9531 7.46875
Q39.0625 -1.21875 27.1562 -1.21875
Q17.3906 -1.21875 11.2031 4.25
Q5.03125 9.71875 4.15625 18.75" id="ArialMT-35"/>
      </defs>
      <g transform="translate(260.04 266.895)scale(0.12 -0.12)">
       <use transform="translate(0.0 0.125)" xlink:href="#ArialMT-35"/>
       <use transform="translate(55.615234375 0.125)" xlink:href="#ArialMT-30"/>
      </g>
     </g>
    </g>
    <g id="xtick_7">
     <g id="line2d_19">
      <path clip-path="url(#p9c8bef6b30)" d="
M313.36 248.306
L313.36 20.055" style="fill:none;opacity:0.2;stroke:#b2b2b2;stroke-linecap:square;stroke-width:0.5;"/>
     </g>
     <g id="line2d_20">
      <g>
       <use style="stroke:#000000;" x="313.36" xlink:href="#m8a7fcc65d0" y="248.305625"/>
      </g>
     </g>
     <g id="line2d_21">
      <g>
       <use style="stroke:#000000;" x="313.36" xlink:href="#mf06237e818" y="20.055"/>
      </g>
     </g>
     <g id="text_7">
      <!-- $\mathdefault{60}$ -->
      <defs>
       <path d="
M49.75 54.0469
L41.0156 53.375
Q39.8438 58.5469 37.7031 60.8906
Q34.125 64.6562 28.9062 64.6562
Q24.7031 64.6562 21.5312 62.3125
Q17.3906 59.2812 14.9844 53.4688
Q12.5938 47.6562 12.5 36.9219
Q15.6719 41.75 20.2656 44.0938
Q24.8594 46.4375 29.8906 46.4375
Q38.6719 46.4375 44.8438 39.9688
Q51.0312 33.5 51.0312 23.25
Q51.0312 16.5 48.125 10.7188
Q45.2188 4.9375 40.1406 1.85938
Q35.0625 -1.21875 28.6094 -1.21875
Q17.625 -1.21875 10.6875 6.85938
Q3.76562 14.9375 3.76562 33.5
Q3.76562 54.25 11.4219 63.6719
Q18.1094 71.875 29.4375 71.875
Q37.8906 71.875 43.2812 67.1406
Q48.6875 62.4062 49.75 54.0469
M13.875 23.1875
Q13.875 18.6562 15.7969 14.5
Q17.7188 10.3594 21.1875 8.17188
Q24.6562 6 28.4688 6
Q34.0312 6 38.0312 10.4844
Q42.0469 14.9844 42.0469 22.7031
Q42.0469 30.125 38.0781 34.3906
Q34.125 38.6719 28.125 38.6719
Q22.1719 38.6719 18.0156 34.3906
Q13.875 30.125 13.875 23.1875" id="ArialMT-36"/>
      </defs>
      <g transform="translate(306.64 266.895)scale(0.12 -0.12)">
       <use transform="translate(0.0 0.125)" xlink:href="#ArialMT-36"/>
       <use transform="translate(55.615234375 0.125)" xlink:href="#ArialMT-30"/>
      </g>
     </g>
    </g>
    <g id="xtick_8">
     <g id="line2d_22">
      <path clip-path="url(#p9c8bef6b30)" d="
M359.96 248.306
L359.96 20.055" style="fill:none;opacity:0.2;stroke:#b2b2b2;stroke-linecap:square;stroke-width:0.5;"/>
     </g>
     <g id="line2d_23">
      <g>
       <use style="stroke:#000000;" x="359.96" xlink:href="#m8a7fcc65d0" y="248.305625"/>
      </g>
     </g>
     <g id="line2d_24">
      <g>
       <use style="stroke:#000000;" x="359.96" xlink:href="#mf06237e818" y="20.055"/>
      </g>
     </g>
     <g id="text_8">
      <!-- $\mathdefault{70}$ -->
      <defs>
       <path d="
M4.73438 62.2031
L4.73438 70.6562
L51.0781 70.6562
L51.0781 63.8125
Q44.2344 56.5469 37.5156 44.4844
Q30.8125 32.4219 27.1562 19.6719
Q24.5156 10.6875 23.7812 0
L14.75 0
Q14.8906 8.45312 18.0625 20.4062
Q21.2344 32.375 27.1719 43.4844
Q33.1094 54.5938 39.7969 62.2031
z
" id="ArialMT-37"/>
      </defs>
      <g transform="translate(353.24 266.895)scale(0.12 -0.12)">
       <use transform="translate(0.0 0.125)" xlink:href="#ArialMT-37"/>
       <use transform="translate(55.615234375 0.125)" xlink:href="#ArialMT-30"/>
      </g>
     </g>
    </g>
    <g id="xtick_9">
     <g id="line2d_25">
      <path clip-path="url(#p9c8bef6b30)" d="
M406.56 248.306
L406.56 20.055" style="fill:none;opacity:0.2;stroke:#b2b2b2;stroke-linecap:square;stroke-width:0.5;"/>
     </g>
     <g id="line2d_26">
      <g>
       <use style="stroke:#000000;" x="406.56" xlink:href="#m8a7fcc65d0" y="248.305625"/>
      </g>
     </g>
     <g id="line2d_27">
      <g>
       <use style="stroke:#000000;" x="406.56" xlink:href="#mf06237e818" y="20.055"/>
      </g>
     </g>
     <g id="text_9">
      <!-- $\mathdefault{80}$ -->
      <defs>
       <path d="
M17.6719 38.8125
Q12.2031 40.8281 9.5625 44.5312
Q6.9375 48.25 6.9375 53.4219
Q6.9375 61.2344 12.5469 66.5469
Q18.1719 71.875 27.4844 71.875
Q36.8594 71.875 42.5781 66.4219
Q48.2969 60.9844 48.2969 53.1719
Q48.2969 48.1875 45.6719 44.5
Q43.0625 40.8281 37.75 38.8125
Q44.3438 36.6719 47.7812 31.875
Q51.2188 27.0938 51.2188 20.4531
Q51.2188 11.2812 44.7188 5.03125
Q38.2344 -1.21875 27.6406 -1.21875
Q17.0469 -1.21875 10.5469 5.04688
Q4.04688 11.3281 4.04688 20.7031
Q4.04688 27.6875 7.59375 32.3906
Q11.1406 37.1094 17.6719 38.8125
M15.9219 53.7188
Q15.9219 48.6406 19.1875 45.4062
Q22.4688 42.1875 27.6875 42.1875
Q32.7656 42.1875 36.0156 45.375
Q39.2656 48.5781 39.2656 53.2188
Q39.2656 58.0625 35.9062 61.3594
Q32.5625 64.6562 27.5938 64.6562
Q22.5625 64.6562 19.2344 61.4219
Q15.9219 58.2031 15.9219 53.7188
M13.0938 20.6562
Q13.0938 16.8906 14.875 13.375
Q16.6562 9.85938 20.1719 7.92188
Q23.6875 6 27.7344 6
Q34.0312 6 38.125 10.0469
Q42.2344 14.1094 42.2344 20.3594
Q42.2344 26.7031 38.0156 30.8594
Q33.7969 35.0156 27.4375 35.0156
Q21.2344 35.0156 17.1562 30.9062
Q13.0938 26.8125 13.0938 20.6562" id="ArialMT-38"/>
      </defs>
      <g transform="translate(399.84 266.895)scale(0.12 -0.12)">
       <use transform="translate(0.0 0.125)" xlink:href="#ArialMT-38"/>
       <use transform="translate(55.615234375 0.125)" xlink:href="#ArialMT-30"/>
      </g>
     </g>
    </g>
   </g>
   <g id="matplotlib.axis_2">
    <g id="ytick_1">
     <g id="line2d_28">
      <path clip-path="url(#p9c8bef6b30)" d="
M33.76 248.306
L406.56 248.306" style="fill:none;opacity:0.2;stroke:#b2b2b2;stroke-linecap:square;stroke-width:0.5;"/>
     </g>
     <g id="line2d_29">
      <defs>
       <path d="
M0 0
L-4 0" id="mc35cc452be" style="stroke:#000000;"/>
      </defs>
      <g>
       <use style="stroke:#000000;" x="33.76" xlink:href="#mc35cc452be" y="248.305625"/>
      </g>
     </g>
     <g id="line2d_30">
      <defs>
       <path d="
M0 0
L4 0" id="m82fbe672db" style="stroke:#000000;"/>
      </defs>
      <g>
       <use style="stroke:#000000;" x="406.56" xlink:href="#m82fbe672db" y="248.305625"/>
      </g>
     </g>
     <g id="text_10">
      <!-- $\mathdefault{0.0}$ -->
      <defs>
       <path d="
M9.07812 0
L9.07812 10.0156
L19.0938 10.0156
L19.0938 0
z
" id="ArialMT-2e"/>
      </defs>
      <g transform="translate(7.2 251.4078125)scale(0.12 -0.12)">
       <use transform="translate(0.0 0.125)" xlink:href="#ArialMT-30"/>
       <use transform="translate(55.615234375 0.125)" xlink:href="#ArialMT-2e"/>
       <use transform="translate(82.275390625 0.125)" xlink:href="#ArialMT-30"/>
      </g>
     </g>
    </g>
    <g id="ytick_2">
     <g id="line2d_31">
      <path clip-path="url(#p9c8bef6b30)" d="
M33.76 210.264
L406.56 210.264" style="fill:none;opacity:0.2;stroke:#b2b2b2;stroke-linecap:square;stroke-width:0.5;"/>
     </g>
     <g id="line2d_32">
      <g>
       <use style="stroke:#000000;" x="33.76" xlink:href="#mc35cc452be" y="210.263854167"/>
      </g>
     </g>
     <g id="line2d_33">
      <g>
       <use style="stroke:#000000;" x="406.56" xlink:href="#m82fbe672db" y="210.263854167"/>
      </g>
     </g>
     <g id="text_11">
      <!-- $\mathdefault{0.5}$ -->
      <g transform="translate(7.2 213.366041667)scale(0.12 -0.12)">
       <use transform="translate(0.0 0.125)" xlink:href="#ArialMT-30"/>
       <use transform="translate(55.615234375 0.125)" xlink:href="#ArialMT-2e"/>
       <use transform="translate(82.275390625 0.125)" xlink:href="#ArialMT-35"/>
      </g>
     </g>
    </g>
    <g id="ytick_3">
     <g id="line2d_34">
      <path clip-path="url(#p9c8bef6b30)" d="
M33.76 172.222
L406.56 172.222" style="fill:none;opacity:0.2;stroke:#b2b2b2;stroke-linecap:square;stroke-width:0.5;"/>
     </g>
     <g id="line2d_35">
      <g>
       <use style="stroke:#000000;" x="33.76" xlink:href="#mc35cc452be" y="172.222083333"/>
      </g>
     </g>
     <g id="line2d_36">
      <g>
       <use style="stroke:#000000;" x="406.56" xlink:href="#m82fbe672db" y="172.222083333"/>
      </g>
     </g>
     <g id="text_12">
      <!-- $\mathdefault{1.0}$ -->
      <g transform="translate(7.2 175.324270833)scale(0.12 -0.12)">
       <use transform="translate(0.0 0.125)" xlink:href="#ArialMT-31"/>
       <use transform="translate(55.615234375 0.125)" xlink:href="#ArialMT-2e"/>
       <use transform="translate(82.275390625 0.125)" xlink:href="#ArialMT-30"/>
      </g>
     </g>
    </g>
    <g id="ytick_4">
     <g id="line2d_37">
      <path clip-path="url(#p9c8bef6b30)" d="
M33.76 134.18
L406.56 134.18" style="fill:none;opacity:0.2;stroke:#b2b2b2;stroke-linecap:square;stroke-width:0.5;"/>
     </g>
     <g id="line2d_38">
      <g>
       <use style="stroke:#000000;" x="33.76" xlink:href="#mc35cc452be" y="134.1803125"/>
      </g>
     </g>
     <g id="line2d_39">
      <g>
       <use style="stroke:#000000;" x="406.56" xlink:href="#m82fbe672db" y="134.1803125"/>
      </g>
     </g>
     <g id="text_13">
      <!-- $\mathdefault{1.5}$ -->
      <g transform="translate(7.2 137.2825)scale(0.12 -0.12)">
       <use transform="translate(0.0 0.125)" xlink:href="#ArialMT-31"/>
       <use transform="translate(55.615234375 0.125)" xlink:href="#ArialMT-2e"/>
       <use transform="translate(82.275390625 0.125)" xlink:href="#ArialMT-35"/>
      </g>
     </g>
    </g>
    <g id="ytick_5">
     <g id="line2d_40">
      <path clip-path="url(#p9c8bef6b30)" d="
M33.76 96.1385
L406.56 96.1385" style="fill:none;opacity:0.2;stroke:#b2b2b2;stroke-linecap:square;stroke-width:0.5;"/>
     </g>
     <g id="line2d_41">
      <g>
       <use style="stroke:#000000;" x="33.76" xlink:href="#mc35cc452be" y="96.1385416667"/>
      </g>
     </g>
     <g id="line2d_42">
      <g>
       <use style="stroke:#000000;" x="406.56" xlink:href="#m82fbe672db" y="96.1385416667"/>
      </g>
     </g>
     <g id="text_14">
      <!-- $\mathdefault{2.0}$ -->
      <g transform="translate(7.2 99.2407291667)scale(0.12 -0.12)">
       <use transform="translate(0.0 0.125)" xlink:href="#ArialMT-32"/>
       <use transform="translate(55.615234375 0.125)" xlink:href="#ArialMT-2e"/>
       <use transform="translate(82.275390625 0.125)" xlink:href="#ArialMT-30"/>
      </g>
     </g>
    </g>
    <g id="ytick_6">
     <g id="line2d_43">
      <path clip-path="url(#p9c8bef6b30)" d="
M33.76 58.0968
L406.56 58.0968" style="fill:none;opacity:0.2;stroke:#b2b2b2;stroke-linecap:square;stroke-width:0.5;"/>
     </g>
     <g id="line2d_44">
      <g>
       <use style="stroke:#000000;" x="33.76" xlink:href="#mc35cc452be" y="58.0967708333"/>
      </g>
     </g>
     <g id="line2d_45">
      <g>
       <use style="stroke:#000000;" x="406.56" xlink:href="#m82fbe672db" y="58.0967708333"/>
      </g>
     </g>
     <g id="text_15">
      <!-- $\mathdefault{2.5}$ -->
      <g transform="translate(7.2 61.1989583333)scale(0.12 -0.12)">
       <use transform="translate(0.0 0.125)" xlink:href="#ArialMT-32"/>
       <use transform="translate(55.615234375 0.125)" xlink:href="#ArialMT-2e"/>
       <use transform="translate(82.275390625 0.125)" xlink:href="#ArialMT-35"/>
      </g>
     </g>
    </g>
    <g id="ytick_7">
     <g id="line2d_46">
      <path clip-path="url(#p9c8bef6b30)" d="
M33.76 20.055
L406.56 20.055" style="fill:none;opacity:0.2;stroke:#b2b2b2;stroke-linecap:square;stroke-width:0.5;"/>
     </g>
     <g id="line2d_47">
      <g>
       <use style="stroke:#000000;" x="33.76" xlink:href="#mc35cc452be" y="20.055"/>
      </g>
     </g>
     <g id="line2d_48">
      <g>
       <use style="stroke:#000000;" x="406.56" xlink:href="#m82fbe672db" y="20.055"/>
      </g>
     </g>
     <g id="text_16">
      <!-- $\mathdefault{3.0}$ -->
      <g transform="translate(7.2 23.1571875)scale(0.12 -0.12)">
       <use transform="translate(0.0 0.125)" xlink:href="#ArialMT-33"/>
       <use transform="translate(55.615234375 0.125)" xlink:href="#ArialMT-2e"/>
       <use transform="translate(82.275390625 0.125)" xlink:href="#ArialMT-30"/>
      </g>
     </g>
    </g>
    <g id="text_17">
     <!-- $\times\mathdefault{10^{4}}\mathdefault{}$ -->
     <defs>
      <path d="
M7.85938 19.9688
L23.25 35.3594
L7.90625 50.6875
L13.875 56.6406
L29.2031 41.3125
L44.4844 56.5938
L50.3438 50.6875
L35.1094 35.4062
L50.4375 20.0625
L44.4844 14.1094
L29.1562 29.4375
L13.7656 14.0625
z
" id="ArialMT-d7"/>
     </defs>
     <g transform="translate(33.76 17.055)scale(0.12 -0.12)">
      <use transform="translate(16.66015625 0.11406250000000284)" xlink:href="#ArialMT-d7"/>
      <use transform="translate(75.8984375 0.11406250000000284)" xlink:href="#ArialMT-31"/>
      <use transform="translate(131.513671875 0.11406250000000284)" xlink:href="#ArialMT-30"/>
      <use transform="translate(187.12890625 49.8953125)scale(0.7)" xlink:href="#ArialMT-34"/>
     </g>
    </g>
   </g>
   <g id="line2d_49">
    <path clip-path="url(#p9c8bef6b30)" d="
M33.76 224.517
L37.1491 223.986
L40.5382 223.443
L43.9273 222.887
L47.3164 222.32
L50.7055 221.74
L54.0945 221.146
L57.4836 220.54
L60.8727 219.92
L64.2618 219.286
L67.6509 218.638
L71.04 217.975
L74.4291 217.298
L77.8182 216.606
L81.2073 215.898
L84.5964 215.174
L87.9855 214.434
L91.3745 213.678
L94.7636 212.904
L98.1527 212.114
L101.542 211.306
L104.931 210.479
L108.32 209.635
L111.709 208.771
L115.098 207.888
L118.487 206.986
L121.876 206.063
L125.265 205.12
L128.655 204.155
L132.044 203.169
L135.433 202.161
L138.822 201.131
L142.211 200.077
L145.6 199
L148.989 197.899
L152.378 196.774
L155.767 195.623
L159.156 194.447
L162.545 193.244
L165.935 192.014
L169.324 190.757
L172.713 189.472
L176.102 188.158
L179.491 186.815
L182.88 185.442
L186.269 184.038
L189.658 182.603
L193.047 181.136
L196.436 179.636
L199.825 178.102
L203.215 176.534
L206.604 174.932
L209.993 173.293
L213.382 171.618
L216.771 169.906
L220.16 168.155
L223.549 166.365
L226.938 164.535
L230.327 162.664
L233.716 160.752
L237.105 158.797
L240.495 156.798
L243.884 154.754
L247.273 152.665
L250.662 150.53
L254.051 148.346
L257.44 146.114
L260.829 143.832
L264.218 141.499
L267.607 139.114
L270.996 136.675
L274.385 134.183
L277.775 131.634
L281.164 129.029
L284.553 126.365
L287.942 123.642
L291.331 120.858
L294.72 118.012
L298.109 115.102
L301.498 112.128
L304.887 109.087
L308.276 105.978
L311.665 102.8
L315.055 99.5502
L318.444 96.2284
L321.833 92.8323
L325.222 89.3604
L328.611 85.811
L332 82.1823
L335.389 78.4725
L338.778 74.68
L342.167 70.8027
L345.556 66.8388
L348.945 62.7865
L352.335 58.6436
L355.724 54.4083
L359.113 50.0783
L362.502 45.6516
L365.891 41.1261
L369.28 36.4996" style="fill:none;stroke:#5da5da;stroke-dasharray:6.000000,6.000000;stroke-dashoffset:0.0;stroke-linecap:round;stroke-width:2.0;"/>
   </g>
   <g id="line2d_50">
    <path clip-path="url(#p9c8bef6b30)" d="
M33.76 224.517
L37.1491 223.882
L40.5382 223.231
L43.9273 222.565
L47.3164 221.882
L50.7055 221.183
L54.0945 220.468
L57.4836 219.735
L60.8727 218.986
L64.2618 218.218
L67.6509 217.433
L71.04 216.63
L74.4291 215.808
L77.8182 214.967
L81.2073 214.108
L84.5964 213.229
L87.9855 212.33
L91.3745 211.411
L94.7636 210.473
L98.1527 209.513
L101.542 208.533
L104.931 207.532
L108.32 206.51
L111.709 205.466
L115.098 204.4
L118.487 203.313
L121.876 202.203
L125.265 201.07
L128.655 199.915
L132.044 198.737
L135.433 197.536
L138.822 196.311
L142.211 195.063
L145.6 193.792
L148.989 192.496
L152.378 191.177
L155.767 189.834
L159.156 188.467
L162.545 187.075
L165.935 185.659
L169.324 184.219
L172.713 182.755
L176.102 181.266
L179.491 179.754
L182.88 178.216
L186.269 176.655
L189.658 175.069
L193.047 173.46
L196.436 171.826
L199.825 170.169
L203.215 168.488
L206.604 166.784
L209.993 165.056
L213.382 163.306
L216.771 161.532
L220.16 159.737
L223.549 157.919
L226.938 156.08
L230.327 154.219
L233.716 152.337
L237.105 150.435
L240.495 148.513
L243.884 146.571
L247.273 144.61
L250.662 142.63
L254.051 140.633
L257.44 138.617
L260.829 136.586
L264.218 134.537
L267.607 132.474
L270.996 130.395
L274.385 128.303
L277.775 126.196
L281.164 124.077
L284.553 121.946
L287.942 119.804
L291.331 117.652
L294.72 115.49
L298.109 113.319
L301.498 111.14
L304.887 108.954
L308.276 106.762
L311.665 104.565
L315.055 102.363
L318.444 100.157
L321.833 97.9489
L325.222 95.7389
L328.611 93.5281
L332 91.3172
L335.389 89.1072
L338.778 86.8991
L342.167 84.6937
L345.556 82.4919
L348.945 80.2945
L352.335 78.1026
L355.724 75.9169
L359.113 73.7383
L362.502 71.5677
L365.891 69.4059
L369.28 67.2537" style="fill:none;stroke:#faa43a;stroke-dasharray:6.000000,6.000000;stroke-dashoffset:0.0;stroke-linecap:round;stroke-width:2.0;"/>
   </g>
   <g id="line2d_51">
    <path clip-path="url(#p9c8bef6b30)" d="
M33.76 223.956
L37.1491 223.415
L40.5382 222.862
L43.9273 222.297
L47.3164 221.718
L50.7055 221.128
L54.0945 220.524
L57.4836 219.906
L60.8727 219.275
L64.2618 218.63
L67.6509 217.97
L71.04 217.296
L74.4291 216.607
L77.8182 215.902
L81.2073 215.182
L84.5964 214.446
L87.9855 213.693
L91.3745 212.924
L94.7636 212.138
L98.1527 211.334
L101.542 210.512
L104.931 209.672
L108.32 208.814
L111.709 207.936
L115.098 207.039
L118.487 206.122
L121.876 205.184
L125.265 204.226
L128.655 203.246
L132.044 202.244
L135.433 201.221
L138.822 200.174
L142.211 199.105
L145.6 198.011
L148.989 196.893
L152.378 195.751
L155.767 194.583
L159.156 193.389
L162.545 192.168
L165.935 190.92
L169.324 189.645
L172.713 188.341
L176.102 187.009
L179.491 185.646
L182.88 184.254
L186.269 182.83
L189.658 181.375
L193.047 179.887
L196.436 178.367
L199.825 176.812
L203.215 175.223
L206.604 173.599
L209.993 171.939
L213.382 170.242
L216.771 168.507
L220.16 166.733
L223.549 164.92
L226.938 163.067
L230.327 161.173
L233.716 159.236
L237.105 157.256
L240.495 155.233
L243.884 153.164
L247.273 151.05
L250.662 148.888
L254.051 146.679
L257.44 144.42
L260.829 142.111
L264.218 139.751
L267.607 137.338
L270.996 134.872
L274.385 132.351
L277.775 129.774
L281.164 127.14
L284.553 124.447
L287.942 121.694
L291.331 118.88
L294.72 116.003
L298.109 113.063
L301.498 110.057
L304.887 106.985
L308.276 103.844
L311.665 100.633
L315.055 97.3512
L318.444 93.9962
L321.833 90.5667
L325.222 87.0609
L328.611 83.4773
L332 79.814
L335.389 76.0692
L338.778 72.2413
L342.167 68.3282
L345.556 64.3282
L348.945 60.2393
L352.335 56.0596
L355.724 51.7869
L359.113 47.4192
L362.502 42.9545
L365.891 38.3906
L369.28 33.7252" style="fill:none;stroke:#60bd68;stroke-dasharray:6.000000,6.000000;stroke-dashoffset:0.0;stroke-linecap:round;stroke-width:2.0;"/>
   </g>
   <g id="line2d_52">
    <path clip-path="url(#p9c8bef6b30)" d="
M33.76 223.956
L37.1491 223.321
L40.5382 222.67
L43.9273 222.003
L47.3164 221.321
L50.7055 220.623
L54.0945 219.908
L57.4836 219.177
L60.8727 218.429
L64.2618 217.663
L67.6509 216.88
L71.04 216.08
L74.4291 215.261
L77.8182 214.424
L81.2073 213.568
L84.5964 212.694
L87.9855 211.8
L91.3745 210.887
L94.7636 209.953
L98.1527 209
L101.542 208.027
L104.931 207.033
L108.32 206.018
L111.709 204.981
L115.098 203.924
L118.487 202.845
L121.876 201.744
L125.265 200.621
L128.655 199.476
L132.044 198.308
L135.433 197.118
L138.822 195.905
L142.211 194.668
L145.6 193.409
L148.989 192.126
L152.378 190.819
L155.767 189.489
L159.156 188.135
L162.545 186.757
L165.935 185.356
L169.324 183.93
L172.713 182.48
L176.102 181.006
L179.491 179.508
L182.88 177.985
L186.269 176.439
L189.658 174.869
L193.047 173.274
L196.436 171.656
L199.825 170.013
L203.215 168.347
L206.604 166.658
L209.993 164.945
L213.382 163.208
L216.771 161.449
L220.16 159.667
L223.549 157.863
L226.938 156.036
L230.327 154.188
L233.716 152.317
L237.105 150.426
L240.495 148.514
L243.884 146.581
L247.273 144.629
L250.662 142.657
L254.051 140.666
L257.44 138.656
L260.829 136.629
L264.218 134.584
L267.607 132.522
L270.996 130.445
L274.385 128.351
L277.775 126.243
L281.164 124.12
L284.553 121.983
L287.942 119.834
L291.331 117.673
L294.72 115.5
L298.109 113.317
L301.498 111.123
L304.887 108.921
L308.276 106.711
L311.665 104.493
L315.055 102.268
L318.444 100.037
L321.833 97.8021
L325.222 95.5627
L328.611 93.32
L332 91.0751
L335.389 88.8287
L338.778 86.5817
L342.167 84.335
L345.556 82.0894
L348.945 79.8459
L352.335 77.6053
L355.724 75.3685
L359.113 73.1363
L362.502 70.9096
L365.891 68.6892
L369.28 66.476" style="fill:none;stroke:#f17cb0;stroke-dasharray:6.000000,6.000000;stroke-dashoffset:0.0;stroke-linecap:round;stroke-width:2.0;"/>
   </g>
   <g id="line2d_53">
    <path clip-path="url(#p9c8bef6b30)" d="
M33.76 224.517
L37.1491 223.986
L40.5382 223.444
L43.9273 222.889
L47.3164 222.322
L50.7055 221.743
L54.0945 221.15
L57.4836 220.544
L60.8727 219.925
L64.2618 219.292
L67.6509 218.644
L71.04 217.983
L74.4291 217.306
L77.8182 216.615
L81.2073 215.908
L84.5964 215.185
L87.9855 214.446
L91.3745 213.691
L94.7636 212.919
L98.1527 212.129
L101.542 211.322
L104.931 210.497
L108.32 209.654
L111.709 208.791
L115.098 207.91
L118.487 207.009
L121.876 206.088
L125.265 205.146
L128.655 204.183
L132.044 203.199
L135.433 202.192
L138.822 201.164
L142.211 200.112
L145.6 199.037
L148.989 197.938
L152.378 196.814
L155.767 195.666
L159.156 194.491
L162.545 193.291
L165.935 192.063
L169.324 190.809
L172.713 189.526
L176.102 188.215
L179.491 186.874
L182.88 185.504
L186.269 184.103
L189.658 182.671
L193.047 181.206
L196.436 179.71
L199.825 178.179
L203.215 176.615
L206.604 175.016
L209.993 173.381
L213.382 171.709
L216.771 170
L220.16 168.254
L223.549 166.468
L226.938 164.642
L230.327 162.776
L233.716 160.868
L237.105 158.917
L240.495 156.923
L243.884 154.884
L247.273 152.8
L250.662 150.67
L254.051 148.492
L257.44 146.265
L260.829 143.989
L264.218 141.662
L267.607 139.283
L270.996 136.85
L274.385 134.364
L277.775 131.822
L281.164 129.224
L284.553 126.567
L287.942 123.851
L291.331 121.075
L294.72 118.237
L298.109 115.335
L301.498 112.369
L304.887 109.336
L308.276 106.236
L311.665 103.067
L315.055 99.8269
L318.444 96.5146
L321.833 93.1284
L325.222 89.6667
L328.611 86.1277
L332 82.5098
L335.389 78.8112
L338.778 75.0301
L342.167 71.1646
L345.556 67.2129
L348.945 63.173
L352.335 59.0431
L355.724 54.8209
L359.113 50.5046
L362.502 46.0921
L365.891 41.581
L369.28 36.9694" style="fill:none;stroke:#b2912f;stroke-dasharray:6.000000,6.000000;stroke-dashoffset:0.0;stroke-linecap:round;stroke-width:2.0;"/>
   </g>
   <g id="line2d_54">
    <path clip-path="url(#p9c8bef6b30)" d="
M33.76 247.745
L37.1491 247.827
L40.5382 247.877
L43.9273 247.907
L47.3164 247.924
L50.7055 247.933
L54.0945 247.935
L57.4836 247.934
L60.8727 247.93
L64.2618 247.925
L67.6509 247.918
L71.04 247.911
L74.4291 247.903
L77.8182 247.895
L81.2073 247.886
L84.5964 247.877
L87.9855 247.867
L91.3745 247.858
L94.7636 247.848
L98.1527 247.838
L101.542 247.827
L104.931 247.816
L108.32 247.806
L111.709 247.794
L115.098 247.783
L118.487 247.771
L121.876 247.759
L125.265 247.747
L128.655 247.735
L132.044 247.722
L135.433 247.709
L138.822 247.696
L142.211 247.682
L145.6 247.668
L148.989 247.654
L152.378 247.639
L155.767 247.625
L159.156 247.609
L162.545 247.594
L165.935 247.578
L169.324 247.562
L172.713 247.545
L176.102 247.528
L179.491 247.511
L182.88 247.493
L186.269 247.475
L189.658 247.457
L193.047 247.438
L196.436 247.418
L199.825 247.398
L203.215 247.378
L206.604 247.357
L209.993 247.336
L213.382 247.315
L216.771 247.293
L220.16 247.27
L223.549 247.247
L226.938 247.223
L230.327 247.199
L233.716 247.174
L237.105 247.149
L240.495 247.123
L243.884 247.097
L247.273 247.07
L250.662 247.043
L254.051 247.014
L257.44 246.986
L260.829 246.956
L264.218 246.926
L267.607 246.895
L270.996 246.864
L274.385 246.832
L277.775 246.799
L281.164 246.765
L284.553 246.731
L287.942 246.696
L291.331 246.66
L294.72 246.623
L298.109 246.585
L301.498 246.547
L304.887 246.508
L308.276 246.468
L311.665 246.427
L315.055 246.385
L318.444 246.342
L321.833 246.298
L325.222 246.253
L328.611 246.208
L332 246.161
L335.389 246.113
L338.778 246.064
L342.167 246.014
L345.556 245.963
L348.945 245.911
L352.335 245.857
L355.724 245.803
L359.113 245.747
L362.502 245.69
L365.891 245.631
L369.28 245.572" style="fill:none;stroke:#b276b2;stroke-dasharray:6.000000,6.000000;stroke-dashoffset:0.0;stroke-linecap:round;stroke-width:2.0;"/>
   </g>
   <g id="line2d_55">
    <path clip-path="url(#p9c8bef6b30)" d="
M33.76 224.517
L37.1491 223.88
L40.5382 223.227
L43.9273 222.558
L47.3164 221.874
L50.7055 221.173
L54.0945 220.455
L57.4836 219.72
L60.8727 218.967
L64.2618 218.198
L67.6509 217.41
L71.04 216.604
L74.4291 215.779
L77.8182 214.936
L81.2073 214.074
L84.5964 213.192
L87.9855 212.29
L91.3745 211.369
L94.7636 210.427
L98.1527 209.465
L101.542 208.482
L104.931 207.478
L108.32 206.453
L111.709 205.407
L115.098 204.338
L118.487 203.248
L121.876 202.135
L125.265 201
L128.655 199.842
L132.044 198.661
L135.433 197.458
L138.822 196.231
L142.211 194.981
L145.6 193.707
L148.989 192.41
L152.378 191.089
L155.767 189.744
L159.156 188.375
L162.545 186.983
L165.935 185.566
L169.324 184.125
L172.713 182.66
L176.102 181.172
L179.491 179.659
L182.88 178.122
L186.269 176.562
L189.658 174.977
L193.047 173.369
L196.436 171.738
L199.825 170.083
L203.215 168.405
L206.604 166.704
L209.993 164.981
L213.382 163.235
L216.771 161.467
L220.16 159.677
L223.549 157.866
L226.938 156.033
L230.327 154.18
L233.716 152.307
L237.105 150.414
L240.495 148.501
L243.884 146.57
L247.273 144.62
L250.662 142.653
L254.051 140.669
L257.44 138.668
L260.829 136.651
L264.218 134.619
L267.607 132.572
L270.996 130.511
L274.385 128.437
L277.775 126.351
L281.164 124.253
L284.553 122.144
L287.942 120.025
L291.331 117.896
L294.72 115.759
L298.109 113.614
L301.498 111.463
L304.887 109.306
L308.276 107.143
L311.665 104.976
L315.055 102.806
L318.444 100.634
L321.833 98.4594
L325.222 96.2847
L328.611 94.1101
L332 91.9367
L335.389 89.7654
L338.778 87.5969
L342.167 85.4322
L345.556 83.2723
L348.945 81.1179
L352.335 78.9699
L355.724 76.8292
L359.113 74.6966
L362.502 72.5729
L365.891 70.459
L369.28 68.3556" style="fill:none;stroke:#decf3f;stroke-dasharray:6.000000,6.000000;stroke-dashoffset:0.0;stroke-linecap:round;stroke-width:2.0;"/>
   </g>
   <g id="line2d_56">
    <path clip-path="url(#p9c8bef6b30)" d="
M33.76 247.745
L37.1491 247.915
L40.5382 247.937
L43.9273 247.933
L47.3164 247.924
L50.7055 247.914
L54.0945 247.904
L57.4836 247.893
L60.8727 247.882
L64.2618 247.871
L67.6509 247.86
L71.04 247.848
L74.4291 247.836
L77.8182 247.824
L81.2073 247.812
L84.5964 247.799
L87.9855 247.786
L91.3745 247.772
L94.7636 247.759
L98.1527 247.745
L101.542 247.731
L104.931 247.716
L108.32 247.701
L111.709 247.686
L115.098 247.671
L118.487 247.655
L121.876 247.639
L125.265 247.622
L128.655 247.606
L132.044 247.589
L135.433 247.571
L138.822 247.553
L142.211 247.535
L145.6 247.517
L148.989 247.498
L152.378 247.479
L155.767 247.459
L159.156 247.439
L162.545 247.419
L165.935 247.399
L169.324 247.378
L172.713 247.357
L176.102 247.335
L179.491 247.313
L182.88 247.291
L186.269 247.268
L189.658 247.245
L193.047 247.222
L196.436 247.198
L199.825 247.174
L203.215 247.15
L206.604 247.125
L209.993 247.1
L213.382 247.074
L216.771 247.049
L220.16 247.023
L223.549 246.996
L226.938 246.97
L230.327 246.943
L233.716 246.916
L237.105 246.888
L240.495 246.86
L243.884 246.832
L247.273 246.804
L250.662 246.775
L254.051 246.746
L257.44 246.717
L260.829 246.687
L264.218 246.658
L267.607 246.628
L270.996 246.598
L274.385 246.568
L277.775 246.537
L281.164 246.507
L284.553 246.476
L287.942 246.445
L291.331 246.414
L294.72 246.383
L298.109 246.351
L301.498 246.32
L304.887 246.288
L308.276 246.257
L311.665 246.225
L315.055 246.193
L318.444 246.161
L321.833 246.13
L325.222 246.098
L328.611 246.066
L332 246.034
L335.389 246.002
L338.778 245.97
L342.167 245.939
L345.556 245.907
L348.945 245.875
L352.335 245.844
L355.724 245.812
L359.113 245.781
L362.502 245.75
L365.891 245.719
L369.28 245.688" style="fill:none;stroke:#f15854;stroke-dasharray:6.000000,6.000000;stroke-dashoffset:0.0;stroke-linecap:round;stroke-width:2.0;"/>
   </g>
   <g id="patch_3">
    <path d="
M33.76 248.306
L406.56 248.306" style="fill:none;stroke:#000000;stroke-linecap:square;stroke-linejoin:miter;"/>
   </g>
   <g id="patch_4">
    <path d="
M406.56 248.306
L406.56 20.055" style="fill:none;stroke:#000000;stroke-linecap:square;stroke-linejoin:miter;"/>
   </g>
   <g id="patch_5">
    <path d="
M33.76 248.306
L33.76 20.055" style="fill:none;stroke:#000000;stroke-linecap:square;stroke-linejoin:miter;"/>
   </g>
   <g id="patch_6">
    <path d="
M33.76 20.055
L406.56 20.055" style="fill:none;stroke:#000000;stroke-linecap:square;stroke-linejoin:miter;"/>
   </g>
  </g>
 </g>
 <defs>
  <clipPath id="p9c8bef6b30">
   <rect height="228.250625" width="372.8" x="33.76" y="20.055"/>
  </clipPath>
 </defs>
</svg>
