('C:\\Users\\edjua\\Dropbox (USC '
 'WCC-CAMM)\\CellPD_dev\\distributions\\temp_pyinstaller\\build\\CellPD\\out00-PKG.pkg',
 {'BINARY': 1,
  'DATA': 1,
  'EXECUTABLE': 1,
  'EXTENSION': 1,
  'PYMODULE': 1,
  'PYSOURCE': 1,
  'PYZ': 0},
 [('out00-PYZ.pyz',
   'C:\\Users\\edjua\\Dropbox (USC '
   'WCC-CAMM)\\CellPD_dev\\distributions\\temp_pyinstaller\\build\\CellPD\\out00-PYZ.pyz',
   'PYZ'),
  ('struct',
   'c:\\users\\edjua\\appdata\\local\\programs\\python\\python35\\lib\\struct.pyo',
   'PYMODULE'),
  ('pyimod01_os_path',
   'c:\\users\\edjua\\appdata\\local\\programs\\python\\python35\\lib\\site-packages\\PyInstaller\\loader\\pyimod01_os_path.pyc',
   'PYMODULE'),
  ('pyimod02_archive',
   'c:\\users\\edjua\\appdata\\local\\programs\\python\\python35\\lib\\site-packages\\PyInstaller\\loader\\pyimod02_archive.pyc',
   'PYMODULE'),
  ('pyimod03_importers',
   'c:\\users\\edjua\\appdata\\local\\programs\\python\\python35\\lib\\site-packages\\PyInstaller\\loader\\pyimod03_importers.pyc',
   'PYMODULE'),
  ('pyiboot01_bootstrap',
   'c:\\users\\edjua\\appdata\\local\\programs\\python\\python35\\lib\\site-packages\\PyInstaller\\loader\\pyiboot01_bootstrap.py',
   'PYSOURCE'),
  ('pyi_rth_pkgres',
   'c:\\users\\edjua\\appdata\\local\\programs\\python\\python35\\lib\\site-packages\\PyInstaller\\loader\\rthooks\\pyi_rth_pkgres.py',
   'PYSOURCE'),
  ('pyi_rth_win32comgenpy',
   'c:\\users\\edjua\\appdata\\local\\programs\\python\\python35\\lib\\site-packages\\PyInstaller\\loader\\rthooks\\pyi_rth_win32comgenpy.py',
   'PYSOURCE'),
  ('pyi_rth__tkinter',
   'c:\\users\\edjua\\appdata\\local\\programs\\python\\python35\\lib\\site-packages\\PyInstaller\\loader\\rthooks\\pyi_rth__tkinter.py',
   'PYSOURCE'),
  ('pyi_rth_mplconfig',
   'c:\\users\\edjua\\appdata\\local\\programs\\python\\python35\\lib\\site-packages\\PyInstaller\\loader\\rthooks\\pyi_rth_mplconfig.py',
   'PYSOURCE'),
  ('pyi_rth_mpldata',
   'c:\\users\\edjua\\appdata\\local\\programs\\python\\python35\\lib\\site-packages\\PyInstaller\\loader\\rthooks\\pyi_rth_mpldata.py',
   'PYSOURCE'),
  ('CellPD',
   'C:\\Users\\edjua\\Dropbox (USC '
   'WCC-CAMM)\\CellPD_dev\\distributions\\temp_pyinstaller\\CellPD.py',
   'PYSOURCE'),
  ('CellPD.exe.manifest',
   'C:\\Users\\edjua\\Dropbox (USC '
   'WCC-CAMM)\\CellPD_dev\\distributions\\temp_pyinstaller\\build\\CellPD\\CellPD.exe.manifest',
   'BINARY')],
 True,
 False,
 False)
