<table>
<tr><th>Parameter    </th><th>   Value</th><th>  Std. Error</th><th>units          </th><th>  Inv_value</th></tr>
<tr><td>growth_rate  </td><td>0.0289  </td><td>0.00273     </td><td>1/hours        </td><td>34.6       </td></tr>
<tr><td>seeding_cells</td><td>3.39e+03</td><td>293         </td><td>number of cells</td><td>0.000295   </td></tr>
</table>