Hours,Total cells-mean,Total cells-std,
797.0,0.087,1e-16,
806.0,0.125,1e-16,
858.0,0.0911,1e-16,
891.0,0.089,1e-16,
947.0,0.111,1e-16,
989.0,0.0868,1e-16,
1644.0,0.0886,1e-16,
1654.0,0.122,1e-16,
1769.0,0.0892,1e-16,
1802.0,0.0892,1e-16,
1836.0,0.089,1e-16,
1858.0,0.109,1e-16,
2492.0,0.0882,1e-16,
2501.0,0.124,1e-16,
2681.0,0.0896,1e-16,
2684.0,0.0865,1e-16,
2715.0,0.0888,1e-16,
2770.0,0.106,1e-16,
3343.0,0.09,1e-16,
3349.0,0.124,1e-16,
3532.0,0.0882,1e-16,
3594.0,0.0919,1e-16,
3628.0,0.0873,1e-16,
3683.0,0.108,1e-16,
4190.0,0.0897,1e-16,
4195.0,0.128,1e-16,
4379.0,0.0886,1e-16,
4505.0,0.0909,1e-16,
4538.0,0.0886,1e-16,
4593.0,0.109,1e-16,
5038.0,0.0903,1e-16,
5046.0,0.131,1e-16,
5226.0,0.0871,1e-16,
5416.0,0.0907,1e-16,
5450.0,0.0885,1e-16,
5504.0,0.11,1e-16,
5886.0,0.091,1e-16,
5897.0,0.136,1e-16,
6073.0,0.0896,1e-16,
6326.0,0.0905,1e-16,
6360.0,0.0892,1e-16,
6415.0,0.114,1e-16,
6737.0,0.0908,1e-16,
6748.0,0.143,1e-16,
6920.0,0.0884,1e-16,
7237.0,0.0922,1e-16,
7271.0,0.0894,1e-16,
7325.0,0.121,1e-16,
7585.0,0.0899,1e-16,
7595.0,0.153,1e-16,
7772.0,0.0905,1e-16,
8147.0,0.091,1e-16,
8182.0,0.0897,1e-16,
8236.0,0.125,1e-16,
8432.0,0.0918,1e-16,
8442.0,0.163,1e-16,
8619.0,0.089,1e-16,
9058.0,0.0907,1e-16,
9093.0,0.0901,1e-16,
9146.0,0.133,1e-16,
9280.0,0.0927,1e-16,
9289.0,0.173,1e-16,
9466.0,0.0893,1e-16,
9968.0,0.0927,1e-16,
10003.0,0.0908,1e-16,
10057.0,0.137,1e-16,
10132.0,0.0916,1e-16,
10139.0,0.185,1e-16,
10313.0,0.0916,1e-16,
10879.0,0.0938,1e-16,
10914.0,0.0901,1e-16,
10968.0,0.146,1e-16,
10979.0,0.0899,1e-16,
10990.0,0.199,1e-16,
11160.0,0.0904,1e-16,
11790.0,0.094,1e-16,
11825.0,0.0908,1e-16,
11827.0,0.0916,1e-16,
11838.0,0.216,1e-16,
11878.0,0.157,1e-16,
12011.0,0.0924,1e-16,
12675.0,0.093,1e-16,
12688.0,0.228,1e-16,
12701.0,0.095,1e-16,
12736.0,0.092,1e-16,
12788.0,0.17,1e-16,
12862.0,0.0911,1e-16,
13522.0,0.0912,1e-16,
13539.0,0.252,1e-16,
13612.0,0.0976,1e-16,
13647.0,0.095,1e-16,
13699.0,0.18,1e-16,
13713.0,0.0926,1e-16,
14369.0,0.0919,1e-16,
14386.0,0.28,1e-16,
14522.0,0.101,1e-16,
14558.0,0.0961,1e-16,
14564.0,0.0923,1e-16,
14609.0,0.195,1e-16,
15217.0,0.0948,1e-16,
15237.0,0.301,1e-16,
15415.0,0.0943,1e-16,
15433.0,0.0998,1e-16,
15469.0,0.0956,1e-16,
15520.0,0.218,1e-16,
16068.0,0.0946,1e-16,
16084.0,0.342,1e-16,
16266.0,0.0972,1e-16,
16344.0,0.102,1e-16,
16380.0,0.0973,1e-16,
16430.0,0.232,1e-16,
16917.0,0.096,1e-16,
16931.0,0.373,1e-16,
17117.0,0.0959,1e-16,
17254.0,0.104,1e-16,
17291.0,0.0966,1e-16,
17340.0,0.262,1e-16,
17764.0,0.0998,1e-16,
17782.0,0.399,1e-16,
17964.0,0.101,1e-16,
18165.0,0.106,1e-16,
18202.0,0.1,1e-16,
18251.0,0.288,1e-16,
18612.0,0.101,1e-16,
18629.0,0.458,1e-16,
18815.0,0.103,1e-16,
19076.0,0.113,1e-16,
19113.0,0.101,1e-16,
19162.0,0.315,1e-16,
19460.0,0.102,1e-16,
19476.0,0.503,1e-16,
19662.0,0.104,1e-16,
19987.0,0.117,1e-16,
20023.0,0.104,1e-16,
20073.0,0.356,1e-16,
20308.0,0.103,1e-16,
20327.0,0.554,1e-16,
20513.0,0.107,1e-16,
20898.0,0.123,1e-16,
20935.0,0.107,1e-16,
20983.0,0.4,1e-16,
21156.0,0.107,1e-16,
21174.0,0.615,1e-16,
21365.0,0.11,1e-16,
21808.0,0.126,1e-16,
21846.0,0.109,1e-16,
21894.0,0.448,1e-16,
22004.0,0.111,1e-16,
22021.0,0.657,1e-16,
22216.0,0.113,1e-16,
22719.0,0.136,1e-16,
22757.0,0.114,1e-16,
22804.0,0.484,1e-16,
22851.0,0.114,1e-16,
22872.0,0.704,1e-16,
23067.0,0.121,1e-16,
23630.0,0.144,1e-16,
23668.0,0.117,1e-16,
23699.0,0.117,1e-16,
23715.0,0.554,1e-16,
23719.0,0.792,1e-16,
23918.0,0.125,1e-16,
24540.0,0.155,1e-16,
24550.0,0.12,1e-16,
24570.0,0.833,1e-16,
24579.0,0.122,1e-16,
24625.0,0.611,1e-16,
24765.0,0.134,1e-16,
25402.0,0.128,1e-16,
25421.0,0.893,1e-16,
25451.0,0.164,1e-16,
25490.0,0.127,1e-16,
25536.0,0.686,1e-16,
25616.0,0.139,1e-16,
26253.0,0.133,1e-16,
26268.0,0.997,1e-16,
26362.0,0.171,1e-16,
26401.0,0.139,1e-16,
26446.0,0.748,1e-16,
26468.0,0.15,1e-16,
27104.0,0.136,1e-16,
27115.0,1.04,1e-16,
27273.0,0.191,1e-16,
27313.0,0.144,1e-16,
27319.0,0.161,1e-16,
27357.0,0.827,1e-16,
27952.0,0.146,1e-16,
27966.0,1.02,1e-16,
28170.0,0.168,1e-16,
28184.0,0.209,1e-16,
28224.0,0.157,1e-16,
28268.0,0.872,1e-16,
28800.0,0.155,1e-16,
28813.0,1.03,1e-16,
29021.0,0.181,1e-16,
29095.0,0.234,1e-16,
29134.0,0.17,1e-16,
29178.0,0.94,1e-16,
29651.0,0.165,1e-16,
29660.0,1.05,1e-16,
29869.0,0.197,1e-16,
30006.0,0.253,1e-16,
30045.0,0.18,1e-16,
30089.0,0.957,1e-16,
30498.0,0.179,1e-16,
30506.0,1.06,1e-16,
30720.0,0.212,1e-16,
30917.0,0.286,1e-16,
30956.0,0.193,1e-16,
31000.0,0.954,1e-16,
31346.0,0.192,1e-16,
31358.0,1.03,1e-16,
31567.0,0.233,1e-16,
31828.0,0.314,1e-16,
31867.0,0.21,1e-16,
31910.0,0.982,1e-16,
32193.0,0.208,1e-16,
32205.0,1.04,1e-16,
32414.0,0.262,1e-16,
32739.0,0.355,1e-16,
32778.0,0.233,1e-16,
32821.0,0.995,1e-16,
33040.0,0.225,1e-16,
33056.0,1.04,1e-16,
33261.0,0.275,1e-16,
33650.0,0.388,1e-16,
33688.0,0.257,1e-16,
33731.0,0.977,1e-16,
33888.0,0.25,1e-16,
33907.0,1.03,1e-16,
34112.0,0.305,1e-16,
34560.0,0.431,1e-16,
34599.0,0.285,1e-16,
34641.0,0.967,1e-16,
34735.0,0.266,1e-16,
34757.0,1.05,1e-16,
34960.0,0.336,1e-16,
35471.0,0.474,1e-16,
35510.0,0.32,1e-16,
35552.0,1,1e-16,
35587.0,0.301,1e-16,
35608.0,1.05,1e-16,
35811.0,0.369,1e-16,
36381.0,0.54,1e-16,
36421.0,0.348,1e-16,
36435.0,0.326,1e-16,
36459.0,1.04,1e-16,
36463.0,0.998,1e-16,
36662.0,0.413,1e-16,
37286.0,0.358,1e-16,
37292.0,0.586,1e-16,
37307.0,1.02,1e-16,
37332.0,0.399,1e-16,
37373.0,0.981,1e-16,
37513.0,0.448,1e-16,
38138.0,0.396,1e-16,
38154.0,1.03,1e-16,
38203.0,0.661,1e-16,
38243.0,0.43,1e-16,
38284.0,0.984,1e-16,
38361.0,0.487,1e-16,
38989.0,0.437,1e-16,
39001.0,1.05,1e-16,
39113.0,0.759,1e-16,
39154.0,0.481,1e-16,
39195.0,0.998,1e-16,
39212.0,0.542,1e-16,
39841.0,0.483,1e-16,
39848.0,1.04,1e-16,
40024.0,0.787,1e-16,
40063.0,0.6,1e-16,
40065.0,0.589,1e-16,
40106.0,0.982,1e-16,
40688.0,0.529,1e-16,
40700.0,1.04,1e-16,
40914.0,0.649,1e-16,
40935.0,0.877,1e-16,
40975.0,0.604,1e-16,
41017.0,1,1e-16,
41540.0,0.584,1e-16,
41551.0,1.05,1e-16,
41762.0,0.712,1e-16,
41846.0,0.909,1e-16,
41886.0,0.695,1e-16,
41927.0,0.984,1e-16,
42387.0,0.64,1e-16,
42398.0,1.05,1e-16,
42613.0,0.77,1e-16,
42757.0,0.985,1e-16,
42797.0,0.728,1e-16,
42838.0,0.988,1e-16,
43235.0,0.706,1e-16,
43249.0,1.04,1e-16,
43465.0,0.822,1e-16,
43667.0,0.998,1e-16,
43707.0,0.784,1e-16,
43749.0,1.02,1e-16,
44086.0,0.769,1e-16,
44099.0,1.04,1e-16,
44312.0,0.899,1e-16,
44578.0,0.989,1e-16,
44618.0,0.856,1e-16,
44659.0,0.984,1e-16,
44938.0,0.814,1e-16,
44950.0,1.05,1e-16,
45160.0,0.962,1e-16,
45489.0,0.996,1e-16,
45529.0,0.891,1e-16,
45570.0,0.988,1e-16,
45789.0,0.872,1e-16,
45801.0,1.03,1e-16,
46007.0,0.984,1e-16,
46400.0,0.981,1e-16,
46440.0,0.937,1e-16,
46480.0,1.01,1e-16,
46640.0,0.924,1e-16,
46652.0,1.05,1e-16,
46855.0,0.988,1e-16,
47311.0,1,1e-16,
47351.0,0.965,1e-16,
47391.0,1.02,1e-16,
47488.0,0.938,1e-16,
47500.0,1.05,1e-16,
47706.0,0.986,1e-16,
48222.0,1.02,1e-16,
48262.0,0.971,1e-16,
48302.0,1.01,1e-16,
48336.0,0.947,1e-16,
48347.0,1.05,1e-16,
48554.0,1,1e-16,
49133.0,1,1e-16,
49172.0,0.984,1e-16,
49187.0,0.955,1e-16,
49194.0,1.05,1e-16,
49212.0,1.01,1e-16,
49405.0,1,1e-16,
50038.0,0.965,1e-16,
50044.0,1.04,1e-16,
50045.0,1.05,1e-16,
50084.0,0.988,1e-16,
50123.0,0.99,1e-16,
50256.0,1,1e-16,
50890.0,0.961,1e-16,
50896.0,1.06,1e-16,
50954.0,1.02,1e-16,
50994.0,0.982,1e-16,
51034.0,0.996,1e-16,
51108.0,1,1e-16,
51741.0,0.98,1e-16,
51743.0,1.04,1e-16,
51865.0,1.01,1e-16,
51905.0,0.978,1e-16,
51945.0,0.995,1e-16,
51959.0,1.01,1e-16,
52592.0,0.982,1e-16,
52595.0,1.04,1e-16,
52777.0,1.01,1e-16,
52807.0,1.01,1e-16,
52816.0,0.985,1e-16,
52856.0,1.01,1e-16,
53444.0,0.991,1e-16,
53447.0,1.03,1e-16,
53658.0,1.01,1e-16,
53688.0,1.02,1e-16,
53727.0,1.02,1e-16,
53767.0,0.998,1e-16,
54292.0,0.991,1e-16,
54298.0,1.06,1e-16,
54510.0,1.02,1e-16,
54598.0,1.03,1e-16,
54639.0,1.03,1e-16,
54678.0,1.02,1e-16,
55139.0,1,1e-16,
55149.0,1.04,1e-16,
55361.0,1.02,1e-16,
55510.0,0.998,1e-16,
55550.0,1.01,1e-16,
55589.0,1.01,1e-16,
55991.0,1.01,1e-16,
55996.0,1.05,1e-16,
56212.0,1.01,1e-16,
56421.0,1.01,1e-16,
56461.0,1.01,1e-16,
56499.0,0.991,1e-16,
56843.0,1.02,1e-16,
56844.0,1.05,1e-16,
57059.0,1.05,1e-16,
57332.0,1.02,1e-16,
57372.0,1,1e-16,
57410.0,1.01,1e-16,
57690.0,1.03,1e-16,
57694.0,1.03,1e-16,
57907.0,1.05,1e-16,
58243.0,1.02,1e-16,
58283.0,0.992,1e-16,
58321.0,1.02,1e-16,
58542.0,1.03,1e-16,
58546.0,1.05,1e-16,
58754.0,1.02,1e-16,
59154.0,1.05,1e-16,
59194.0,0.984,1e-16,
59232.0,1.01,1e-16,
59393.0,1.05,0.0042,
59602.0,1.02,1e-16,
60065.0,1.03,1e-16,
60105.0,1.02,1e-16,
60143.0,1,1e-16,
60240.0,1.05,1e-16,
60245.0,1.05,1e-16,
60449.0,1.03,1e-16,
60976.0,1.02,1e-16,
61016.0,1.01,1e-16,
61054.0,1,1e-16,
61091.0,1.06,1e-16,
61093.0,1.06,1e-16,
61300.0,1.02,1e-16,
61886.0,1.01,1e-16,
61927.0,1,1e-16,
61942.0,1.03,1e-16,
61944.0,1.07,1e-16,
61965.0,1.01,1e-16,
62152.0,1.02,1e-16,
62789.0,1.04,1e-16,
62796.0,1.08,1e-16,
62798.0,1.03,1e-16,
62838.0,1.01,1e-16,
62875.0,1,1e-16,
63003.0,1.03,1e-16,
63640.0,1.04,1e-16,
63648.0,1.1,1e-16,
63708.0,1.01,1e-16,
63749.0,1.01,1e-16,
63785.0,1.02,1e-16,
63855.0,1.03,1e-16,
64486.0,1.06,1e-16,
64499.0,1.1,1e-16,
64620.0,1,1e-16,
64660.0,0.991,1e-16,
64696.0,0.996,1e-16,
64706.0,1.03,1e-16,
65334.0,1.06,1e-16,
65347.0,1.1,1e-16,
65530.0,1.02,1e-16,
65554.0,1.03,1e-16,
65571.0,1.01,1e-16,
65607.0,1.01,1e-16,
66181.0,1.05,1e-16,
66198.0,1.12,1e-16,
66406.0,1.03,1e-16,
66441.0,1.03,1e-16,
66483.0,1.02,1e-16,
66517.0,1.03,1e-16,
67028.0,1.05,1e-16,
67050.0,1.13,1e-16,
67257.0,1.03,1e-16,
67352.0,1.01,1e-16,
67394.0,1.02,1e-16,
67428.0,1,1e-16,
67876.0,1.06,1e-16,
67902.0,1.14,1e-16,
68108.0,1.04,1e-16,
68262.0,1.02,1e-16,
68304.0,1.02,1e-16,
68339.0,1.02,1e-16,
68723.0,1.04,1e-16,
68749.0,1.14,1e-16,
68960.0,1.03,1e-16,
69173.0,1.03,1e-16,
69216.0,1,1e-16,
69250.0,1.01,1e-16,
69574.0,1.06,1e-16,
69601.0,1.16,1e-16,
69811.0,1.03,1e-16,
70084.0,1.03,1e-16,
70127.0,1.01,1e-16,
70160.0,1.01,1e-16,
70425.0,1.07,1e-16,
70452.0,1.16,1e-16,
70662.0,1.04,1e-16,
70995.0,1.02,1e-16,
71038.0,0.996,1e-16,
71071.0,0.99,1e-16,
71273.0,1.05,1e-16,
71300.0,1.16,1e-16,
71510.0,1.04,1e-16,
71907.0,1.03,1e-16,
71949.0,1.01,1e-16,
71982.0,1.02,1e-16,
72120.0,1.05,1e-16,
72148.0,1.18,1e-16,
72357.0,1.05,1e-16,
72818.0,1.02,1e-16,
72861.0,1.01,1e-16,
72893.0,1.02,1e-16,
72967.0,1.05,1e-16,
72996.0,1.18,1e-16,
73205.0,1.03,1e-16,
73729.0,1.03,1e-16,
73771.0,1.01,1e-16,
73804.0,1,1e-16,
73814.0,1.03,1e-16,
73844.0,1.19,1e-16,
74057.0,1.04,1e-16,
74640.0,1.02,1e-16,
74665.0,1.06,1e-16,
74683.0,0.995,1e-16,
74695.0,1.2,1e-16,
74715.0,1.01,1e-16,
74908.0,1.03,1e-16,
75512.0,1.05,1e-16,
75543.0,1.2,1e-16,
75551.0,0.998,1e-16,
75594.0,1.01,1e-16,
75626.0,1,1e-16,
75759.0,1.03,1e-16,
76359.0,1.06,1e-16,
76391.0,1.21,1e-16,
76462.0,1.01,1e-16,
76506.0,1,1e-16,
76537.0,1.03,1e-16,
76610.0,1.04,1e-16,
77211.0,1.05,1e-16,
77239.0,1.22,1e-16,
77372.0,1.03,1e-16,
77417.0,1.03,1e-16,
77447.0,1.02,1e-16,
77462.0,1.03,1e-16,
78058.0,1.05,1e-16,
78091.0,1.23,1e-16,
78283.0,1.02,1e-16,
78314.0,1.04,1e-16,
78328.0,1.02,1e-16,
78359.0,1,1e-16,
78905.0,1.06,1e-16,
78943.0,1.23,1e-16,
79165.0,1.03,1e-16,
79194.0,1.02,1e-16,
79239.0,1.02,1e-16,
79270.0,1.02,1e-16,
79752.0,1.05,1e-16,
79791.0,1.24,1e-16,
80012.0,1.05,1e-16,
80105.0,1.02,1e-16,
80150.0,1.02,1e-16,
80181.0,0.998,1e-16,
81017.0,1.02,1e-16,
81061.0,1.02,1e-16,
81092.0,1,1e-16,
81928.0,1.01,1e-16,
81973.0,1.01,1e-16,
82002.0,1.01,1e-16,
82839.0,1.02,1e-16,
82883.0,1.02,1e-16,
82914.0,0.999,1e-16,
83750.0,1.04,1e-16,
83795.0,1,1e-16,
83825.0,1.01,1e-16,
84661.0,1.03,1e-16,
84707.0,1.01,1e-16,
84736.0,1,1e-16,
85573.0,1.06,1e-16,
85618.0,1.02,1e-16,
85647.0,1,1e-16,
