<?xml version="1.0" encoding="UTF-8"?>
<MultiCellDS version="0.0" type="cell_line">
	<cell_line MultiCellDB_ID="-1" ID="0" MultiCellDB_name="HCT116" label="HCT_116">
		<metadata>
			<description>
				Digital cell line for HCT_116 cells, generated from data provided by Edwin Francisco Juarez Rosales on 2016-03-08. These are Colorectal Carcinoma.
			</description>
			<citation>
				<text>
					If this digital cell line is used in a publication, cite it as:
					"These are the results from running CellPD (Version 1.0)..."
					[1] E. Juarez et al., CellPD: A Cell Line Digitizer to estimate and record critical cell line growth parameters (2016, in preparation)
					[2] S. H. Friedman et al., Recording microenvironment-dependent cell phenotypes as digital cell lines with MultiCellDS (2016, in preparation)
				</text>			
				<URL>http://physics.cancer.gov/docs/bioresource/colorectal/NCI-PBCF-CCL247_HCT116_SOP-508.pdf</URL>
			</citation>
			<curation curated="false">  
				<created>2016-03-08T17:07:45.185892-08:00</created>
				<last_modified>2016-03-08T17:07:45.185892-08:00</last_modified>
				<version>1.0</version>
				<creator>
					<orcid-identifier>
						<path>0000-0003-1062-3642</path>
						<given-names>Edwin Francisco</given-names>		
						<family-name>Juarez Rosales</family-name>
						<email>juarezro@usc.edu</email>
						<url>MathCancer.org</url>
						<organization-name>University of Southern California</organization-name>
						<department-name>Electrical Engineering</department-name>
					</orcid-identifier>
				</creator>
				<current_contact>  
					<orcid-identifier>
						<path>0000-0003-1062-3642</path>
						<given-names>Edwin Francisco</given-names>		
						<family-name>Juarez Rosales</family-name>
						<email>juarezro@usc.edu</email>
						<url>MathCancer.org</url>
						<organization-name>University of Southern California</organization-name>
						<department-name>Electrical Engineering</department-name>
					</orcid-identifier>
				</current_contact>
				<curator>  
					<orcid-identifier>
						<path>0000-0003-1062-3642</path>
						<given-names>Edwin</given-names>		
						<family-name>Juarez</family-name>
						<email>juarezro@usc.edu</email>
						<url>http://MathCancer.org</url>
						<organization-name>University of Southern California</organization-name>
						<department-name>Center for Applied Molecular Medicine</department-name>
					</orcid-identifier>
				</curator>
				<last_modified_by>
					<orcid-identifier>
						<path>0000-0003-1062-3642</path>
						<given-names>Edwin Francisco</given-names>		
						<family-name>Juarez Rosales</family-name>
						<email>juarezro@usc.edu</email>
						<url>MathCancer.org</url>
						<organization-name>University of Southern California</organization-name>
						<department-name>Electrical Engineering</department-name>
					</orcid-identifier>
				</last_modified_by>
			</curation>
			<data_origins> 
				<data_origin>
					<citation>
						<URL>http://physics.cancer.gov/docs/bioresource/colorectal/NCI-PBCF-CCL247_HCT116_SOP-508.pdf</URL>
					</citation>
				</data_origin>
			</data_origins>
			<data_analysis> 
				<URL>http://MathCancer.org</URL>
				<notes>cell_line/phenotype_dataset/phenotype/cell_cycle/cell_cycle_phase/duration does not have associated uncertainty measures because it is a derived quantity from the corresponding rate.</notes>
			</data_analysis>
			<cell_origin>
				<CLO_ID>0001582</CLO_ID>
				<BTO_ID>0002806</BTO_ID>
				<species>Homo Sapiens</species>
				<organ>Colon</organ>
				<disease>colorectal adenocarcinoma</disease>
				<morphology>N/A</morphology>
			</cell_origin>
			<notes>
				
			</notes>
		</metadata>	
		<phenotype_dataset ID="0" keywords="Normoxia">
			<microenvironment>
				<scale>
					<variables>
						<variable type="concentration" ChEBI_ID="15379" name="oxygen" units="mmHg">
							<mean measurement_type="Estimated">
							0.2
							</mean>
						</variable>
					</variables>
				</scale>
			</microenvironment>			
			<phenotype type="expected">
				
				<cell_cycle model="total" ID="0">
					<cell_cycle_phase name="growth_phase" ID="0">
						<net_birth_rate  units="1/hours" measurement_type="inferred" standard_error_of_the_mean ="0.00387">
						0.0201
						</net_birth_rate >
						<duration units="hours" measurement_type="inferred">
						49.7
						</duration>
					</cell_cycle_phase>
					<cell_cycle_phase name="SEEDING_CELLS WHY AM I YELLING?!" ID="1">
						<net_birth_rate  units="number of cells" measurement_type="inferred" standard_error_of_the_mean ="6.12e+04">
						2.37e+05
						</net_birth_rate >
						<duration units="hours" measurement_type="inferred">
						4.23e-06
						</duration>
					</cell_cycle_phase>
				</cell_cycle>
				<cell_cycle model="total_logistic" ID="1">
					<cell_cycle_phase name="growth_phase" ID="0">
						<net_birth_rate  units="1/hours" measurement_type="inferred" standard_error_of_the_mean ="0.0145">
						0.0541
						</net_birth_rate >
						<duration units="hours" measurement_type="inferred">
						18.5
						</duration>
						<cell_cycle_arrest>
							<condition type="maximum_cell_density" units="number of cells" measurement_type="inferred" standard_error_of_the_mean ="1.29e+05">
							1.11e+06
							</condition>
						</cell_cycle_arrest>
					</cell_cycle_phase>
					<cell_cycle_phase name="SEEDING_CELLS WHY AM I YELLING?!" ID="1">
						<net_birth_rate  units="number of cells" measurement_type="inferred" standard_error_of_the_mean ="4.05e+04">
						1.69e+05
						</net_birth_rate >
						<duration units="hours" measurement_type="inferred">
						5.93e-06
						</duration>
						<cell_cycle_arrest>
							<condition type="maximum_cell_density" units="number of cells" measurement_type="inferred" standard_error_of_the_mean ="1.29e+05">
							1.11e+06
							</condition>
						</cell_cycle_arrest>
					</cell_cycle_phase>
				</cell_cycle>
			</phenotype>
		</phenotype_dataset>
	</cell_line>
</MultiCellDS>