<?xml version="1.0" encoding="utf-8" standalone="no"?>
<!DOCTYPE svg PUBLIC "-//W3C//DTD SVG 1.1//EN"
  "http://www.w3.org/Graphics/SVG/1.1/DTD/svg11.dtd">
<!-- Created with matplotlib (http://matplotlib.org/) -->
<svg height="307pt" version="1.1" viewBox="0 0 599 307" width="599pt" xmlns="http://www.w3.org/2000/svg" xmlns:xlink="http://www.w3.org/1999/xlink">
 <defs>
  <style type="text/css">
*{stroke-linecap:butt;stroke-linejoin:round;stroke-miterlimit:100000;}
  </style>
 </defs>
 <g id="figure_1">
  <g id="patch_1">
   <path d="M 0 307.16 
L 599.895812 307.16 
L 599.895812 0 
L 0 0 
z
" style="fill:#ffffff;"/>
  </g>
  <g id="axes_1">
   <g id="patch_2">
    <path d="M 72.283438 246.0075 
L 421.619312 246.0075 
L 421.619312 28.86 
L 72.283438 28.86 
z
" style="fill:#ffffff;"/>
   </g>
   <g id="matplotlib.axis_1">
    <g id="xtick_1">
     <g id="line2d_1">
      <path clip-path="url(#p2f24ab48a4)" d="M 72.5015 246.0075 
L 72.5015 28.86 
" style="fill:none;opacity:0.2;stroke:#b2b2b2;stroke-linecap:square;stroke-width:0.5;"/>
     </g>
     <g id="line2d_2">
      <defs>
       <path d="M 0 0 
L 0 4 
" id="m1077ad0026" style="stroke:#000000;"/>
      </defs>
      <g>
       <use style="stroke:#000000;" x="72.5014998439" xlink:href="#m1077ad0026" y="246.0075"/>
      </g>
     </g>
     <g id="line2d_3">
      <defs>
       <path d="M 0 0 
L 0 -4 
" id="m03505ecfe5" style="stroke:#000000;"/>
      </defs>
      <g>
       <use style="stroke:#000000;" x="72.5014998439" xlink:href="#m03505ecfe5" y="28.86"/>
      </g>
     </g>
     <g id="text_1">
      <!-- $\mathdefault{0}$ -->
      <defs>
       <path d="M 4.15625 35.296875 
Q 4.15625 48 6.765625 55.734375 
Q 9.375 63.484375 14.515625 67.671875 
Q 19.671875 71.875 27.484375 71.875 
Q 33.25 71.875 37.59375 69.546875 
Q 41.9375 67.234375 44.765625 62.859375 
Q 47.609375 58.5 49.21875 52.21875 
Q 50.828125 45.953125 50.828125 35.296875 
Q 50.828125 22.703125 48.234375 14.96875 
Q 45.65625 7.234375 40.5 3 
Q 35.359375 -1.21875 27.484375 -1.21875 
Q 17.140625 -1.21875 11.234375 6.203125 
Q 4.15625 15.140625 4.15625 35.296875 
M 13.1875 35.296875 
Q 13.1875 17.671875 17.3125 11.828125 
Q 21.4375 6 27.484375 6 
Q 33.546875 6 37.671875 11.859375 
Q 41.796875 17.71875 41.796875 35.296875 
Q 41.796875 52.984375 37.671875 58.78125 
Q 33.546875 64.59375 27.390625 64.59375 
Q 21.34375 64.59375 17.71875 59.46875 
Q 13.1875 52.9375 13.1875 35.296875 
" id="ArialMT-30"/>
      </defs>
      <g transform="translate(69.1414998439 264.596875)scale(0.12 -0.12)">
       <use transform="translate(0.0 0.125)" xlink:href="#ArialMT-30"/>
      </g>
     </g>
    </g>
    <g id="xtick_2">
     <g id="line2d_4">
      <path clip-path="url(#p2f24ab48a4)" d="M 116.113969 246.0075 
L 116.113969 28.86 
" style="fill:none;opacity:0.2;stroke:#b2b2b2;stroke-linecap:square;stroke-width:0.5;"/>
     </g>
     <g id="line2d_5">
      <g>
       <use style="stroke:#000000;" x="116.11396862" xlink:href="#m1077ad0026" y="246.0075"/>
      </g>
     </g>
     <g id="line2d_6">
      <g>
       <use style="stroke:#000000;" x="116.11396862" xlink:href="#m03505ecfe5" y="28.86"/>
      </g>
     </g>
     <g id="text_2">
      <!-- $\mathdefault{10}$ -->
      <defs>
       <path d="M 37.25 0 
L 28.46875 0 
L 28.46875 56 
Q 25.296875 52.984375 20.140625 49.953125 
Q 14.984375 46.921875 10.890625 45.40625 
L 10.890625 53.90625 
Q 18.265625 57.375 23.78125 62.296875 
Q 29.296875 67.234375 31.59375 71.875 
L 37.25 71.875 
z
" id="ArialMT-31"/>
      </defs>
      <g transform="translate(109.39396862 264.596875)scale(0.12 -0.12)">
       <use transform="translate(0.0 0.125)" xlink:href="#ArialMT-31"/>
       <use transform="translate(55.615234375 0.125)" xlink:href="#ArialMT-30"/>
      </g>
     </g>
    </g>
    <g id="xtick_3">
     <g id="line2d_7">
      <path clip-path="url(#p2f24ab48a4)" d="M 159.726437 246.0075 
L 159.726437 28.86 
" style="fill:none;opacity:0.2;stroke:#b2b2b2;stroke-linecap:square;stroke-width:0.5;"/>
     </g>
     <g id="line2d_8">
      <g>
       <use style="stroke:#000000;" x="159.726437395" xlink:href="#m1077ad0026" y="246.0075"/>
      </g>
     </g>
     <g id="line2d_9">
      <g>
       <use style="stroke:#000000;" x="159.726437395" xlink:href="#m03505ecfe5" y="28.86"/>
      </g>
     </g>
     <g id="text_3">
      <!-- $\mathdefault{20}$ -->
      <defs>
       <path d="M 50.34375 8.453125 
L 50.34375 0 
L 3.03125 0 
Q 2.9375 3.171875 4.046875 6.109375 
Q 5.859375 10.9375 9.828125 15.625 
Q 13.8125 20.3125 21.34375 26.46875 
Q 33.015625 36.03125 37.109375 41.625 
Q 41.21875 47.21875 41.21875 52.203125 
Q 41.21875 57.421875 37.46875 61 
Q 33.734375 64.59375 27.734375 64.59375 
Q 21.390625 64.59375 17.578125 60.78125 
Q 13.765625 56.984375 13.71875 50.25 
L 4.6875 51.171875 
Q 5.609375 61.28125 11.65625 66.578125 
Q 17.71875 71.875 27.9375 71.875 
Q 38.234375 71.875 44.234375 66.15625 
Q 50.25 60.453125 50.25 52 
Q 50.25 47.703125 48.484375 43.546875 
Q 46.734375 39.40625 42.65625 34.8125 
Q 38.578125 30.21875 29.109375 22.21875 
Q 21.1875 15.578125 18.9375 13.203125 
Q 16.703125 10.84375 15.234375 8.453125 
z
" id="ArialMT-32"/>
      </defs>
      <g transform="translate(153.006437395 264.596875)scale(0.12 -0.12)">
       <use transform="translate(0.0 0.125)" xlink:href="#ArialMT-32"/>
       <use transform="translate(55.615234375 0.125)" xlink:href="#ArialMT-30"/>
      </g>
     </g>
    </g>
    <g id="xtick_4">
     <g id="line2d_10">
      <path clip-path="url(#p2f24ab48a4)" d="M 203.338906 246.0075 
L 203.338906 28.86 
" style="fill:none;opacity:0.2;stroke:#b2b2b2;stroke-linecap:square;stroke-width:0.5;"/>
     </g>
     <g id="line2d_11">
      <g>
       <use style="stroke:#000000;" x="203.338906171" xlink:href="#m1077ad0026" y="246.0075"/>
      </g>
     </g>
     <g id="line2d_12">
      <g>
       <use style="stroke:#000000;" x="203.338906171" xlink:href="#m03505ecfe5" y="28.86"/>
      </g>
     </g>
     <g id="text_4">
      <!-- $\mathdefault{30}$ -->
      <defs>
       <path d="M 4.203125 18.890625 
L 12.984375 20.0625 
Q 14.5 12.59375 18.140625 9.296875 
Q 21.78125 6 27 6 
Q 33.203125 6 37.46875 10.296875 
Q 41.75 14.59375 41.75 20.953125 
Q 41.75 27 37.796875 30.921875 
Q 33.84375 34.859375 27.734375 34.859375 
Q 25.25 34.859375 21.53125 33.890625 
L 22.515625 41.609375 
Q 23.390625 41.5 23.921875 41.5 
Q 29.546875 41.5 34.03125 44.421875 
Q 38.53125 47.359375 38.53125 53.46875 
Q 38.53125 58.296875 35.25 61.46875 
Q 31.984375 64.65625 26.8125 64.65625 
Q 21.6875 64.65625 18.265625 61.421875 
Q 14.84375 58.203125 13.875 51.765625 
L 5.078125 53.328125 
Q 6.6875 62.15625 12.390625 67.015625 
Q 18.109375 71.875 26.609375 71.875 
Q 32.46875 71.875 37.390625 69.359375 
Q 42.328125 66.84375 44.9375 62.5 
Q 47.5625 58.15625 47.5625 53.265625 
Q 47.5625 48.640625 45.0625 44.828125 
Q 42.578125 41.015625 37.703125 38.765625 
Q 44.046875 37.3125 47.5625 32.6875 
Q 51.078125 28.078125 51.078125 21.140625 
Q 51.078125 11.765625 44.234375 5.25 
Q 37.40625 -1.265625 26.953125 -1.265625 
Q 17.53125 -1.265625 11.296875 4.34375 
Q 5.078125 9.96875 4.203125 18.890625 
" id="ArialMT-33"/>
      </defs>
      <g transform="translate(196.618906171 264.596875)scale(0.12 -0.12)">
       <use transform="translate(0.0 0.125)" xlink:href="#ArialMT-33"/>
       <use transform="translate(55.615234375 0.125)" xlink:href="#ArialMT-30"/>
      </g>
     </g>
    </g>
    <g id="xtick_5">
     <g id="line2d_13">
      <path clip-path="url(#p2f24ab48a4)" d="M 246.951375 246.0075 
L 246.951375 28.86 
" style="fill:none;opacity:0.2;stroke:#b2b2b2;stroke-linecap:square;stroke-width:0.5;"/>
     </g>
     <g id="line2d_14">
      <g>
       <use style="stroke:#000000;" x="246.951374947" xlink:href="#m1077ad0026" y="246.0075"/>
      </g>
     </g>
     <g id="line2d_15">
      <g>
       <use style="stroke:#000000;" x="246.951374947" xlink:href="#m03505ecfe5" y="28.86"/>
      </g>
     </g>
     <g id="text_5">
      <!-- $\mathdefault{40}$ -->
      <defs>
       <path d="M 32.328125 0 
L 32.328125 17.140625 
L 1.265625 17.140625 
L 1.265625 25.203125 
L 33.9375 71.578125 
L 41.109375 71.578125 
L 41.109375 25.203125 
L 50.78125 25.203125 
L 50.78125 17.140625 
L 41.109375 17.140625 
L 41.109375 0 
z
M 32.328125 25.203125 
L 32.328125 57.46875 
L 9.90625 25.203125 
z
" id="ArialMT-34"/>
      </defs>
      <g transform="translate(240.231374947 264.596875)scale(0.12 -0.12)">
       <use transform="translate(0.0 0.125)" xlink:href="#ArialMT-34"/>
       <use transform="translate(55.615234375 0.125)" xlink:href="#ArialMT-30"/>
      </g>
     </g>
    </g>
    <g id="xtick_6">
     <g id="line2d_16">
      <path clip-path="url(#p2f24ab48a4)" d="M 290.563844 246.0075 
L 290.563844 28.86 
" style="fill:none;opacity:0.2;stroke:#b2b2b2;stroke-linecap:square;stroke-width:0.5;"/>
     </g>
     <g id="line2d_17">
      <g>
       <use style="stroke:#000000;" x="290.563843723" xlink:href="#m1077ad0026" y="246.0075"/>
      </g>
     </g>
     <g id="line2d_18">
      <g>
       <use style="stroke:#000000;" x="290.563843723" xlink:href="#m03505ecfe5" y="28.86"/>
      </g>
     </g>
     <g id="text_6">
      <!-- $\mathdefault{50}$ -->
      <defs>
       <path d="M 4.15625 18.75 
L 13.375 19.53125 
Q 14.40625 12.796875 18.140625 9.390625 
Q 21.875 6 27.15625 6 
Q 33.5 6 37.890625 10.78125 
Q 42.28125 15.578125 42.28125 23.484375 
Q 42.28125 31 38.0625 35.34375 
Q 33.84375 39.703125 27 39.703125 
Q 22.75 39.703125 19.328125 37.765625 
Q 15.921875 35.84375 13.96875 32.765625 
L 5.71875 33.84375 
L 12.640625 70.609375 
L 48.25 70.609375 
L 48.25 62.203125 
L 19.671875 62.203125 
L 15.828125 42.96875 
Q 22.265625 47.46875 29.34375 47.46875 
Q 38.71875 47.46875 45.15625 40.96875 
Q 51.609375 34.46875 51.609375 24.265625 
Q 51.609375 14.546875 45.953125 7.46875 
Q 39.0625 -1.21875 27.15625 -1.21875 
Q 17.390625 -1.21875 11.203125 4.25 
Q 5.03125 9.71875 4.15625 18.75 
" id="ArialMT-35"/>
      </defs>
      <g transform="translate(283.843843723 264.596875)scale(0.12 -0.12)">
       <use transform="translate(0.0 0.125)" xlink:href="#ArialMT-35"/>
       <use transform="translate(55.615234375 0.125)" xlink:href="#ArialMT-30"/>
      </g>
     </g>
    </g>
    <g id="xtick_7">
     <g id="line2d_19">
      <path clip-path="url(#p2f24ab48a4)" d="M 334.176312 246.0075 
L 334.176312 28.86 
" style="fill:none;opacity:0.2;stroke:#b2b2b2;stroke-linecap:square;stroke-width:0.5;"/>
     </g>
     <g id="line2d_20">
      <g>
       <use style="stroke:#000000;" x="334.176312498" xlink:href="#m1077ad0026" y="246.0075"/>
      </g>
     </g>
     <g id="line2d_21">
      <g>
       <use style="stroke:#000000;" x="334.176312498" xlink:href="#m03505ecfe5" y="28.86"/>
      </g>
     </g>
     <g id="text_7">
      <!-- $\mathdefault{60}$ -->
      <defs>
       <path d="M 49.75 54.046875 
L 41.015625 53.375 
Q 39.84375 58.546875 37.703125 60.890625 
Q 34.125 64.65625 28.90625 64.65625 
Q 24.703125 64.65625 21.53125 62.3125 
Q 17.390625 59.28125 14.984375 53.46875 
Q 12.59375 47.65625 12.5 36.921875 
Q 15.671875 41.75 20.265625 44.09375 
Q 24.859375 46.4375 29.890625 46.4375 
Q 38.671875 46.4375 44.84375 39.96875 
Q 51.03125 33.5 51.03125 23.25 
Q 51.03125 16.5 48.125 10.71875 
Q 45.21875 4.9375 40.140625 1.859375 
Q 35.0625 -1.21875 28.609375 -1.21875 
Q 17.625 -1.21875 10.6875 6.859375 
Q 3.765625 14.9375 3.765625 33.5 
Q 3.765625 54.25 11.421875 63.671875 
Q 18.109375 71.875 29.4375 71.875 
Q 37.890625 71.875 43.28125 67.140625 
Q 48.6875 62.40625 49.75 54.046875 
M 13.875 23.1875 
Q 13.875 18.65625 15.796875 14.5 
Q 17.71875 10.359375 21.1875 8.171875 
Q 24.65625 6 28.46875 6 
Q 34.03125 6 38.03125 10.484375 
Q 42.046875 14.984375 42.046875 22.703125 
Q 42.046875 30.125 38.078125 34.390625 
Q 34.125 38.671875 28.125 38.671875 
Q 22.171875 38.671875 18.015625 34.390625 
Q 13.875 30.125 13.875 23.1875 
" id="ArialMT-36"/>
      </defs>
      <g transform="translate(327.456312498 264.596875)scale(0.12 -0.12)">
       <use transform="translate(0.0 0.125)" xlink:href="#ArialMT-36"/>
       <use transform="translate(55.615234375 0.125)" xlink:href="#ArialMT-30"/>
      </g>
     </g>
    </g>
    <g id="xtick_8">
     <g id="line2d_22">
      <path clip-path="url(#p2f24ab48a4)" d="M 377.788781 246.0075 
L 377.788781 28.86 
" style="fill:none;opacity:0.2;stroke:#b2b2b2;stroke-linecap:square;stroke-width:0.5;"/>
     </g>
     <g id="line2d_23">
      <g>
       <use style="stroke:#000000;" x="377.788781274" xlink:href="#m1077ad0026" y="246.0075"/>
      </g>
     </g>
     <g id="line2d_24">
      <g>
       <use style="stroke:#000000;" x="377.788781274" xlink:href="#m03505ecfe5" y="28.86"/>
      </g>
     </g>
     <g id="text_8">
      <!-- $\mathdefault{70}$ -->
      <defs>
       <path d="M 4.734375 62.203125 
L 4.734375 70.65625 
L 51.078125 70.65625 
L 51.078125 63.8125 
Q 44.234375 56.546875 37.515625 44.484375 
Q 30.8125 32.421875 27.15625 19.671875 
Q 24.515625 10.6875 23.78125 0 
L 14.75 0 
Q 14.890625 8.453125 18.0625 20.40625 
Q 21.234375 32.375 27.171875 43.484375 
Q 33.109375 54.59375 39.796875 62.203125 
z
" id="ArialMT-37"/>
      </defs>
      <g transform="translate(371.068781274 264.596875)scale(0.12 -0.12)">
       <use transform="translate(0.0 0.125)" xlink:href="#ArialMT-37"/>
       <use transform="translate(55.615234375 0.125)" xlink:href="#ArialMT-30"/>
      </g>
     </g>
    </g>
    <g id="xtick_9">
     <g id="line2d_25">
      <path clip-path="url(#p2f24ab48a4)" d="M 421.40125 246.0075 
L 421.40125 28.86 
" style="fill:none;opacity:0.2;stroke:#b2b2b2;stroke-linecap:square;stroke-width:0.5;"/>
     </g>
     <g id="line2d_26">
      <g>
       <use style="stroke:#000000;" x="421.40125005" xlink:href="#m1077ad0026" y="246.0075"/>
      </g>
     </g>
     <g id="line2d_27">
      <g>
       <use style="stroke:#000000;" x="421.40125005" xlink:href="#m03505ecfe5" y="28.86"/>
      </g>
     </g>
     <g id="text_9">
      <!-- $\mathdefault{80}$ -->
      <defs>
       <path d="M 17.671875 38.8125 
Q 12.203125 40.828125 9.5625 44.53125 
Q 6.9375 48.25 6.9375 53.421875 
Q 6.9375 61.234375 12.546875 66.546875 
Q 18.171875 71.875 27.484375 71.875 
Q 36.859375 71.875 42.578125 66.421875 
Q 48.296875 60.984375 48.296875 53.171875 
Q 48.296875 48.1875 45.671875 44.5 
Q 43.0625 40.828125 37.75 38.8125 
Q 44.34375 36.671875 47.78125 31.875 
Q 51.21875 27.09375 51.21875 20.453125 
Q 51.21875 11.28125 44.71875 5.03125 
Q 38.234375 -1.21875 27.640625 -1.21875 
Q 17.046875 -1.21875 10.546875 5.046875 
Q 4.046875 11.328125 4.046875 20.703125 
Q 4.046875 27.6875 7.59375 32.390625 
Q 11.140625 37.109375 17.671875 38.8125 
M 15.921875 53.71875 
Q 15.921875 48.640625 19.1875 45.40625 
Q 22.46875 42.1875 27.6875 42.1875 
Q 32.765625 42.1875 36.015625 45.375 
Q 39.265625 48.578125 39.265625 53.21875 
Q 39.265625 58.0625 35.90625 61.359375 
Q 32.5625 64.65625 27.59375 64.65625 
Q 22.5625 64.65625 19.234375 61.421875 
Q 15.921875 58.203125 15.921875 53.71875 
M 13.09375 20.65625 
Q 13.09375 16.890625 14.875 13.375 
Q 16.65625 9.859375 20.171875 7.921875 
Q 23.6875 6 27.734375 6 
Q 34.03125 6 38.125 10.046875 
Q 42.234375 14.109375 42.234375 20.359375 
Q 42.234375 26.703125 38.015625 30.859375 
Q 33.796875 35.015625 27.4375 35.015625 
Q 21.234375 35.015625 17.15625 30.90625 
Q 13.09375 26.8125 13.09375 20.65625 
" id="ArialMT-38"/>
      </defs>
      <g transform="translate(414.68125005 264.596875)scale(0.12 -0.12)">
       <use transform="translate(0.0 0.125)" xlink:href="#ArialMT-38"/>
       <use transform="translate(55.615234375 0.125)" xlink:href="#ArialMT-30"/>
      </g>
     </g>
    </g>
    <g id="text_10">
     <!-- time (Hours) -->
     <defs>
      <path d="M 6.640625 61.46875 
L 6.640625 71.578125 
L 15.4375 71.578125 
L 15.4375 61.46875 
z
M 6.640625 0 
L 6.640625 51.859375 
L 15.4375 51.859375 
L 15.4375 0 
z
" id="ArialMT-69"/>
      <path d="M 3.078125 15.484375 
L 11.765625 16.84375 
Q 12.5 11.625 15.84375 8.84375 
Q 19.1875 6.0625 25.203125 6.0625 
Q 31.25 6.0625 34.171875 8.515625 
Q 37.109375 10.984375 37.109375 14.3125 
Q 37.109375 17.28125 34.515625 19 
Q 32.71875 20.171875 25.53125 21.96875 
Q 15.875 24.421875 12.140625 26.203125 
Q 8.40625 27.984375 6.46875 31.125 
Q 4.546875 34.28125 4.546875 38.09375 
Q 4.546875 41.546875 6.125 44.5 
Q 7.71875 47.46875 10.453125 49.421875 
Q 12.5 50.921875 16.03125 51.96875 
Q 19.578125 53.03125 23.640625 53.03125 
Q 29.734375 53.03125 34.34375 51.265625 
Q 38.96875 49.515625 41.15625 46.5 
Q 43.359375 43.5 44.1875 38.484375 
L 35.59375 37.3125 
Q 35.015625 41.3125 32.203125 43.546875 
Q 29.390625 45.796875 24.265625 45.796875 
Q 18.21875 45.796875 15.625 43.796875 
Q 13.03125 41.796875 13.03125 39.109375 
Q 13.03125 37.40625 14.109375 36.03125 
Q 15.1875 34.625 17.484375 33.6875 
Q 18.796875 33.203125 25.25 31.453125 
Q 34.578125 28.953125 38.25 27.359375 
Q 41.9375 25.78125 44.03125 22.75 
Q 46.140625 19.734375 46.140625 15.234375 
Q 46.140625 10.84375 43.578125 6.953125 
Q 41.015625 3.078125 36.171875 0.953125 
Q 31.34375 -1.171875 25.25 -1.171875 
Q 15.140625 -1.171875 9.84375 3.03125 
Q 4.546875 7.234375 3.078125 15.484375 
" id="ArialMT-73"/>
      <path d="M 12.359375 -21.046875 
L 6.0625 -21.046875 
Q 20.65625 2.390625 20.65625 25.875 
Q 20.65625 35.0625 18.5625 44.09375 
Q 16.890625 51.421875 13.921875 58.15625 
Q 12.015625 62.546875 6.0625 72.796875 
L 12.359375 72.796875 
Q 21.53125 60.546875 25.921875 48.1875 
Q 29.6875 37.546875 29.6875 25.921875 
Q 29.6875 12.75 24.625 0.4375 
Q 19.578125 -11.859375 12.359375 -21.046875 
" id="ArialMT-29"/>
      <path d="M 8.015625 0 
L 8.015625 71.578125 
L 17.484375 71.578125 
L 17.484375 42.1875 
L 54.6875 42.1875 
L 54.6875 71.578125 
L 64.15625 71.578125 
L 64.15625 0 
L 54.6875 0 
L 54.6875 33.734375 
L 17.484375 33.734375 
L 17.484375 0 
z
" id="ArialMT-48"/>
      <path id="ArialMT-20"/>
      <path d="M 40.578125 0 
L 40.578125 7.625 
Q 34.515625 -1.171875 24.125 -1.171875 
Q 19.53125 -1.171875 15.546875 0.578125 
Q 11.578125 2.34375 9.640625 5 
Q 7.71875 7.671875 6.9375 11.53125 
Q 6.390625 14.109375 6.390625 19.734375 
L 6.390625 51.859375 
L 15.1875 51.859375 
L 15.1875 23.09375 
Q 15.1875 16.21875 15.71875 13.8125 
Q 16.546875 10.359375 19.234375 8.375 
Q 21.921875 6.390625 25.875 6.390625 
Q 29.828125 6.390625 33.296875 8.421875 
Q 36.765625 10.453125 38.203125 13.9375 
Q 39.65625 17.4375 39.65625 24.078125 
L 39.65625 51.859375 
L 48.4375 51.859375 
L 48.4375 0 
z
" id="ArialMT-75"/>
      <path d="M 6.5 0 
L 6.5 51.859375 
L 14.40625 51.859375 
L 14.40625 44 
Q 17.4375 49.515625 20 51.265625 
Q 22.5625 53.03125 25.640625 53.03125 
Q 30.078125 53.03125 34.671875 50.203125 
L 31.640625 42.046875 
Q 28.421875 43.953125 25.203125 43.953125 
Q 22.3125 43.953125 20.015625 42.21875 
Q 17.71875 40.484375 16.75 37.40625 
Q 15.28125 32.71875 15.28125 27.15625 
L 15.28125 0 
z
" id="ArialMT-72"/>
      <path d="M 3.328125 25.921875 
Q 3.328125 40.328125 11.328125 47.265625 
Q 18.015625 53.03125 27.640625 53.03125 
Q 38.328125 53.03125 45.109375 46.015625 
Q 51.90625 39.015625 51.90625 26.65625 
Q 51.90625 16.65625 48.90625 10.90625 
Q 45.90625 5.171875 40.15625 2 
Q 34.421875 -1.171875 27.640625 -1.171875 
Q 16.75 -1.171875 10.03125 5.8125 
Q 3.328125 12.796875 3.328125 25.921875 
M 12.359375 25.921875 
Q 12.359375 15.96875 16.703125 11.015625 
Q 21.046875 6.0625 27.640625 6.0625 
Q 34.1875 6.0625 38.53125 11.03125 
Q 42.875 16.015625 42.875 26.21875 
Q 42.875 35.84375 38.5 40.796875 
Q 34.125 45.75 27.640625 45.75 
Q 21.046875 45.75 16.703125 40.8125 
Q 12.359375 35.890625 12.359375 25.921875 
" id="ArialMT-6f"/>
      <path d="M 25.78125 7.859375 
L 27.046875 0.09375 
Q 23.34375 -0.6875 20.40625 -0.6875 
Q 15.625 -0.6875 12.984375 0.828125 
Q 10.359375 2.34375 9.28125 4.8125 
Q 8.203125 7.28125 8.203125 15.1875 
L 8.203125 45.015625 
L 1.765625 45.015625 
L 1.765625 51.859375 
L 8.203125 51.859375 
L 8.203125 64.703125 
L 16.9375 69.96875 
L 16.9375 51.859375 
L 25.78125 51.859375 
L 25.78125 45.015625 
L 16.9375 45.015625 
L 16.9375 14.703125 
Q 16.9375 10.9375 17.40625 9.859375 
Q 17.875 8.796875 18.921875 8.15625 
Q 19.96875 7.515625 21.921875 7.515625 
Q 23.390625 7.515625 25.78125 7.859375 
" id="ArialMT-74"/>
      <path d="M 23.390625 -21.046875 
Q 16.109375 -11.859375 11.078125 0.4375 
Q 6.0625 12.75 6.0625 25.921875 
Q 6.0625 37.546875 9.8125 48.1875 
Q 14.203125 60.546875 23.390625 72.796875 
L 29.6875 72.796875 
Q 23.78125 62.640625 21.875 58.296875 
Q 18.890625 51.5625 17.1875 44.234375 
Q 15.09375 35.109375 15.09375 25.875 
Q 15.09375 2.390625 29.6875 -21.046875 
z
" id="ArialMT-28"/>
      <path d="M 6.59375 0 
L 6.59375 51.859375 
L 14.453125 51.859375 
L 14.453125 44.578125 
Q 16.890625 48.390625 20.9375 50.703125 
Q 25 53.03125 30.171875 53.03125 
Q 35.9375 53.03125 39.625 50.640625 
Q 43.3125 48.25 44.828125 43.953125 
Q 50.984375 53.03125 60.84375 53.03125 
Q 68.5625 53.03125 72.703125 48.75 
Q 76.859375 44.484375 76.859375 35.59375 
L 76.859375 0 
L 68.109375 0 
L 68.109375 32.671875 
Q 68.109375 37.9375 67.25 40.25 
Q 66.40625 42.578125 64.15625 43.984375 
Q 61.921875 45.40625 58.890625 45.40625 
Q 53.421875 45.40625 49.796875 41.765625 
Q 46.1875 38.140625 46.1875 30.125 
L 46.1875 0 
L 37.40625 0 
L 37.40625 33.6875 
Q 37.40625 39.546875 35.25 42.46875 
Q 33.109375 45.40625 28.21875 45.40625 
Q 24.515625 45.40625 21.359375 43.453125 
Q 18.21875 41.5 16.796875 37.734375 
Q 15.375 33.984375 15.375 26.90625 
L 15.375 0 
z
" id="ArialMT-6d"/>
      <path d="M 42.09375 16.703125 
L 51.171875 15.578125 
Q 49.03125 7.625 43.21875 3.21875 
Q 37.40625 -1.171875 28.375 -1.171875 
Q 17 -1.171875 10.328125 5.828125 
Q 3.65625 12.84375 3.65625 25.484375 
Q 3.65625 38.578125 10.390625 45.796875 
Q 17.140625 53.03125 27.875 53.03125 
Q 38.28125 53.03125 44.875 45.953125 
Q 51.46875 38.875 51.46875 26.03125 
Q 51.46875 25.25 51.421875 23.6875 
L 12.75 23.6875 
Q 13.234375 15.140625 17.578125 10.59375 
Q 21.921875 6.0625 28.421875 6.0625 
Q 33.25 6.0625 36.671875 8.59375 
Q 40.09375 11.140625 42.09375 16.703125 
M 13.234375 30.90625 
L 42.1875 30.90625 
Q 41.609375 37.453125 38.875 40.71875 
Q 34.671875 45.796875 27.984375 45.796875 
Q 21.921875 45.796875 17.796875 41.75 
Q 13.671875 37.703125 13.234375 30.90625 
" id="ArialMT-65"/>
     </defs>
     <g transform="translate(208.450281197 282.1734375)scale(0.14 -0.14)">
      <use xlink:href="#ArialMT-74"/>
      <use x="27.783203125" xlink:href="#ArialMT-69"/>
      <use x="50.0" xlink:href="#ArialMT-6d"/>
      <use x="133.30078125" xlink:href="#ArialMT-65"/>
      <use x="188.916015625" xlink:href="#ArialMT-20"/>
      <use x="216.69921875" xlink:href="#ArialMT-28"/>
      <use x="250.0" xlink:href="#ArialMT-48"/>
      <use x="322.216796875" xlink:href="#ArialMT-6f"/>
      <use x="377.83203125" xlink:href="#ArialMT-75"/>
      <use x="433.447265625" xlink:href="#ArialMT-72"/>
      <use x="466.748046875" xlink:href="#ArialMT-73"/>
      <use x="516.748046875" xlink:href="#ArialMT-29"/>
     </g>
    </g>
   </g>
   <g id="matplotlib.axis_2">
    <g id="ytick_1">
     <g id="line2d_28">
      <path clip-path="url(#p2f24ab48a4)" d="M 72.283438 246.0075 
L 421.619312 246.0075 
" style="fill:none;opacity:0.2;stroke:#b2b2b2;stroke-linecap:square;stroke-width:0.5;"/>
     </g>
     <g id="line2d_29">
      <defs>
       <path d="M 0 0 
L -4 0 
" id="m4a249e5b56" style="stroke:#000000;"/>
      </defs>
      <g>
       <use style="stroke:#000000;" x="72.2834375" xlink:href="#m4a249e5b56" y="246.0075"/>
      </g>
     </g>
     <g id="line2d_30">
      <defs>
       <path d="M 0 0 
L 4 0 
" id="m31cd1485da" style="stroke:#000000;"/>
      </defs>
      <g>
       <use style="stroke:#000000;" x="421.619312394" xlink:href="#m31cd1485da" y="246.0075"/>
      </g>
     </g>
     <g id="text_11">
      <!-- $\mathdefault{10^{-1}}$ -->
      <defs>
       <path d="M 3.171875 21.484375 
L 3.171875 30.328125 
L 30.171875 30.328125 
L 30.171875 21.484375 
z
" id="ArialMT-2d"/>
      </defs>
      <g transform="translate(39.8434375 249.5025)scale(0.12 -0.12)">
       <use transform="translate(0.0 0.8843750000000057)" xlink:href="#ArialMT-31"/>
       <use transform="translate(55.615234375 0.8843750000000057)" xlink:href="#ArialMT-30"/>
       <use transform="translate(116.4575 45.68750000000001)scale(0.7)" xlink:href="#ArialMT-2d"/>
       <use transform="translate(139.76804687499998 45.68750000000001)scale(0.7)" xlink:href="#ArialMT-31"/>
      </g>
     </g>
    </g>
    <g id="ytick_2">
     <g id="line2d_31">
      <path clip-path="url(#p2f24ab48a4)" d="M 72.283438 209.81625 
L 421.619312 209.81625 
" style="fill:none;opacity:0.2;stroke:#b2b2b2;stroke-linecap:square;stroke-width:0.5;"/>
     </g>
     <g id="line2d_32">
      <g>
       <use style="stroke:#000000;" x="72.2834375" xlink:href="#m4a249e5b56" y="209.81625"/>
      </g>
     </g>
     <g id="line2d_33">
      <g>
       <use style="stroke:#000000;" x="421.619312394" xlink:href="#m31cd1485da" y="209.81625"/>
      </g>
     </g>
     <g id="text_12">
      <!-- $\mathdefault{10^{0}}$ -->
      <g transform="translate(42.7234375 213.31125)scale(0.12 -0.12)">
       <use transform="translate(0.0 0.8843750000000057)" xlink:href="#ArialMT-31"/>
       <use transform="translate(55.615234375 0.8843750000000057)" xlink:href="#ArialMT-30"/>
       <use transform="translate(116.4575 45.68750000000001)scale(0.7)" xlink:href="#ArialMT-30"/>
      </g>
     </g>
    </g>
    <g id="ytick_3">
     <g id="line2d_34">
      <path clip-path="url(#p2f24ab48a4)" d="M 72.283438 173.625 
L 421.619312 173.625 
" style="fill:none;opacity:0.2;stroke:#b2b2b2;stroke-linecap:square;stroke-width:0.5;"/>
     </g>
     <g id="line2d_35">
      <g>
       <use style="stroke:#000000;" x="72.2834375" xlink:href="#m4a249e5b56" y="173.625"/>
      </g>
     </g>
     <g id="line2d_36">
      <g>
       <use style="stroke:#000000;" x="421.619312394" xlink:href="#m31cd1485da" y="173.625"/>
      </g>
     </g>
     <g id="text_13">
      <!-- $\mathdefault{10^{1}}$ -->
      <g transform="translate(42.7234375 177.12)scale(0.12 -0.12)">
       <use transform="translate(0.0 0.8843750000000057)" xlink:href="#ArialMT-31"/>
       <use transform="translate(55.615234375 0.8843750000000057)" xlink:href="#ArialMT-30"/>
       <use transform="translate(116.4575 45.68750000000001)scale(0.7)" xlink:href="#ArialMT-31"/>
      </g>
     </g>
    </g>
    <g id="ytick_4">
     <g id="line2d_37">
      <path clip-path="url(#p2f24ab48a4)" d="M 72.283438 137.43375 
L 421.619312 137.43375 
" style="fill:none;opacity:0.2;stroke:#b2b2b2;stroke-linecap:square;stroke-width:0.5;"/>
     </g>
     <g id="line2d_38">
      <g>
       <use style="stroke:#000000;" x="72.2834375" xlink:href="#m4a249e5b56" y="137.43375"/>
      </g>
     </g>
     <g id="line2d_39">
      <g>
       <use style="stroke:#000000;" x="421.619312394" xlink:href="#m31cd1485da" y="137.43375"/>
      </g>
     </g>
     <g id="text_14">
      <!-- $\mathdefault{10^{2}}$ -->
      <g transform="translate(42.7234375 140.92875)scale(0.12 -0.12)">
       <use transform="translate(0.0 0.8843750000000057)" xlink:href="#ArialMT-31"/>
       <use transform="translate(55.615234375 0.8843750000000057)" xlink:href="#ArialMT-30"/>
       <use transform="translate(116.4575 45.68750000000001)scale(0.7)" xlink:href="#ArialMT-32"/>
      </g>
     </g>
    </g>
    <g id="ytick_5">
     <g id="line2d_40">
      <path clip-path="url(#p2f24ab48a4)" d="M 72.283438 101.2425 
L 421.619312 101.2425 
" style="fill:none;opacity:0.2;stroke:#b2b2b2;stroke-linecap:square;stroke-width:0.5;"/>
     </g>
     <g id="line2d_41">
      <g>
       <use style="stroke:#000000;" x="72.2834375" xlink:href="#m4a249e5b56" y="101.2425"/>
      </g>
     </g>
     <g id="line2d_42">
      <g>
       <use style="stroke:#000000;" x="421.619312394" xlink:href="#m31cd1485da" y="101.2425"/>
      </g>
     </g>
     <g id="text_15">
      <!-- $\mathdefault{10^{3}}$ -->
      <g transform="translate(42.7234375 104.7375)scale(0.12 -0.12)">
       <use transform="translate(0.0 0.8843750000000057)" xlink:href="#ArialMT-31"/>
       <use transform="translate(55.615234375 0.8843750000000057)" xlink:href="#ArialMT-30"/>
       <use transform="translate(116.4575 45.68750000000001)scale(0.7)" xlink:href="#ArialMT-33"/>
      </g>
     </g>
    </g>
    <g id="ytick_6">
     <g id="line2d_43">
      <path clip-path="url(#p2f24ab48a4)" d="M 72.283438 65.05125 
L 421.619312 65.05125 
" style="fill:none;opacity:0.2;stroke:#b2b2b2;stroke-linecap:square;stroke-width:0.5;"/>
     </g>
     <g id="line2d_44">
      <g>
       <use style="stroke:#000000;" x="72.2834375" xlink:href="#m4a249e5b56" y="65.05125"/>
      </g>
     </g>
     <g id="line2d_45">
      <g>
       <use style="stroke:#000000;" x="421.619312394" xlink:href="#m31cd1485da" y="65.05125"/>
      </g>
     </g>
     <g id="text_16">
      <!-- $\mathdefault{10^{4}}$ -->
      <g transform="translate(42.7234375 68.48625)scale(0.12 -0.12)">
       <use transform="translate(0.0 0.09218749999999432)" xlink:href="#ArialMT-31"/>
       <use transform="translate(55.615234375 0.09218749999999432)" xlink:href="#ArialMT-30"/>
       <use transform="translate(116.4575 44.895312499999996)scale(0.7)" xlink:href="#ArialMT-34"/>
      </g>
     </g>
    </g>
    <g id="ytick_7">
     <g id="line2d_46">
      <path clip-path="url(#p2f24ab48a4)" d="M 72.283438 28.86 
L 421.619312 28.86 
" style="fill:none;opacity:0.2;stroke:#b2b2b2;stroke-linecap:square;stroke-width:0.5;"/>
     </g>
     <g id="line2d_47">
      <g>
       <use style="stroke:#000000;" x="72.2834375" xlink:href="#m4a249e5b56" y="28.86"/>
      </g>
     </g>
     <g id="line2d_48">
      <g>
       <use style="stroke:#000000;" x="421.619312394" xlink:href="#m31cd1485da" y="28.86"/>
      </g>
     </g>
     <g id="text_17">
      <!-- $\mathdefault{10^{5}}$ -->
      <g transform="translate(42.7234375 32.295)scale(0.12 -0.12)">
       <use transform="translate(0.0 0.7703125000000028)" xlink:href="#ArialMT-31"/>
       <use transform="translate(55.615234375 0.7703125000000028)" xlink:href="#ArialMT-30"/>
       <use transform="translate(116.4575 45.573437500000004)scale(0.7)" xlink:href="#ArialMT-35"/>
      </g>
     </g>
    </g>
    <g id="ytick_8">
     <g id="line2d_49">
      <defs>
       <path d="M 0 0 
L -2 0 
" id="m0576593a79" style="stroke:#000000;"/>
      </defs>
      <g>
       <use style="stroke:#000000;" x="72.2834375" xlink:href="#m0576593a79" y="235.112848169"/>
      </g>
     </g>
     <g id="line2d_50">
      <defs>
       <path d="M 0 0 
L 2 0 
" id="m090a045622" style="stroke:#000000;"/>
      </defs>
      <g>
       <use style="stroke:#000000;" x="421.619312394" xlink:href="#m090a045622" y="235.112848169"/>
      </g>
     </g>
    </g>
    <g id="ytick_9">
     <g id="line2d_51">
      <g>
       <use style="stroke:#000000;" x="72.2834375" xlink:href="#m0576593a79" y="228.73988539"/>
      </g>
     </g>
     <g id="line2d_52">
      <g>
       <use style="stroke:#000000;" x="421.619312394" xlink:href="#m090a045622" y="228.73988539"/>
      </g>
     </g>
    </g>
    <g id="ytick_10">
     <g id="line2d_53">
      <g>
       <use style="stroke:#000000;" x="72.2834375" xlink:href="#m0576593a79" y="224.218196339"/>
      </g>
     </g>
     <g id="line2d_54">
      <g>
       <use style="stroke:#000000;" x="421.619312394" xlink:href="#m090a045622" y="224.218196339"/>
      </g>
     </g>
    </g>
    <g id="ytick_11">
     <g id="line2d_55">
      <g>
       <use style="stroke:#000000;" x="72.2834375" xlink:href="#m0576593a79" y="220.710901831"/>
      </g>
     </g>
     <g id="line2d_56">
      <g>
       <use style="stroke:#000000;" x="421.619312394" xlink:href="#m090a045622" y="220.710901831"/>
      </g>
     </g>
    </g>
    <g id="ytick_12">
     <g id="line2d_57">
      <g>
       <use style="stroke:#000000;" x="72.2834375" xlink:href="#m0576593a79" y="217.84523356"/>
      </g>
     </g>
     <g id="line2d_58">
      <g>
       <use style="stroke:#000000;" x="421.619312394" xlink:href="#m090a045622" y="217.84523356"/>
      </g>
     </g>
    </g>
    <g id="ytick_13">
     <g id="line2d_59">
      <g>
       <use style="stroke:#000000;" x="72.2834375" xlink:href="#m0576593a79" y="215.422345559"/>
      </g>
     </g>
     <g id="line2d_60">
      <g>
       <use style="stroke:#000000;" x="421.619312394" xlink:href="#m090a045622" y="215.422345559"/>
      </g>
     </g>
    </g>
    <g id="ytick_14">
     <g id="line2d_61">
      <g>
       <use style="stroke:#000000;" x="72.2834375" xlink:href="#m0576593a79" y="213.323544508"/>
      </g>
     </g>
     <g id="line2d_62">
      <g>
       <use style="stroke:#000000;" x="421.619312394" xlink:href="#m090a045622" y="213.323544508"/>
      </g>
     </g>
    </g>
    <g id="ytick_15">
     <g id="line2d_63">
      <g>
       <use style="stroke:#000000;" x="72.2834375" xlink:href="#m0576593a79" y="211.47227078"/>
      </g>
     </g>
     <g id="line2d_64">
      <g>
       <use style="stroke:#000000;" x="421.619312394" xlink:href="#m090a045622" y="211.47227078"/>
      </g>
     </g>
    </g>
    <g id="ytick_16">
     <g id="line2d_65">
      <g>
       <use style="stroke:#000000;" x="72.2834375" xlink:href="#m0576593a79" y="198.921598169"/>
      </g>
     </g>
     <g id="line2d_66">
      <g>
       <use style="stroke:#000000;" x="421.619312394" xlink:href="#m090a045622" y="198.921598169"/>
      </g>
     </g>
    </g>
    <g id="ytick_17">
     <g id="line2d_67">
      <g>
       <use style="stroke:#000000;" x="72.2834375" xlink:href="#m0576593a79" y="192.54863539"/>
      </g>
     </g>
     <g id="line2d_68">
      <g>
       <use style="stroke:#000000;" x="421.619312394" xlink:href="#m090a045622" y="192.54863539"/>
      </g>
     </g>
    </g>
    <g id="ytick_18">
     <g id="line2d_69">
      <g>
       <use style="stroke:#000000;" x="72.2834375" xlink:href="#m0576593a79" y="188.026946339"/>
      </g>
     </g>
     <g id="line2d_70">
      <g>
       <use style="stroke:#000000;" x="421.619312394" xlink:href="#m090a045622" y="188.026946339"/>
      </g>
     </g>
    </g>
    <g id="ytick_19">
     <g id="line2d_71">
      <g>
       <use style="stroke:#000000;" x="72.2834375" xlink:href="#m0576593a79" y="184.519651831"/>
      </g>
     </g>
     <g id="line2d_72">
      <g>
       <use style="stroke:#000000;" x="421.619312394" xlink:href="#m090a045622" y="184.519651831"/>
      </g>
     </g>
    </g>
    <g id="ytick_20">
     <g id="line2d_73">
      <g>
       <use style="stroke:#000000;" x="72.2834375" xlink:href="#m0576593a79" y="181.65398356"/>
      </g>
     </g>
     <g id="line2d_74">
      <g>
       <use style="stroke:#000000;" x="421.619312394" xlink:href="#m090a045622" y="181.65398356"/>
      </g>
     </g>
    </g>
    <g id="ytick_21">
     <g id="line2d_75">
      <g>
       <use style="stroke:#000000;" x="72.2834375" xlink:href="#m0576593a79" y="179.231095559"/>
      </g>
     </g>
     <g id="line2d_76">
      <g>
       <use style="stroke:#000000;" x="421.619312394" xlink:href="#m090a045622" y="179.231095559"/>
      </g>
     </g>
    </g>
    <g id="ytick_22">
     <g id="line2d_77">
      <g>
       <use style="stroke:#000000;" x="72.2834375" xlink:href="#m0576593a79" y="177.132294508"/>
      </g>
     </g>
     <g id="line2d_78">
      <g>
       <use style="stroke:#000000;" x="421.619312394" xlink:href="#m090a045622" y="177.132294508"/>
      </g>
     </g>
    </g>
    <g id="ytick_23">
     <g id="line2d_79">
      <g>
       <use style="stroke:#000000;" x="72.2834375" xlink:href="#m0576593a79" y="175.28102078"/>
      </g>
     </g>
     <g id="line2d_80">
      <g>
       <use style="stroke:#000000;" x="421.619312394" xlink:href="#m090a045622" y="175.28102078"/>
      </g>
     </g>
    </g>
    <g id="ytick_24">
     <g id="line2d_81">
      <g>
       <use style="stroke:#000000;" x="72.2834375" xlink:href="#m0576593a79" y="162.730348169"/>
      </g>
     </g>
     <g id="line2d_82">
      <g>
       <use style="stroke:#000000;" x="421.619312394" xlink:href="#m090a045622" y="162.730348169"/>
      </g>
     </g>
    </g>
    <g id="ytick_25">
     <g id="line2d_83">
      <g>
       <use style="stroke:#000000;" x="72.2834375" xlink:href="#m0576593a79" y="156.35738539"/>
      </g>
     </g>
     <g id="line2d_84">
      <g>
       <use style="stroke:#000000;" x="421.619312394" xlink:href="#m090a045622" y="156.35738539"/>
      </g>
     </g>
    </g>
    <g id="ytick_26">
     <g id="line2d_85">
      <g>
       <use style="stroke:#000000;" x="72.2834375" xlink:href="#m0576593a79" y="151.835696339"/>
      </g>
     </g>
     <g id="line2d_86">
      <g>
       <use style="stroke:#000000;" x="421.619312394" xlink:href="#m090a045622" y="151.835696339"/>
      </g>
     </g>
    </g>
    <g id="ytick_27">
     <g id="line2d_87">
      <g>
       <use style="stroke:#000000;" x="72.2834375" xlink:href="#m0576593a79" y="148.328401831"/>
      </g>
     </g>
     <g id="line2d_88">
      <g>
       <use style="stroke:#000000;" x="421.619312394" xlink:href="#m090a045622" y="148.328401831"/>
      </g>
     </g>
    </g>
    <g id="ytick_28">
     <g id="line2d_89">
      <g>
       <use style="stroke:#000000;" x="72.2834375" xlink:href="#m0576593a79" y="145.46273356"/>
      </g>
     </g>
     <g id="line2d_90">
      <g>
       <use style="stroke:#000000;" x="421.619312394" xlink:href="#m090a045622" y="145.46273356"/>
      </g>
     </g>
    </g>
    <g id="ytick_29">
     <g id="line2d_91">
      <g>
       <use style="stroke:#000000;" x="72.2834375" xlink:href="#m0576593a79" y="143.039845559"/>
      </g>
     </g>
     <g id="line2d_92">
      <g>
       <use style="stroke:#000000;" x="421.619312394" xlink:href="#m090a045622" y="143.039845559"/>
      </g>
     </g>
    </g>
    <g id="ytick_30">
     <g id="line2d_93">
      <g>
       <use style="stroke:#000000;" x="72.2834375" xlink:href="#m0576593a79" y="140.941044508"/>
      </g>
     </g>
     <g id="line2d_94">
      <g>
       <use style="stroke:#000000;" x="421.619312394" xlink:href="#m090a045622" y="140.941044508"/>
      </g>
     </g>
    </g>
    <g id="ytick_31">
     <g id="line2d_95">
      <g>
       <use style="stroke:#000000;" x="72.2834375" xlink:href="#m0576593a79" y="139.08977078"/>
      </g>
     </g>
     <g id="line2d_96">
      <g>
       <use style="stroke:#000000;" x="421.619312394" xlink:href="#m090a045622" y="139.08977078"/>
      </g>
     </g>
    </g>
    <g id="ytick_32">
     <g id="line2d_97">
      <g>
       <use style="stroke:#000000;" x="72.2834375" xlink:href="#m0576593a79" y="126.539098169"/>
      </g>
     </g>
     <g id="line2d_98">
      <g>
       <use style="stroke:#000000;" x="421.619312394" xlink:href="#m090a045622" y="126.539098169"/>
      </g>
     </g>
    </g>
    <g id="ytick_33">
     <g id="line2d_99">
      <g>
       <use style="stroke:#000000;" x="72.2834375" xlink:href="#m0576593a79" y="120.16613539"/>
      </g>
     </g>
     <g id="line2d_100">
      <g>
       <use style="stroke:#000000;" x="421.619312394" xlink:href="#m090a045622" y="120.16613539"/>
      </g>
     </g>
    </g>
    <g id="ytick_34">
     <g id="line2d_101">
      <g>
       <use style="stroke:#000000;" x="72.2834375" xlink:href="#m0576593a79" y="115.644446339"/>
      </g>
     </g>
     <g id="line2d_102">
      <g>
       <use style="stroke:#000000;" x="421.619312394" xlink:href="#m090a045622" y="115.644446339"/>
      </g>
     </g>
    </g>
    <g id="ytick_35">
     <g id="line2d_103">
      <g>
       <use style="stroke:#000000;" x="72.2834375" xlink:href="#m0576593a79" y="112.137151831"/>
      </g>
     </g>
     <g id="line2d_104">
      <g>
       <use style="stroke:#000000;" x="421.619312394" xlink:href="#m090a045622" y="112.137151831"/>
      </g>
     </g>
    </g>
    <g id="ytick_36">
     <g id="line2d_105">
      <g>
       <use style="stroke:#000000;" x="72.2834375" xlink:href="#m0576593a79" y="109.27148356"/>
      </g>
     </g>
     <g id="line2d_106">
      <g>
       <use style="stroke:#000000;" x="421.619312394" xlink:href="#m090a045622" y="109.27148356"/>
      </g>
     </g>
    </g>
    <g id="ytick_37">
     <g id="line2d_107">
      <g>
       <use style="stroke:#000000;" x="72.2834375" xlink:href="#m0576593a79" y="106.848595559"/>
      </g>
     </g>
     <g id="line2d_108">
      <g>
       <use style="stroke:#000000;" x="421.619312394" xlink:href="#m090a045622" y="106.848595559"/>
      </g>
     </g>
    </g>
    <g id="ytick_38">
     <g id="line2d_109">
      <g>
       <use style="stroke:#000000;" x="72.2834375" xlink:href="#m0576593a79" y="104.749794508"/>
      </g>
     </g>
     <g id="line2d_110">
      <g>
       <use style="stroke:#000000;" x="421.619312394" xlink:href="#m090a045622" y="104.749794508"/>
      </g>
     </g>
    </g>
    <g id="ytick_39">
     <g id="line2d_111">
      <g>
       <use style="stroke:#000000;" x="72.2834375" xlink:href="#m0576593a79" y="102.89852078"/>
      </g>
     </g>
     <g id="line2d_112">
      <g>
       <use style="stroke:#000000;" x="421.619312394" xlink:href="#m090a045622" y="102.89852078"/>
      </g>
     </g>
    </g>
    <g id="ytick_40">
     <g id="line2d_113">
      <g>
       <use style="stroke:#000000;" x="72.2834375" xlink:href="#m0576593a79" y="90.3478481694"/>
      </g>
     </g>
     <g id="line2d_114">
      <g>
       <use style="stroke:#000000;" x="421.619312394" xlink:href="#m090a045622" y="90.3478481694"/>
      </g>
     </g>
    </g>
    <g id="ytick_41">
     <g id="line2d_115">
      <g>
       <use style="stroke:#000000;" x="72.2834375" xlink:href="#m0576593a79" y="83.9748853901"/>
      </g>
     </g>
     <g id="line2d_116">
      <g>
       <use style="stroke:#000000;" x="421.619312394" xlink:href="#m090a045622" y="83.9748853901"/>
      </g>
     </g>
    </g>
    <g id="ytick_42">
     <g id="line2d_117">
      <g>
       <use style="stroke:#000000;" x="72.2834375" xlink:href="#m0576593a79" y="79.4531963389"/>
      </g>
     </g>
     <g id="line2d_118">
      <g>
       <use style="stroke:#000000;" x="421.619312394" xlink:href="#m090a045622" y="79.4531963389"/>
      </g>
     </g>
    </g>
    <g id="ytick_43">
     <g id="line2d_119">
      <g>
       <use style="stroke:#000000;" x="72.2834375" xlink:href="#m0576593a79" y="75.9459018306"/>
      </g>
     </g>
     <g id="line2d_120">
      <g>
       <use style="stroke:#000000;" x="421.619312394" xlink:href="#m090a045622" y="75.9459018306"/>
      </g>
     </g>
    </g>
    <g id="ytick_44">
     <g id="line2d_121">
      <g>
       <use style="stroke:#000000;" x="72.2834375" xlink:href="#m0576593a79" y="73.0802335596"/>
      </g>
     </g>
     <g id="line2d_122">
      <g>
       <use style="stroke:#000000;" x="421.619312394" xlink:href="#m090a045622" y="73.0802335596"/>
      </g>
     </g>
    </g>
    <g id="ytick_45">
     <g id="line2d_123">
      <g>
       <use style="stroke:#000000;" x="72.2834375" xlink:href="#m0576593a79" y="70.6573455593"/>
      </g>
     </g>
     <g id="line2d_124">
      <g>
       <use style="stroke:#000000;" x="421.619312394" xlink:href="#m090a045622" y="70.6573455593"/>
      </g>
     </g>
    </g>
    <g id="ytick_46">
     <g id="line2d_125">
      <g>
       <use style="stroke:#000000;" x="72.2834375" xlink:href="#m0576593a79" y="68.5585445083"/>
      </g>
     </g>
     <g id="line2d_126">
      <g>
       <use style="stroke:#000000;" x="421.619312394" xlink:href="#m090a045622" y="68.5585445083"/>
      </g>
     </g>
    </g>
    <g id="ytick_47">
     <g id="line2d_127">
      <g>
       <use style="stroke:#000000;" x="72.2834375" xlink:href="#m0576593a79" y="66.7072707803"/>
      </g>
     </g>
     <g id="line2d_128">
      <g>
       <use style="stroke:#000000;" x="421.619312394" xlink:href="#m090a045622" y="66.7072707803"/>
      </g>
     </g>
    </g>
    <g id="ytick_48">
     <g id="line2d_129">
      <g>
       <use style="stroke:#000000;" x="72.2834375" xlink:href="#m0576593a79" y="54.1565981694"/>
      </g>
     </g>
     <g id="line2d_130">
      <g>
       <use style="stroke:#000000;" x="421.619312394" xlink:href="#m090a045622" y="54.1565981694"/>
      </g>
     </g>
    </g>
    <g id="ytick_49">
     <g id="line2d_131">
      <g>
       <use style="stroke:#000000;" x="72.2834375" xlink:href="#m0576593a79" y="47.7836353901"/>
      </g>
     </g>
     <g id="line2d_132">
      <g>
       <use style="stroke:#000000;" x="421.619312394" xlink:href="#m090a045622" y="47.7836353901"/>
      </g>
     </g>
    </g>
    <g id="ytick_50">
     <g id="line2d_133">
      <g>
       <use style="stroke:#000000;" x="72.2834375" xlink:href="#m0576593a79" y="43.2619463389"/>
      </g>
     </g>
     <g id="line2d_134">
      <g>
       <use style="stroke:#000000;" x="421.619312394" xlink:href="#m090a045622" y="43.2619463389"/>
      </g>
     </g>
    </g>
    <g id="ytick_51">
     <g id="line2d_135">
      <g>
       <use style="stroke:#000000;" x="72.2834375" xlink:href="#m0576593a79" y="39.7546518306"/>
      </g>
     </g>
     <g id="line2d_136">
      <g>
       <use style="stroke:#000000;" x="421.619312394" xlink:href="#m090a045622" y="39.7546518306"/>
      </g>
     </g>
    </g>
    <g id="ytick_52">
     <g id="line2d_137">
      <g>
       <use style="stroke:#000000;" x="72.2834375" xlink:href="#m0576593a79" y="36.8889835596"/>
      </g>
     </g>
     <g id="line2d_138">
      <g>
       <use style="stroke:#000000;" x="421.619312394" xlink:href="#m090a045622" y="36.8889835596"/>
      </g>
     </g>
    </g>
    <g id="ytick_53">
     <g id="line2d_139">
      <g>
       <use style="stroke:#000000;" x="72.2834375" xlink:href="#m0576593a79" y="34.4660955593"/>
      </g>
     </g>
     <g id="line2d_140">
      <g>
       <use style="stroke:#000000;" x="421.619312394" xlink:href="#m090a045622" y="34.4660955593"/>
      </g>
     </g>
    </g>
    <g id="ytick_54">
     <g id="line2d_141">
      <g>
       <use style="stroke:#000000;" x="72.2834375" xlink:href="#m0576593a79" y="32.3672945083"/>
      </g>
     </g>
     <g id="line2d_142">
      <g>
       <use style="stroke:#000000;" x="421.619312394" xlink:href="#m090a045622" y="32.3672945083"/>
      </g>
     </g>
    </g>
    <g id="ytick_55">
     <g id="line2d_143">
      <g>
       <use style="stroke:#000000;" x="72.2834375" xlink:href="#m0576593a79" y="30.5160207803"/>
      </g>
     </g>
     <g id="line2d_144">
      <g>
       <use style="stroke:#000000;" x="421.619312394" xlink:href="#m090a045622" y="30.5160207803"/>
      </g>
     </g>
    </g>
    <g id="text_18">
     <!-- Number of Cells -->
     <defs>
      <path d="M 58.796875 25.09375 
L 68.265625 22.703125 
Q 65.28125 11.03125 57.546875 4.90625 
Q 49.8125 -1.21875 38.625 -1.21875 
Q 27.046875 -1.21875 19.796875 3.484375 
Q 12.546875 8.203125 8.765625 17.140625 
Q 4.984375 26.078125 4.984375 36.328125 
Q 4.984375 47.515625 9.25 55.828125 
Q 13.53125 64.15625 21.40625 68.46875 
Q 29.296875 72.796875 38.765625 72.796875 
Q 49.515625 72.796875 56.828125 67.328125 
Q 64.15625 61.859375 67.046875 51.953125 
L 57.71875 49.75 
Q 55.21875 57.5625 50.484375 61.125 
Q 45.75 64.703125 38.578125 64.703125 
Q 30.328125 64.703125 24.78125 60.734375 
Q 19.234375 56.78125 16.984375 50.109375 
Q 14.75 43.453125 14.75 36.375 
Q 14.75 27.25 17.40625 20.4375 
Q 20.0625 13.625 25.671875 10.25 
Q 31.296875 6.890625 37.84375 6.890625 
Q 45.796875 6.890625 51.3125 11.46875 
Q 56.84375 16.0625 58.796875 25.09375 
" id="ArialMT-43"/>
      <path d="M 7.625 0 
L 7.625 71.578125 
L 17.328125 71.578125 
L 54.9375 15.375 
L 54.9375 71.578125 
L 64.015625 71.578125 
L 64.015625 0 
L 54.296875 0 
L 16.703125 56.25 
L 16.703125 0 
z
" id="ArialMT-4e"/>
      <path d="M 14.703125 0 
L 6.546875 0 
L 6.546875 71.578125 
L 15.328125 71.578125 
L 15.328125 46.046875 
Q 20.90625 53.03125 29.546875 53.03125 
Q 34.328125 53.03125 38.59375 51.09375 
Q 42.875 49.171875 45.625 45.671875 
Q 48.390625 42.1875 49.953125 37.25 
Q 51.515625 32.328125 51.515625 26.703125 
Q 51.515625 13.375 44.921875 6.09375 
Q 38.328125 -1.171875 29.109375 -1.171875 
Q 19.921875 -1.171875 14.703125 6.5 
z
M 14.59375 26.3125 
Q 14.59375 17 17.140625 12.84375 
Q 21.296875 6.0625 28.375 6.0625 
Q 34.125 6.0625 38.328125 11.0625 
Q 42.53125 16.0625 42.53125 25.984375 
Q 42.53125 36.140625 38.5 40.96875 
Q 34.46875 45.796875 28.765625 45.796875 
Q 23 45.796875 18.796875 40.796875 
Q 14.59375 35.796875 14.59375 26.3125 
" id="ArialMT-62"/>
      <path d="M 8.6875 0 
L 8.6875 45.015625 
L 0.921875 45.015625 
L 0.921875 51.859375 
L 8.6875 51.859375 
L 8.6875 57.375 
Q 8.6875 62.59375 9.625 65.140625 
Q 10.890625 68.5625 14.078125 70.671875 
Q 17.28125 72.796875 23.046875 72.796875 
Q 26.765625 72.796875 31.25 71.921875 
L 29.9375 64.265625 
Q 27.203125 64.75 24.75 64.75 
Q 20.75 64.75 19.09375 63.03125 
Q 17.4375 61.328125 17.4375 56.640625 
L 17.4375 51.859375 
L 27.546875 51.859375 
L 27.546875 45.015625 
L 17.4375 45.015625 
L 17.4375 0 
z
" id="ArialMT-66"/>
      <path d="M 6.390625 0 
L 6.390625 71.578125 
L 15.1875 71.578125 
L 15.1875 0 
z
" id="ArialMT-6c"/>
     </defs>
     <g transform="translate(32.0609375 187.61390625)rotate(-90.0)scale(0.14 -0.14)">
      <use xlink:href="#ArialMT-4e"/>
      <use x="72.216796875" xlink:href="#ArialMT-75"/>
      <use x="127.83203125" xlink:href="#ArialMT-6d"/>
      <use x="211.1328125" xlink:href="#ArialMT-62"/>
      <use x="266.748046875" xlink:href="#ArialMT-65"/>
      <use x="322.36328125" xlink:href="#ArialMT-72"/>
      <use x="355.6640625" xlink:href="#ArialMT-20"/>
      <use x="383.447265625" xlink:href="#ArialMT-6f"/>
      <use x="439.0625" xlink:href="#ArialMT-66"/>
      <use x="466.845703125" xlink:href="#ArialMT-20"/>
      <use x="494.62890625" xlink:href="#ArialMT-43"/>
      <use x="566.845703125" xlink:href="#ArialMT-65"/>
      <use x="622.4609375" xlink:href="#ArialMT-6c"/>
      <use x="644.677734375" xlink:href="#ArialMT-6c"/>
      <use x="666.89453125" xlink:href="#ArialMT-73"/>
     </g>
    </g>
   </g>
   <g id="LineCollection_1">
    <path clip-path="url(#p2f24ab48a4)" d="M 72.5015 75.104254 
L 72.5015 74.91689 
" style="fill:none;stroke:#000000;stroke-width:2.0;"/>
    <path clip-path="url(#p2f24ab48a4)" d="M 177.171425 61.196618 
L 177.171425 61.040716 
" style="fill:none;stroke:#000000;stroke-width:2.0;"/>
    <path clip-path="url(#p2f24ab48a4)" d="M 281.84135 48.993133 
L 281.84135 48.894284 
" style="fill:none;stroke:#000000;stroke-width:2.0;"/>
    <path clip-path="url(#p2f24ab48a4)" d="M 386.511275 38.184186 
L 386.511275 37.965526 
" style="fill:none;stroke:#000000;stroke-width:2.0;"/>
   </g>
   <g id="LineCollection_2">
    <path clip-path="url(#p2f24ab48a4)" d="M 72.5015 201.220751 
L 72.5015 196.916242 
" style="fill:none;stroke:#000000;stroke-width:2.0;"/>
    <path clip-path="url(#p2f24ab48a4)" d="M 177.171425 226.209721 
L 177.171425 210.118779 
" style="fill:none;stroke:#000000;stroke-width:2.0;"/>
    <path clip-path="url(#p2f24ab48a4)" d="M 281.84135 178.337316 
L 281.84135 173.745314 
" style="fill:none;stroke:#000000;stroke-width:2.0;"/>
    <path clip-path="url(#p2f24ab48a4)" d="M 386.511275 158.226589 
L 386.511275 157.055287 
" style="fill:none;stroke:#000000;stroke-width:2.0;"/>
   </g>
   <g id="line2d_145">
    <path clip-path="url(#p2f24ab48a4)" d="M 72.5015 161.473915 
L 117.360039 143.148412 
L 162.218578 124.82291 
L 207.077118 106.497407 
L 251.935657 88.171905 
L 296.794196 69.846402 
L 341.652736 51.520899 
L 386.511275 33.195397 
" style="fill:none;"/>
    <defs>
     <path d="M 0 -3.5 
L -3.5 3.5 
L 3.5 3.5 
z
" id="m9b628392b9" style="stroke:#000000;stroke-linejoin:miter;stroke-width:1.5;"/>
    </defs>
    <g clip-path="url(#p2f24ab48a4)">
     <use style="fill:none;stroke:#000000;stroke-linejoin:miter;stroke-width:1.5;" x="72.5014998439" xlink:href="#m9b628392b9" y="161.473914939"/>
     <use style="fill:none;stroke:#000000;stroke-linejoin:miter;stroke-width:1.5;" x="117.360039156" xlink:href="#m9b628392b9" y="143.148412397"/>
     <use style="fill:none;stroke:#000000;stroke-linejoin:miter;stroke-width:1.5;" x="162.218578468" xlink:href="#m9b628392b9" y="124.822909924"/>
     <use style="fill:none;stroke:#000000;stroke-linejoin:miter;stroke-width:1.5;" x="207.077117781" xlink:href="#m9b628392b9" y="106.497407465"/>
     <use style="fill:none;stroke:#000000;stroke-linejoin:miter;stroke-width:1.5;" x="251.935657093" xlink:href="#m9b628392b9" y="88.1719049097"/>
     <use style="fill:none;stroke:#000000;stroke-linejoin:miter;stroke-width:1.5;" x="296.794196405" xlink:href="#m9b628392b9" y="69.8464021901"/>
     <use style="fill:none;stroke:#000000;stroke-linejoin:miter;stroke-width:1.5;" x="341.652735717" xlink:href="#m9b628392b9" y="51.520899482"/>
     <use style="fill:none;stroke:#000000;stroke-linejoin:miter;stroke-width:1.5;" x="386.511275029" xlink:href="#m9b628392b9" y="33.1953967573"/>
    </g>
   </g>
   <g id="line2d_146">
    <path clip-path="url(#p2f24ab48a4)" d="M 72.5015 161.473915 
L 75.673316 160.178172 
L 78.845132 158.88243 
L 82.016948 157.586687 
L 85.188763 156.290945 
L 88.360579 154.995202 
L 91.532395 153.699459 
L 94.704211 152.403717 
L 97.876027 151.107974 
L 101.047843 149.812232 
L 104.219659 148.516489 
L 107.391475 147.220746 
L 110.563291 145.925004 
L 113.735107 144.629261 
L 116.906923 143.333519 
L 120.078739 142.037776 
L 123.250554 140.742033 
L 126.42237 139.446291 
L 129.594186 138.150548 
L 132.766002 136.854806 
L 135.937818 135.559063 
L 139.109634 134.26332 
L 142.28145 132.967578 
L 145.453266 131.671835 
L 148.625082 130.376093 
L 151.796898 129.08035 
L 154.968714 127.784607 
L 158.140529 126.488865 
L 161.312345 125.193122 
L 164.484161 123.89738 
L 167.655977 122.601637 
L 170.827793 121.305894 
L 173.999609 120.010152 
L 177.171425 118.714409 
L 180.343241 117.418667 
L 183.515057 116.122924 
L 186.686873 114.827181 
L 189.858689 113.531439 
L 193.030504 112.235696 
L 196.20232 110.939954 
L 199.374136 109.644211 
L 202.545952 108.348468 
L 205.717768 107.052726 
L 208.889584 105.756983 
L 212.0614 104.461241 
L 215.233216 103.165498 
L 218.405032 101.869755 
L 221.576848 100.574013 
L 224.748664 99.27827 
L 227.920479 97.982528 
L 231.092295 96.686785 
L 234.264111 95.391042 
L 237.435927 94.0953 
L 240.607743 92.799557 
L 243.779559 91.503815 
L 246.951375 90.208072 
L 250.123191 88.912329 
L 253.295007 87.616587 
L 256.466823 86.320844 
L 259.638639 85.025102 
L 262.810455 83.729359 
L 265.98227 82.433616 
L 269.154086 81.137874 
L 272.325902 79.842131 
L 275.497718 78.546388 
L 278.669534 77.250646 
L 281.84135 75.954903 
L 285.013166 74.659161 
L 288.184982 73.363418 
L 291.356798 72.067675 
L 294.528614 70.771933 
L 297.70043 69.47619 
L 300.872245 68.180447 
L 304.044061 66.884705 
L 307.215877 65.588962 
L 310.387693 64.29322 
L 313.559509 62.997477 
L 316.731325 61.701734 
L 319.903141 60.405992 
L 323.074957 59.110249 
L 326.246773 57.814507 
L 329.418589 56.518764 
L 332.590405 55.223021 
L 335.76222 53.927279 
L 338.934036 52.631536 
L 342.105852 51.335793 
L 345.277668 50.040051 
L 348.449484 48.744308 
L 351.6213 47.448566 
L 354.793116 46.152823 
L 357.964932 44.85708 
L 361.136748 43.561338 
L 364.308564 42.265595 
L 367.48038 40.969853 
L 370.652195 39.67411 
L 373.824011 38.378367 
L 376.995827 37.082625 
L 380.167643 35.786882 
L 383.339459 34.491139 
L 386.511275 33.195397 
" style="fill:none;stroke:#000000;stroke-linecap:square;stroke-width:1.5;"/>
   </g>
   <g id="line2d_147">
    <defs>
     <path d="M 3 0 
L -3 -0 
" id="me44bc55967" style="stroke:#000000;stroke-width:2.0;"/>
    </defs>
    <g clip-path="url(#p2f24ab48a4)">
     <use style="stroke:#000000;stroke-width:2.0;" x="72.5014998439" xlink:href="#me44bc55967" y="75.1042540846"/>
     <use style="stroke:#000000;stroke-width:2.0;" x="177.171424906" xlink:href="#me44bc55967" y="61.1966184305"/>
     <use style="stroke:#000000;stroke-width:2.0;" x="281.841349968" xlink:href="#me44bc55967" y="48.9931329503"/>
     <use style="stroke:#000000;stroke-width:2.0;" x="386.511275029" xlink:href="#me44bc55967" y="38.1841857165"/>
    </g>
   </g>
   <g id="line2d_148">
    <g clip-path="url(#p2f24ab48a4)">
     <use style="stroke:#000000;stroke-width:2.0;" x="72.5014998439" xlink:href="#me44bc55967" y="74.9168897203"/>
     <use style="stroke:#000000;stroke-width:2.0;" x="177.171424906" xlink:href="#me44bc55967" y="61.0407164885"/>
     <use style="stroke:#000000;stroke-width:2.0;" x="281.841349968" xlink:href="#me44bc55967" y="48.8942838909"/>
     <use style="stroke:#000000;stroke-width:2.0;" x="386.511275029" xlink:href="#me44bc55967" y="37.9655264764"/>
    </g>
   </g>
   <g id="line2d_149">
    <defs>
     <path d="M 0 -3.5 
L -3.5 3.5 
L 3.5 3.5 
z
" id="mb1156a3123" style="stroke:#000000;stroke-linejoin:miter;stroke-width:2.0;"/>
    </defs>
    <g clip-path="url(#p2f24ab48a4)">
     <use style="stroke:#000000;stroke-linejoin:miter;stroke-width:2.0;" x="72.5014998439" xlink:href="#mb1156a3123" y="75.0102927165"/>
     <use style="stroke:#000000;stroke-linejoin:miter;stroke-width:2.0;" x="177.171424906" xlink:href="#mb1156a3123" y="61.1184741633"/>
     <use style="stroke:#000000;stroke-linejoin:miter;stroke-width:2.0;" x="281.841349968" xlink:href="#mb1156a3123" y="48.9436307125"/>
     <use style="stroke:#000000;stroke-linejoin:miter;stroke-width:2.0;" x="386.511275029" xlink:href="#mb1156a3123" y="38.0744758596"/>
    </g>
   </g>
   <g id="line2d_150">
    <defs>
     <path d="M 0 1.75 
C 0.464105 1.75 0.909265 1.565609 1.237437 1.237437 
C 1.565609 0.909265 1.75 0.464105 1.75 0 
C 1.75 -0.464105 1.565609 -0.909265 1.237437 -1.237437 
C 0.909265 -1.565609 0.464105 -1.75 0 -1.75 
C -0.464105 -1.75 -0.909265 -1.565609 -1.237437 -1.237437 
C -1.565609 -0.909265 -1.75 -0.464105 -1.75 0 
C -1.75 0.464105 -1.565609 0.909265 -1.237437 1.237437 
C -0.909265 1.565609 -0.464105 1.75 0 1.75 
z
" id="md7914f6842" style="stroke:#000000;stroke-width:2.0;"/>
    </defs>
    <g clip-path="url(#p2f24ab48a4)">
     <use style="opacity:0.5;stroke:#000000;stroke-width:2.0;" x="72.5014998439" xlink:href="#md7914f6842" y="74.9177603483"/>
    </g>
   </g>
   <g id="line2d_151">
    <g clip-path="url(#p2f24ab48a4)">
     <use style="opacity:0.5;stroke:#000000;stroke-width:2.0;" x="72.5014998439" xlink:href="#md7914f6842" y="74.7246159386"/>
    </g>
   </g>
   <g id="line2d_152">
    <g clip-path="url(#p2f24ab48a4)">
     <use style="opacity:0.5;stroke:#000000;stroke-width:2.0;" x="72.5014998439" xlink:href="#md7914f6842" y="75.3960828491"/>
    </g>
   </g>
   <g id="line2d_153">
    <g clip-path="url(#p2f24ab48a4)">
     <use style="opacity:0.5;stroke:#000000;stroke-width:2.0;" x="177.171424906" xlink:href="#md7914f6842" y="60.7938627239"/>
    </g>
   </g>
   <g id="line2d_154">
    <g clip-path="url(#p2f24ab48a4)">
     <use style="opacity:0.5;stroke:#000000;stroke-width:2.0;" x="177.171424906" xlink:href="#md7914f6842" y="61.2462707126"/>
    </g>
   </g>
   <g id="line2d_155">
    <g clip-path="url(#p2f24ab48a4)">
     <use style="opacity:0.5;stroke:#000000;stroke-width:2.0;" x="177.171424906" xlink:href="#md7914f6842" y="61.3204749271"/>
    </g>
   </g>
   <g id="line2d_156">
    <g clip-path="url(#p2f24ab48a4)">
     <use style="opacity:0.5;stroke:#000000;stroke-width:2.0;" x="281.841349968" xlink:href="#md7914f6842" y="49.1204171384"/>
    </g>
   </g>
   <g id="line2d_157">
    <g clip-path="url(#p2f24ab48a4)">
     <use style="opacity:0.5;stroke:#000000;stroke-width:2.0;" x="281.841349968" xlink:href="#md7914f6842" y="48.954727634"/>
    </g>
   </g>
   <g id="line2d_158">
    <g clip-path="url(#p2f24ab48a4)">
     <use style="opacity:0.5;stroke:#000000;stroke-width:2.0;" x="281.841349968" xlink:href="#md7914f6842" y="48.757844139"/>
    </g>
   </g>
   <g id="line2d_159">
    <g clip-path="url(#p2f24ab48a4)">
     <use style="opacity:0.5;stroke:#000000;stroke-width:2.0;" x="386.511275029" xlink:href="#md7914f6842" y="38.4148552423"/>
    </g>
   </g>
   <g id="line2d_160">
    <g clip-path="url(#p2f24ab48a4)">
     <use style="opacity:0.5;stroke:#000000;stroke-width:2.0;" x="386.511275029" xlink:href="#md7914f6842" y="37.6360197493"/>
    </g>
   </g>
   <g id="line2d_161">
    <g clip-path="url(#p2f24ab48a4)">
     <use style="opacity:0.5;stroke:#000000;stroke-width:2.0;" x="386.511275029" xlink:href="#md7914f6842" y="38.1827566518"/>
    </g>
   </g>
   <g id="line2d_162">
    <path clip-path="url(#p2f24ab48a4)" d="M 72.5015 161.473915 
L 117.360039 185.922119 
L 162.218578 209.24321 
L 207.077118 221.87532 
L 251.935657 211.673978 
L 296.794196 194.060478 
L 341.652736 175.782712 
L 386.511275 157.460338 
" style="fill:none;stroke-dasharray:6.000000,6.000000;stroke-dashoffset:0.0;"/>
    <defs>
     <path d="M -0 3.5 
L 3.5 -3.5 
L -3.5 -3.5 
z
" id="md7e3668b55" style="stroke:#000000;stroke-linejoin:miter;stroke-width:1.5;"/>
    </defs>
    <g clip-path="url(#p2f24ab48a4)">
     <use style="fill:none;stroke:#000000;stroke-linejoin:miter;stroke-width:1.5;" x="72.5014998439" xlink:href="#md7e3668b55" y="161.473914939"/>
     <use style="fill:none;stroke:#000000;stroke-linejoin:miter;stroke-width:1.5;" x="117.360039156" xlink:href="#md7e3668b55" y="185.922119461"/>
     <use style="fill:none;stroke:#000000;stroke-linejoin:miter;stroke-width:1.5;" x="162.218578468" xlink:href="#md7e3668b55" y="209.243209554"/>
     <use style="fill:none;stroke:#000000;stroke-linejoin:miter;stroke-width:1.5;" x="207.077117781" xlink:href="#md7e3668b55" y="221.87531979"/>
     <use style="fill:none;stroke:#000000;stroke-linejoin:miter;stroke-width:1.5;" x="251.935657093" xlink:href="#md7e3668b55" y="211.673977503"/>
     <use style="fill:none;stroke:#000000;stroke-linejoin:miter;stroke-width:1.5;" x="296.794196405" xlink:href="#md7e3668b55" y="194.06047786"/>
     <use style="fill:none;stroke:#000000;stroke-linejoin:miter;stroke-width:1.5;" x="341.652735717" xlink:href="#md7e3668b55" y="175.782712228"/>
     <use style="fill:none;stroke:#000000;stroke-linejoin:miter;stroke-width:1.5;" x="386.511275029" xlink:href="#md7e3668b55" y="157.460338459"/>
    </g>
   </g>
   <g id="line2d_163">
    <path clip-path="url(#p2f24ab48a4)" d="M 72.5015 161.473915 
L 75.673316 163.207177 
L 78.845132 164.940179 
L 82.016948 166.672862 
L 85.188763 168.405161 
L 88.360579 170.136993 
L 91.532395 171.868261 
L 94.704211 173.598843 
L 97.876027 175.328594 
L 101.047843 177.057339 
L 104.219659 178.784865 
L 107.391475 180.510912 
L 110.563291 182.23517 
L 113.735107 183.957261 
L 116.906923 185.676727 
L 120.078739 187.393017 
L 123.250554 189.105464 
L 126.42237 190.813265 
L 129.594186 192.51545 
L 132.766002 194.210855 
L 135.937818 195.898078 
L 139.109634 197.57544 
L 142.28145 199.240932 
L 145.453266 200.892155 
L 148.625082 202.526261 
L 151.796898 204.139876 
L 154.968714 205.729024 
L 158.140529 207.289051 
L 161.312345 208.814547 
L 164.484161 210.299277 
L 167.655977 211.736128 
L 170.827793 213.117093 
L 173.999609 214.433289 
L 177.171425 215.675037 
L 180.343241 216.832022 
L 183.515057 217.893535 
L 186.686873 218.848815 
L 189.858689 219.687472 
L 193.030504 220.399982 
L 196.20232 220.97821 
L 199.374136 221.415911 
L 202.545952 221.709144 
L 205.717768 221.856552 
L 208.889584 221.859457 
L 212.0614 221.721768 
L 215.233216 221.449704 
L 218.405032 221.051378 
L 221.576848 220.536297 
L 224.748664 219.914845 
L 227.920479 219.197782 
L 231.092295 218.395818 
L 234.264111 217.519276 
L 237.435927 216.577844 
L 240.607743 215.580416 
L 243.779559 214.535012 
L 246.951375 213.448755 
L 250.123191 212.327891 
L 253.295007 211.177841 
L 256.466823 210.003269 
L 259.638639 208.808157 
L 262.810455 207.595888 
L 265.98227 206.369317 
L 269.154086 205.130847 
L 272.325902 203.882492 
L 275.497718 202.625935 
L 278.669534 201.362581 
L 281.84135 200.093599 
L 285.013166 198.819958 
L 288.184982 197.542465 
L 291.356798 196.261788 
L 294.528614 194.97848 
L 297.70043 193.692999 
L 300.872245 192.405724 
L 304.044061 191.116968 
L 307.215877 189.826989 
L 310.387693 188.536001 
L 313.559509 187.24418 
L 316.731325 185.951672 
L 319.903141 184.658598 
L 323.074957 183.365056 
L 326.246773 182.071128 
L 329.418589 180.776883 
L 332.590405 179.482375 
L 335.76222 178.18765 
L 338.934036 176.892747 
L 342.105852 175.597697 
L 345.277668 174.302526 
L 348.449484 173.007254 
L 351.6213 171.7119 
L 354.793116 170.416477 
L 357.964932 169.120999 
L 361.136748 167.825474 
L 364.308564 166.529911 
L 367.48038 165.234317 
L 370.652195 163.938696 
L 373.824011 162.643054 
L 376.995827 161.347395 
L 380.167643 160.051721 
L 383.339459 158.756035 
L 386.511275 157.460339 
" style="fill:none;stroke:#000000;stroke-dasharray:6.000000,6.000000;stroke-dashoffset:0.0;stroke-linecap:round;stroke-width:1.5;"/>
   </g>
   <g id="line2d_164">
    <g clip-path="url(#p2f24ab48a4)">
     <use style="stroke:#000000;stroke-width:2.0;" x="72.5014998439" xlink:href="#me44bc55967" y="201.220750871"/>
     <use style="stroke:#000000;stroke-width:2.0;" x="177.171424906" xlink:href="#me44bc55967" y="226.209721418"/>
     <use style="stroke:#000000;stroke-width:2.0;" x="281.841349968" xlink:href="#me44bc55967" y="178.337315833"/>
     <use style="stroke:#000000;stroke-width:2.0;" x="386.511275029" xlink:href="#me44bc55967" y="158.226588685"/>
    </g>
   </g>
   <g id="line2d_165">
    <g clip-path="url(#p2f24ab48a4)">
     <use style="stroke:#000000;stroke-width:2.0;" x="72.5014998439" xlink:href="#me44bc55967" y="196.916242063"/>
     <use style="stroke:#000000;stroke-width:2.0;" x="177.171424906" xlink:href="#me44bc55967" y="210.11877892"/>
     <use style="stroke:#000000;stroke-width:2.0;" x="281.841349968" xlink:href="#me44bc55967" y="173.745313716"/>
     <use style="stroke:#000000;stroke-width:2.0;" x="386.511275029" xlink:href="#me44bc55967" y="157.055287212"/>
    </g>
   </g>
   <g id="line2d_166">
    <defs>
     <path d="M -0 3.5 
L 3.5 -3.5 
L -3.5 -3.5 
z
" id="m7708ecf206" style="stroke:#000000;stroke-linejoin:miter;stroke-width:2.0;"/>
    </defs>
    <g clip-path="url(#p2f24ab48a4)">
     <use style="stroke:#000000;stroke-linejoin:miter;stroke-width:2.0;" x="72.5014998439" xlink:href="#m7708ecf206" y="198.921598169"/>
     <use style="stroke:#000000;stroke-linejoin:miter;stroke-width:2.0;" x="177.171424906" xlink:href="#m7708ecf206" y="216.189212779"/>
     <use style="stroke:#000000;stroke-linejoin:miter;stroke-width:2.0;" x="281.841349968" xlink:href="#m7708ecf206" y="175.87421043"/>
     <use style="stroke:#000000;stroke-linejoin:miter;stroke-width:2.0;" x="386.511275029" xlink:href="#m7708ecf206" y="157.630029599"/>
    </g>
   </g>
   <g id="line2d_167">
    <g clip-path="url(#p2f24ab48a4)">
     <use style="opacity:0.5;stroke:#000000;stroke-width:2.0;" x="72.5014998439" xlink:href="#md7914f6842" y="192.54863539"/>
    </g>
   </g>
   <g id="line2d_168">
    <g clip-path="url(#p2f24ab48a4)">
     <use style="opacity:0.5;stroke:#000000;stroke-width:2.0;" x="72.5014998439" xlink:href="#md7914f6842" y="198.921598169"/>
    </g>
   </g>
   <g id="line2d_169">
    <g clip-path="url(#p2f24ab48a4)">
     <use style="opacity:0.5;stroke:#000000;stroke-width:2.0;" x="72.5014998439" xlink:href="#md7914f6842" y="209.81625"/>
    </g>
   </g>
   <g id="line2d_170">
    <g clip-path="url(#p2f24ab48a4)">
     <use style="opacity:0.5;stroke:#000000;stroke-width:2.0;" x="177.171424906" xlink:href="#md7914f6842" y="198.921598169"/>
    </g>
   </g>
   <g id="line2d_171">
    <g clip-path="url(#p2f24ab48a4)">
     <use style="opacity:0.5;stroke:#000000;stroke-width:2.0;" x="177.171424906" xlink:href="#md7914f6842" y="11103.3825"/>
    </g>
   </g>
   <g id="line2d_172">
    <g clip-path="url(#p2f24ab48a4)">
     <use style="opacity:0.5;stroke:#000000;stroke-width:2.0;" x="177.171424906" xlink:href="#md7914f6842" y="11103.3825"/>
    </g>
   </g>
   <g id="line2d_173">
    <g clip-path="url(#p2f24ab48a4)">
     <use style="opacity:0.5;stroke:#000000;stroke-width:2.0;" x="281.841349968" xlink:href="#md7914f6842" y="168.336443729"/>
    </g>
   </g>
   <g id="line2d_174">
    <g clip-path="url(#p2f24ab48a4)">
     <use style="opacity:0.5;stroke:#000000;stroke-width:2.0;" x="281.841349968" xlink:href="#md7914f6842" y="181.65398356"/>
    </g>
   </g>
   <g id="line2d_175">
    <g clip-path="url(#p2f24ab48a4)">
     <use style="opacity:0.5;stroke:#000000;stroke-width:2.0;" x="281.841349968" xlink:href="#md7914f6842" y="181.65398356"/>
    </g>
   </g>
   <g id="line2d_176">
    <g clip-path="url(#p2f24ab48a4)">
     <use style="opacity:0.5;stroke:#000000;stroke-width:2.0;" x="386.511275029" xlink:href="#md7914f6842" y="155.342990847"/>
    </g>
   </g>
   <g id="line2d_177">
    <g clip-path="url(#p2f24ab48a4)">
     <use style="opacity:0.5;stroke:#000000;stroke-width:2.0;" x="386.511275029" xlink:href="#md7914f6842" y="158.60659582"/>
    </g>
   </g>
   <g id="line2d_178">
    <g clip-path="url(#p2f24ab48a4)">
     <use style="opacity:0.5;stroke:#000000;stroke-width:2.0;" x="386.511275029" xlink:href="#md7914f6842" y="159.223053661"/>
    </g>
   </g>
   <g id="patch_3">
    <path d="M 72.283438 28.86 
L 421.619312 28.86 
" style="fill:none;stroke:#000000;stroke-linecap:square;stroke-linejoin:miter;"/>
   </g>
   <g id="patch_4">
    <path d="M 72.283438 246.0075 
L 421.619312 246.0075 
" style="fill:none;stroke:#000000;stroke-linecap:square;stroke-linejoin:miter;"/>
   </g>
   <g id="patch_5">
    <path d="M 72.283438 246.0075 
L 72.283438 28.86 
" style="fill:none;stroke:#000000;stroke-linecap:square;stroke-linejoin:miter;"/>
   </g>
   <g id="patch_6">
    <path d="M 421.619312 246.0075 
L 421.619312 28.86 
" style="fill:none;stroke:#000000;stroke-linecap:square;stroke-linejoin:miter;"/>
   </g>
   <g id="legend_1">
    <g id="patch_7">
     <path d="M 433.699312 182.6765 
L 591.815812 182.6765 
Q 594.695812 182.6765 594.695812 179.7965 
L 594.695812 99.071 
Q 594.695812 96.191 591.815812 96.191 
L 433.699312 96.191 
Q 430.819312 96.191 430.819312 99.071 
L 430.819312 179.7965 
Q 430.819312 182.6765 433.699312 182.6765 
z
" style="fill:#4c4c4c;opacity:0.5;stroke:#4c4c4c;stroke-linejoin:miter;"/>
    </g>
    <g id="patch_8">
     <path d="M 431.699312 180.6765 
L 589.815812 180.6765 
Q 592.695812 180.6765 592.695812 177.7965 
L 592.695812 97.071 
Q 592.695812 94.191 589.815812 94.191 
L 431.699312 94.191 
Q 428.819312 94.191 428.819312 97.071 
L 428.819312 177.7965 
Q 428.819312 180.6765 431.699312 180.6765 
z
" style="fill:#ffffff;stroke:#000000;stroke-linejoin:miter;"/>
    </g>
    <g id="line2d_179">
     <path d="M 434.579312 105.39375 
L 463.379312 105.39375 
" style="fill:none;"/>
    </g>
    <g id="line2d_180">
     <g>
      <use style="fill:none;stroke:#000000;stroke-linejoin:miter;stroke-width:1.5;" x="448.979312394" xlink:href="#m9b628392b9" y="105.39375"/>
     </g>
    </g>
    <g id="text_19">
     <!-- Live cells (fitted) -->
     <defs>
      <path d="M 21 0 
L 1.265625 51.859375 
L 10.546875 51.859375 
L 21.6875 20.796875 
Q 23.484375 15.765625 25 10.359375 
Q 26.171875 14.453125 28.265625 20.21875 
L 39.796875 51.859375 
L 48.828125 51.859375 
L 29.203125 0 
z
" id="ArialMT-76"/>
      <path d="M 40.4375 19 
L 49.078125 17.875 
Q 47.65625 8.9375 41.8125 3.875 
Q 35.984375 -1.171875 27.484375 -1.171875 
Q 16.84375 -1.171875 10.375 5.78125 
Q 3.90625 12.75 3.90625 25.734375 
Q 3.90625 34.125 6.6875 40.421875 
Q 9.46875 46.734375 15.15625 49.875 
Q 20.84375 53.03125 27.546875 53.03125 
Q 35.984375 53.03125 41.359375 48.75 
Q 46.734375 44.484375 48.25 36.625 
L 39.703125 35.296875 
Q 38.484375 40.53125 35.375 43.15625 
Q 32.28125 45.796875 27.875 45.796875 
Q 21.234375 45.796875 17.078125 41.03125 
Q 12.9375 36.28125 12.9375 25.984375 
Q 12.9375 15.53125 16.9375 10.796875 
Q 20.953125 6.0625 27.390625 6.0625 
Q 32.5625 6.0625 36.03125 9.234375 
Q 39.5 12.40625 40.4375 19 
" id="ArialMT-63"/>
      <path d="M 7.328125 0 
L 7.328125 71.578125 
L 16.796875 71.578125 
L 16.796875 8.453125 
L 52.046875 8.453125 
L 52.046875 0 
z
" id="ArialMT-4c"/>
      <path d="M 40.234375 0 
L 40.234375 6.546875 
Q 35.296875 -1.171875 25.734375 -1.171875 
Q 19.53125 -1.171875 14.328125 2.25 
Q 9.125 5.671875 6.265625 11.796875 
Q 3.421875 17.921875 3.421875 25.875 
Q 3.421875 33.640625 6 39.96875 
Q 8.59375 46.296875 13.765625 49.65625 
Q 18.953125 53.03125 25.34375 53.03125 
Q 30.03125 53.03125 33.6875 51.046875 
Q 37.359375 49.078125 39.65625 45.90625 
L 39.65625 71.578125 
L 48.390625 71.578125 
L 48.390625 0 
z
M 12.453125 25.875 
Q 12.453125 15.921875 16.640625 10.984375 
Q 20.84375 6.0625 26.5625 6.0625 
Q 32.328125 6.0625 36.34375 10.765625 
Q 40.375 15.484375 40.375 25.140625 
Q 40.375 35.796875 36.265625 40.765625 
Q 32.171875 45.75 26.171875 45.75 
Q 20.3125 45.75 16.375 40.96875 
Q 12.453125 36.1875 12.453125 25.875 
" id="ArialMT-64"/>
     </defs>
     <g transform="translate(474.899312394 110.43375)scale(0.144 -0.144)">
      <use xlink:href="#ArialMT-4c"/>
      <use x="55.615234375" xlink:href="#ArialMT-69"/>
      <use x="77.83203125" xlink:href="#ArialMT-76"/>
      <use x="127.83203125" xlink:href="#ArialMT-65"/>
      <use x="183.447265625" xlink:href="#ArialMT-20"/>
      <use x="211.23046875" xlink:href="#ArialMT-63"/>
      <use x="261.23046875" xlink:href="#ArialMT-65"/>
      <use x="316.845703125" xlink:href="#ArialMT-6c"/>
      <use x="339.0625" xlink:href="#ArialMT-6c"/>
      <use x="361.279296875" xlink:href="#ArialMT-73"/>
      <use x="411.279296875" xlink:href="#ArialMT-20"/>
      <use x="439.0625" xlink:href="#ArialMT-28"/>
      <use x="472.36328125" xlink:href="#ArialMT-66"/>
      <use x="500.146484375" xlink:href="#ArialMT-69"/>
      <use x="522.36328125" xlink:href="#ArialMT-74"/>
      <use x="550.146484375" xlink:href="#ArialMT-74"/>
      <use x="577.9296875" xlink:href="#ArialMT-65"/>
      <use x="633.544921875" xlink:href="#ArialMT-64"/>
      <use x="689.16015625" xlink:href="#ArialMT-29"/>
     </g>
    </g>
    <g id="line2d_181">
     <path d="M 434.579312 126.10725 
L 463.379312 126.10725 
" style="fill:none;stroke-dasharray:6.000000,6.000000;stroke-dashoffset:0.0;"/>
    </g>
    <g id="line2d_182">
     <g>
      <use style="fill:none;stroke:#000000;stroke-linejoin:miter;stroke-width:1.5;" x="448.979312394" xlink:href="#md7e3668b55" y="126.10725"/>
     </g>
    </g>
    <g id="text_20">
     <!-- Dead cells (fitted) -->
     <defs>
      <path d="M 7.71875 0 
L 7.71875 71.578125 
L 32.375 71.578125 
Q 40.71875 71.578125 45.125 70.5625 
Q 51.265625 69.140625 55.609375 65.4375 
Q 61.28125 60.640625 64.078125 53.1875 
Q 66.890625 45.75 66.890625 36.1875 
Q 66.890625 28.03125 64.984375 21.734375 
Q 63.09375 15.4375 60.109375 11.296875 
Q 57.125 7.171875 53.578125 4.796875 
Q 50.046875 2.4375 45.046875 1.21875 
Q 40.046875 0 33.546875 0 
z
M 17.1875 8.453125 
L 32.46875 8.453125 
Q 39.546875 8.453125 43.578125 9.765625 
Q 47.609375 11.078125 50 13.484375 
Q 53.375 16.84375 55.25 22.53125 
Q 57.125 28.21875 57.125 36.328125 
Q 57.125 47.5625 53.4375 53.59375 
Q 49.75 59.625 44.484375 61.671875 
Q 40.671875 63.140625 32.234375 63.140625 
L 17.1875 63.140625 
z
" id="ArialMT-44"/>
      <path d="M 40.4375 6.390625 
Q 35.546875 2.25 31.03125 0.53125 
Q 26.515625 -1.171875 21.34375 -1.171875 
Q 12.796875 -1.171875 8.203125 3 
Q 3.609375 7.171875 3.609375 13.671875 
Q 3.609375 17.484375 5.34375 20.625 
Q 7.078125 23.78125 9.890625 25.6875 
Q 12.703125 27.59375 16.21875 28.5625 
Q 18.796875 29.25 24.03125 29.890625 
Q 34.671875 31.15625 39.703125 32.90625 
Q 39.75 34.71875 39.75 35.203125 
Q 39.75 40.578125 37.25 42.78125 
Q 33.890625 45.75 27.25 45.75 
Q 21.046875 45.75 18.09375 43.578125 
Q 15.140625 41.40625 13.71875 35.890625 
L 5.125 37.0625 
Q 6.296875 42.578125 8.984375 45.96875 
Q 11.671875 49.359375 16.75 51.1875 
Q 21.828125 53.03125 28.515625 53.03125 
Q 35.15625 53.03125 39.296875 51.46875 
Q 43.453125 49.90625 45.40625 47.53125 
Q 47.359375 45.171875 48.140625 41.546875 
Q 48.578125 39.3125 48.578125 33.453125 
L 48.578125 21.734375 
Q 48.578125 9.46875 49.140625 6.21875 
Q 49.703125 2.984375 51.375 0 
L 42.1875 0 
Q 40.828125 2.734375 40.4375 6.390625 
M 39.703125 26.03125 
Q 34.90625 24.078125 25.34375 22.703125 
Q 19.921875 21.921875 17.671875 20.9375 
Q 15.4375 19.96875 14.203125 18.09375 
Q 12.984375 16.21875 12.984375 13.921875 
Q 12.984375 10.40625 15.640625 8.0625 
Q 18.3125 5.71875 23.4375 5.71875 
Q 28.515625 5.71875 32.46875 7.9375 
Q 36.421875 10.15625 38.28125 14.015625 
Q 39.703125 17 39.703125 22.796875 
z
" id="ArialMT-61"/>
     </defs>
     <g transform="translate(474.899312394 131.14725)scale(0.144 -0.144)">
      <use xlink:href="#ArialMT-44"/>
      <use x="72.216796875" xlink:href="#ArialMT-65"/>
      <use x="127.83203125" xlink:href="#ArialMT-61"/>
      <use x="183.447265625" xlink:href="#ArialMT-64"/>
      <use x="239.0625" xlink:href="#ArialMT-20"/>
      <use x="266.845703125" xlink:href="#ArialMT-63"/>
      <use x="316.845703125" xlink:href="#ArialMT-65"/>
      <use x="372.4609375" xlink:href="#ArialMT-6c"/>
      <use x="394.677734375" xlink:href="#ArialMT-6c"/>
      <use x="416.89453125" xlink:href="#ArialMT-73"/>
      <use x="466.89453125" xlink:href="#ArialMT-20"/>
      <use x="494.677734375" xlink:href="#ArialMT-28"/>
      <use x="527.978515625" xlink:href="#ArialMT-66"/>
      <use x="555.76171875" xlink:href="#ArialMT-69"/>
      <use x="577.978515625" xlink:href="#ArialMT-74"/>
      <use x="605.76171875" xlink:href="#ArialMT-74"/>
      <use x="633.544921875" xlink:href="#ArialMT-65"/>
      <use x="689.16015625" xlink:href="#ArialMT-64"/>
      <use x="744.775390625" xlink:href="#ArialMT-29"/>
     </g>
    </g>
    <g id="LineCollection_3">
     <path d="M 448.979312 153.84525 
L 448.979312 139.44525 
" style="fill:none;stroke:#000000;stroke-width:2.0;"/>
    </g>
    <g id="line2d_183">
     <g>
      <use style="stroke:#000000;stroke-width:2.0;" x="448.979312394" xlink:href="#me44bc55967" y="153.84525"/>
     </g>
    </g>
    <g id="line2d_184">
     <g>
      <use style="stroke:#000000;stroke-width:2.0;" x="448.979312394" xlink:href="#me44bc55967" y="139.44525"/>
     </g>
    </g>
    <g id="line2d_185"/>
    <g id="line2d_186">
     <g>
      <use style="stroke:#000000;stroke-linejoin:miter;stroke-width:2.0;" x="448.979312394" xlink:href="#mb1156a3123" y="146.64525"/>
     </g>
    </g>
    <g id="text_21">
     <!-- Live cells -->
     <g transform="translate(474.899312394 151.68525)scale(0.144 -0.144)">
      <use xlink:href="#ArialMT-4c"/>
      <use x="55.615234375" xlink:href="#ArialMT-69"/>
      <use x="77.83203125" xlink:href="#ArialMT-76"/>
      <use x="127.83203125" xlink:href="#ArialMT-65"/>
      <use x="183.447265625" xlink:href="#ArialMT-20"/>
      <use x="211.23046875" xlink:href="#ArialMT-63"/>
      <use x="261.23046875" xlink:href="#ArialMT-65"/>
      <use x="316.845703125" xlink:href="#ArialMT-6c"/>
      <use x="339.0625" xlink:href="#ArialMT-6c"/>
      <use x="361.279296875" xlink:href="#ArialMT-73"/>
     </g>
    </g>
    <g id="LineCollection_4">
     <path d="M 448.979312 174.2145 
L 448.979312 159.8145 
" style="fill:none;stroke:#000000;stroke-width:2.0;"/>
    </g>
    <g id="line2d_187">
     <g>
      <use style="stroke:#000000;stroke-width:2.0;" x="448.979312394" xlink:href="#me44bc55967" y="174.2145"/>
     </g>
    </g>
    <g id="line2d_188">
     <g>
      <use style="stroke:#000000;stroke-width:2.0;" x="448.979312394" xlink:href="#me44bc55967" y="159.8145"/>
     </g>
    </g>
    <g id="line2d_189"/>
    <g id="line2d_190">
     <g>
      <use style="stroke:#000000;stroke-linejoin:miter;stroke-width:2.0;" x="448.979312394" xlink:href="#m7708ecf206" y="167.0145"/>
     </g>
    </g>
    <g id="text_22">
     <!-- Dead cells -->
     <g transform="translate(474.899312394 172.0545)scale(0.144 -0.144)">
      <use xlink:href="#ArialMT-44"/>
      <use x="72.216796875" xlink:href="#ArialMT-65"/>
      <use x="127.83203125" xlink:href="#ArialMT-61"/>
      <use x="183.447265625" xlink:href="#ArialMT-64"/>
      <use x="239.0625" xlink:href="#ArialMT-20"/>
      <use x="266.845703125" xlink:href="#ArialMT-63"/>
      <use x="316.845703125" xlink:href="#ArialMT-65"/>
      <use x="372.4609375" xlink:href="#ArialMT-6c"/>
      <use x="394.677734375" xlink:href="#ArialMT-6c"/>
      <use x="416.89453125" xlink:href="#ArialMT-73"/>
     </g>
    </g>
   </g>
  </g>
  <g id="text_23">
   <!-- Live cells model (with cell death) -->
   <defs>
    <path d="M 6.59375 0 
L 6.59375 71.578125 
L 15.375 71.578125 
L 15.375 45.90625 
Q 21.53125 53.03125 30.90625 53.03125 
Q 36.671875 53.03125 40.921875 50.75 
Q 45.171875 48.484375 47 44.484375 
Q 48.828125 40.484375 48.828125 32.859375 
L 48.828125 0 
L 40.046875 0 
L 40.046875 32.859375 
Q 40.046875 39.453125 37.1875 42.453125 
Q 34.328125 45.453125 29.109375 45.453125 
Q 25.203125 45.453125 21.75 43.421875 
Q 18.3125 41.40625 16.84375 37.9375 
Q 15.375 34.46875 15.375 28.375 
L 15.375 0 
z
" id="ArialMT-68"/>
    <path d="M 16.15625 0 
L 0.296875 51.859375 
L 9.375 51.859375 
L 17.625 21.921875 
L 20.703125 10.796875 
Q 20.90625 11.625 23.390625 21.484375 
L 31.640625 51.859375 
L 40.671875 51.859375 
L 48.4375 21.78125 
L 51.03125 11.859375 
L 54 21.875 
L 62.890625 51.859375 
L 71.4375 51.859375 
L 55.21875 0 
L 46.09375 0 
L 37.84375 31.0625 
L 35.84375 39.890625 
L 25.34375 0 
z
" id="ArialMT-77"/>
   </defs>
   <g transform="translate(81.1378125 21.759375)scale(0.2 -0.2)">
    <use xlink:href="#ArialMT-4c"/>
    <use x="55.615234375" xlink:href="#ArialMT-69"/>
    <use x="77.83203125" xlink:href="#ArialMT-76"/>
    <use x="127.83203125" xlink:href="#ArialMT-65"/>
    <use x="183.447265625" xlink:href="#ArialMT-20"/>
    <use x="211.23046875" xlink:href="#ArialMT-63"/>
    <use x="261.23046875" xlink:href="#ArialMT-65"/>
    <use x="316.845703125" xlink:href="#ArialMT-6c"/>
    <use x="339.0625" xlink:href="#ArialMT-6c"/>
    <use x="361.279296875" xlink:href="#ArialMT-73"/>
    <use x="411.279296875" xlink:href="#ArialMT-20"/>
    <use x="439.0625" xlink:href="#ArialMT-6d"/>
    <use x="522.36328125" xlink:href="#ArialMT-6f"/>
    <use x="577.978515625" xlink:href="#ArialMT-64"/>
    <use x="633.59375" xlink:href="#ArialMT-65"/>
    <use x="689.208984375" xlink:href="#ArialMT-6c"/>
    <use x="711.42578125" xlink:href="#ArialMT-20"/>
    <use x="739.208984375" xlink:href="#ArialMT-28"/>
    <use x="772.509765625" xlink:href="#ArialMT-77"/>
    <use x="844.7265625" xlink:href="#ArialMT-69"/>
    <use x="866.943359375" xlink:href="#ArialMT-74"/>
    <use x="894.7265625" xlink:href="#ArialMT-68"/>
    <use x="950.341796875" xlink:href="#ArialMT-20"/>
    <use x="978.125" xlink:href="#ArialMT-63"/>
    <use x="1028.125" xlink:href="#ArialMT-65"/>
    <use x="1083.740234375" xlink:href="#ArialMT-6c"/>
    <use x="1105.95703125" xlink:href="#ArialMT-6c"/>
    <use x="1128.173828125" xlink:href="#ArialMT-20"/>
    <use x="1155.95703125" xlink:href="#ArialMT-64"/>
    <use x="1211.572265625" xlink:href="#ArialMT-65"/>
    <use x="1267.1875" xlink:href="#ArialMT-61"/>
    <use x="1322.802734375" xlink:href="#ArialMT-74"/>
    <use x="1350.5859375" xlink:href="#ArialMT-68"/>
    <use x="1406.201171875" xlink:href="#ArialMT-29"/>
   </g>
  </g>
 </g>
 <defs>
  <clipPath id="p2f24ab48a4">
   <rect height="217.1475" width="349.335874894" x="72.2834375" y="28.86"/>
  </clipPath>
 </defs>
</svg>
