<?xml version="1.0" encoding="utf-8" standalone="no"?>
<!DOCTYPE svg PUBLIC "-//W3C//DTD SVG 1.1//EN"
  "http://www.w3.org/Graphics/SVG/1.1/DTD/svg11.dtd">
<!-- Created with matplotlib (http://matplotlib.org/) -->
<svg height="307pt" version="1.1" viewBox="0 0 550 307" width="550pt" xmlns="http://www.w3.org/2000/svg" xmlns:xlink="http://www.w3.org/1999/xlink">
 <defs>
  <style type="text/css">
*{stroke-linecap:butt;stroke-linejoin:round;stroke-miterlimit:100000;}
  </style>
 </defs>
 <g id="figure_1">
  <g id="patch_1">
   <path d="M 0 307.16 
L 550.088946 307.16 
L 550.088946 0 
L 0 0 
z
" style="fill:#ffffff;"/>
  </g>
  <g id="axes_1">
   <g id="patch_2">
    <path d="M 66.798438 246.277187 
L 422.563446 246.277187 
L 422.563446 34.584375 
L 66.798438 34.584375 
z
" style="fill:#ffffff;"/>
   </g>
   <g id="matplotlib.axis_1">
    <g id="xtick_1">
     <g id="line2d_1">
      <path clip-path="url(#p34d0502b19)" d="M 67.242035 246.277187 
L 67.242035 34.584375 
" style="fill:none;opacity:0.2;stroke:#b2b2b2;stroke-linecap:square;stroke-width:0.5;"/>
     </g>
     <g id="line2d_2">
      <defs>
       <path d="M 0 0 
L 0 4 
" id="mec4a00af72" style="stroke:#000000;"/>
      </defs>
      <g>
       <use style="stroke:#000000;" x="67.2420347677" xlink:href="#mec4a00af72" y="246.2771875"/>
      </g>
     </g>
     <g id="line2d_3">
      <defs>
       <path d="M 0 0 
L 0 -4 
" id="m8a1249fe11" style="stroke:#000000;"/>
      </defs>
      <g>
       <use style="stroke:#000000;" x="67.2420347677" xlink:href="#m8a1249fe11" y="34.584375"/>
      </g>
     </g>
     <g id="text_1">
      <!-- $\mathdefault{0}$ -->
      <defs>
       <path d="M 24.90625 -1.203125 
C 37.59375 -1.203125 45.296875 10.703125 45.296875 32.09375 
C 45.296875 53.5 37.59375 65 24.90625 65 
C 12.09375 65 4.40625 53.5 4.40625 32.09375 
C 4.40625 10.703125 12.09375 -1.203125 24.90625 -1.203125 
M 24.90625 5.40625 
C 17.40625 5.40625 12.40625 13.40625 12.40625 32.09375 
C 12.40625 50.796875 17.40625 58.40625 24.90625 58.40625 
C 32.296875 58.40625 37.296875 50.796875 37.296875 32.09375 
C 37.296875 13.40625 32.296875 5.40625 24.90625 5.40625 
" id="SourceSansPro-Regular-30"/>
      </defs>
      <g transform="translate(64.2420347677 264.8215625)scale(0.12 -0.12)">
       <use xlink:href="#SourceSansPro-Regular-30"/>
      </g>
     </g>
    </g>
    <g id="xtick_2">
     <g id="line2d_4">
      <path clip-path="url(#p34d0502b19)" d="M 111.601762 246.277187 
L 111.601762 34.584375 
" style="fill:none;opacity:0.2;stroke:#b2b2b2;stroke-linecap:square;stroke-width:0.5;"/>
     </g>
     <g id="line2d_5">
      <g>
       <use style="stroke:#000000;" x="111.601761539" xlink:href="#mec4a00af72" y="246.2771875"/>
      </g>
     </g>
     <g id="line2d_6">
      <g>
       <use style="stroke:#000000;" x="111.601761539" xlink:href="#m8a1249fe11" y="34.584375"/>
      </g>
     </g>
     <g id="text_2">
      <!-- $\mathdefault{10}$ -->
      <defs>
       <path d="M 7.90625 0 
L 43.90625 0 
L 43.90625 6.796875 
L 30.703125 6.796875 
L 30.703125 63.796875 
L 24.40625 63.796875 
C 20.90625 61.703125 16.703125 60.09375 10.90625 59.09375 
L 10.90625 53.796875 
L 22.5 53.796875 
L 22.5 6.796875 
L 7.90625 6.796875 
z
" id="SourceSansPro-Regular-31"/>
      </defs>
      <g transform="translate(105.601761539 264.8215625)scale(0.12 -0.12)">
       <use xlink:href="#SourceSansPro-Regular-31"/>
       <use transform="translate(49.6999969482 0.0)" xlink:href="#SourceSansPro-Regular-30"/>
      </g>
     </g>
    </g>
    <g id="xtick_3">
     <g id="line2d_7">
      <path clip-path="url(#p34d0502b19)" d="M 155.961488 246.277187 
L 155.961488 34.584375 
" style="fill:none;opacity:0.2;stroke:#b2b2b2;stroke-linecap:square;stroke-width:0.5;"/>
     </g>
     <g id="line2d_8">
      <g>
       <use style="stroke:#000000;" x="155.96148831" xlink:href="#mec4a00af72" y="246.2771875"/>
      </g>
     </g>
     <g id="line2d_9">
      <g>
       <use style="stroke:#000000;" x="155.96148831" xlink:href="#m8a1249fe11" y="34.584375"/>
      </g>
     </g>
     <g id="text_3">
      <!-- $\mathdefault{20}$ -->
      <defs>
       <path d="M 4 0 
L 45.203125 0 
L 45.203125 7.09375 
L 26.703125 7.09375 
C 23.40625 7.09375 19.5 6.796875 16 6.5 
C 31.09375 22.296875 42 34.203125 42 46.203125 
C 42 57.5 34.703125 65 22.90625 65 
C 14.59375 65 8.90625 61.09375 3.59375 55.296875 
L 8.296875 50.59375 
C 12 54.90625 16.59375 58.296875 21.90625 58.296875 
C 30 58.296875 34 53.09375 34 45.796875 
C 34 35.5 23.203125 24 4 4.90625 
z
" id="SourceSansPro-Regular-32"/>
      </defs>
      <g transform="translate(149.96148831 264.8215625)scale(0.12 -0.12)">
       <use xlink:href="#SourceSansPro-Regular-32"/>
       <use transform="translate(49.6999969482 0.0)" xlink:href="#SourceSansPro-Regular-30"/>
      </g>
     </g>
    </g>
    <g id="xtick_4">
     <g id="line2d_10">
      <path clip-path="url(#p34d0502b19)" d="M 200.321215 246.277187 
L 200.321215 34.584375 
" style="fill:none;opacity:0.2;stroke:#b2b2b2;stroke-linecap:square;stroke-width:0.5;"/>
     </g>
     <g id="line2d_11">
      <g>
       <use style="stroke:#000000;" x="200.321215081" xlink:href="#mec4a00af72" y="246.2771875"/>
      </g>
     </g>
     <g id="line2d_12">
      <g>
       <use style="stroke:#000000;" x="200.321215081" xlink:href="#m8a1249fe11" y="34.584375"/>
      </g>
     </g>
     <g id="text_4">
      <!-- $\mathdefault{30}$ -->
      <defs>
       <path d="M 23.59375 -1.203125 
C 35.296875 -1.203125 44.59375 5.703125 44.59375 17 
C 44.59375 25.796875 38.5 31.40625 30.796875 33.203125 
L 30.796875 33.59375 
C 37.703125 36.203125 42.40625 41.09375 42.40625 48.796875 
C 42.40625 59.09375 34.40625 65 23.296875 65 
C 15.796875 65 9.90625 61.59375 5 57 
L 9.40625 51.796875 
C 13.203125 55.59375 17.703125 58.296875 23 58.296875 
C 29.796875 58.296875 34 54.40625 34 48.203125 
C 34 41.5 29.5 36.296875 15.90625 36.296875 
L 15.90625 30 
C 31.09375 30 36.296875 24.90625 36.296875 17.296875 
C 36.296875 10.203125 30.796875 5.59375 23.09375 5.59375 
C 15.59375 5.59375 10.59375 9.203125 6.796875 13.203125 
L 2.59375 7.796875 
C 6.90625 3.09375 13.40625 -1.203125 23.59375 -1.203125 
" id="SourceSansPro-Regular-33"/>
      </defs>
      <g transform="translate(194.321215081 264.8215625)scale(0.12 -0.12)">
       <use xlink:href="#SourceSansPro-Regular-33"/>
       <use transform="translate(49.6999969482 0.0)" xlink:href="#SourceSansPro-Regular-30"/>
      </g>
     </g>
    </g>
    <g id="xtick_5">
     <g id="line2d_13">
      <path clip-path="url(#p34d0502b19)" d="M 244.680942 246.277187 
L 244.680942 34.584375 
" style="fill:none;opacity:0.2;stroke:#b2b2b2;stroke-linecap:square;stroke-width:0.5;"/>
     </g>
     <g id="line2d_14">
      <g>
       <use style="stroke:#000000;" x="244.680941852" xlink:href="#mec4a00af72" y="246.2771875"/>
      </g>
     </g>
     <g id="line2d_15">
      <g>
       <use style="stroke:#000000;" x="244.680941852" xlink:href="#m8a1249fe11" y="34.584375"/>
      </g>
     </g>
     <g id="text_5">
      <!-- $\mathdefault{40}$ -->
      <defs>
       <path d="M 30.40625 0 
L 38.203125 0 
L 38.203125 17.59375 
L 46.90625 17.59375 
L 46.90625 24.203125 
L 38.203125 24.203125 
L 38.203125 63.796875 
L 29 63.796875 
L 1.703125 23 
L 1.703125 17.59375 
L 30.40625 17.59375 
z
M 10.40625 24.203125 
L 25.296875 46 
C 27.09375 49.09375 28.90625 51.90625 30.5 55 
L 30.90625 55 
C 30.703125 51.59375 30.40625 46.09375 30.40625 42.703125 
L 30.40625 24.203125 
z
" id="SourceSansPro-Regular-34"/>
      </defs>
      <g transform="translate(238.680941852 264.8215625)scale(0.12 -0.12)">
       <use xlink:href="#SourceSansPro-Regular-34"/>
       <use transform="translate(49.6999969482 0.0)" xlink:href="#SourceSansPro-Regular-30"/>
      </g>
     </g>
    </g>
    <g id="xtick_6">
     <g id="line2d_16">
      <path clip-path="url(#p34d0502b19)" d="M 289.040669 246.277187 
L 289.040669 34.584375 
" style="fill:none;opacity:0.2;stroke:#b2b2b2;stroke-linecap:square;stroke-width:0.5;"/>
     </g>
     <g id="line2d_17">
      <g>
       <use style="stroke:#000000;" x="289.040668623" xlink:href="#mec4a00af72" y="246.2771875"/>
      </g>
     </g>
     <g id="line2d_18">
      <g>
       <use style="stroke:#000000;" x="289.040668623" xlink:href="#m8a1249fe11" y="34.584375"/>
      </g>
     </g>
     <g id="text_6">
      <!-- $\mathdefault{50}$ -->
      <defs>
       <path d="M 23.40625 -1.203125 
C 34.5 -1.203125 44.90625 6.59375 44.90625 20.40625 
C 44.90625 34.203125 36 40.40625 25.09375 40.40625 
C 21.203125 40.40625 18.296875 39.40625 15.296875 37.796875 
L 17 56.703125 
L 41.703125 56.703125 
L 41.703125 63.796875 
L 9.796875 63.796875 
L 7.703125 33.09375 
L 12.09375 30.296875 
C 15.90625 32.796875 18.59375 34.203125 23 34.203125 
C 31.203125 34.203125 36.59375 29 36.59375 20.203125 
C 36.59375 11.296875 30.40625 5.59375 22.59375 5.59375 
C 15.09375 5.59375 10.296875 9.09375 6.5 12.90625 
L 2.5 7.5 
C 6.90625 3.09375 13.203125 -1.203125 23.40625 -1.203125 
" id="SourceSansPro-Regular-35"/>
      </defs>
      <g transform="translate(283.040668623 264.8215625)scale(0.12 -0.12)">
       <use xlink:href="#SourceSansPro-Regular-35"/>
       <use transform="translate(49.6999969482 0.0)" xlink:href="#SourceSansPro-Regular-30"/>
      </g>
     </g>
    </g>
    <g id="xtick_7">
     <g id="line2d_19">
      <path clip-path="url(#p34d0502b19)" d="M 333.400395 246.277187 
L 333.400395 34.584375 
" style="fill:none;opacity:0.2;stroke:#b2b2b2;stroke-linecap:square;stroke-width:0.5;"/>
     </g>
     <g id="line2d_20">
      <g>
       <use style="stroke:#000000;" x="333.400395394" xlink:href="#mec4a00af72" y="246.2771875"/>
      </g>
     </g>
     <g id="line2d_21">
      <g>
       <use style="stroke:#000000;" x="333.400395394" xlink:href="#m8a1249fe11" y="34.584375"/>
      </g>
     </g>
     <g id="text_7">
      <!-- $\mathdefault{60}$ -->
      <defs>
       <path d="M 26.796875 -1.203125 
C 37.09375 -1.203125 45.703125 7.09375 45.703125 19.296875 
C 45.703125 32.40625 38.5 39 27.5 39 
C 22.296875 39 16.59375 35.90625 12.59375 31 
C 13 51.203125 20.5 58.09375 29.40625 58.09375 
C 33.40625 58.09375 37.296875 56.203125 39.90625 53.09375 
L 44.5 58.203125 
C 40.90625 62.09375 36 65 29.09375 65 
C 16.40625 65 4.796875 55.09375 4.796875 29.5 
C 4.796875 9 14.296875 -1.203125 26.796875 -1.203125 
M 26.796875 5.296875 
C 18.703125 5.296875 13.796875 12 12.796875 24.40625 
C 16.796875 30.296875 22 32.796875 26.09375 32.796875 
C 34 32.796875 37.90625 27.59375 37.90625 19.296875 
C 37.90625 10.90625 33.09375 5.296875 26.796875 5.296875 
" id="SourceSansPro-Regular-36"/>
      </defs>
      <g transform="translate(327.400395394 264.8215625)scale(0.12 -0.12)">
       <use xlink:href="#SourceSansPro-Regular-36"/>
       <use transform="translate(49.6999969482 0.0)" xlink:href="#SourceSansPro-Regular-30"/>
      </g>
     </g>
    </g>
    <g id="xtick_8">
     <g id="line2d_22">
      <path clip-path="url(#p34d0502b19)" d="M 377.760122 246.277187 
L 377.760122 34.584375 
" style="fill:none;opacity:0.2;stroke:#b2b2b2;stroke-linecap:square;stroke-width:0.5;"/>
     </g>
     <g id="line2d_23">
      <g>
       <use style="stroke:#000000;" x="377.760122165" xlink:href="#mec4a00af72" y="246.2771875"/>
      </g>
     </g>
     <g id="line2d_24">
      <g>
       <use style="stroke:#000000;" x="377.760122165" xlink:href="#m8a1249fe11" y="34.584375"/>
      </g>
     </g>
     <g id="text_8">
      <!-- $\mathdefault{70}$ -->
      <defs>
       <path d="M 17.703125 0 
L 26.203125 0 
C 27.296875 24.90625 30.40625 39.40625 45.5 58.703125 
L 45.5 63.796875 
L 4.40625 63.796875 
L 4.40625 56.703125 
L 36.203125 56.703125 
C 23.59375 39.203125 18.796875 24 17.703125 0 
" id="SourceSansPro-Regular-37"/>
      </defs>
      <g transform="translate(371.760122165 264.8215625)scale(0.12 -0.12)">
       <use xlink:href="#SourceSansPro-Regular-37"/>
       <use transform="translate(49.6999969482 0.0)" xlink:href="#SourceSansPro-Regular-30"/>
      </g>
     </g>
    </g>
    <g id="xtick_9">
     <g id="line2d_25">
      <path clip-path="url(#p34d0502b19)" d="M 422.119849 246.277187 
L 422.119849 34.584375 
" style="fill:none;opacity:0.2;stroke:#b2b2b2;stroke-linecap:square;stroke-width:0.5;"/>
     </g>
     <g id="line2d_26">
      <g>
       <use style="stroke:#000000;" x="422.119848936" xlink:href="#mec4a00af72" y="246.2771875"/>
      </g>
     </g>
     <g id="line2d_27">
      <g>
       <use style="stroke:#000000;" x="422.119848936" xlink:href="#m8a1249fe11" y="34.584375"/>
      </g>
     </g>
     <g id="text_9">
      <!-- $\mathdefault{80}$ -->
      <defs>
       <path d="M 25 -1.203125 
C 37.40625 -1.203125 45.59375 6.296875 45.59375 15.796875 
C 45.59375 24.40625 40.203125 28.90625 34.5 32.203125 
L 34.5 32.59375 
C 38.40625 35.59375 43.296875 41.296875 43.296875 48 
C 43.296875 57.90625 36.40625 65 25.296875 65 
C 15 65 7.203125 58.40625 7.203125 48.59375 
C 7.203125 41.90625 11.40625 37.203125 16.09375 33.90625 
L 16.09375 33.5 
C 10.09375 30.296875 4.09375 24.59375 4.09375 16.296875 
C 4.09375 6.203125 13 -1.203125 25 -1.203125 
M 29.5 34.796875 
C 21.796875 37.796875 14.796875 41 14.796875 48.59375 
C 14.796875 54.796875 19.203125 58.90625 25.09375 58.90625 
C 32.09375 58.90625 36.203125 53.90625 36.203125 47.59375 
C 36.203125 42.90625 33.796875 38.59375 29.5 34.796875 
M 25.203125 4.90625 
C 17.40625 4.90625 11.5 10 11.5 17.09375 
C 11.5 22.90625 15.296875 27.59375 20.40625 31 
C 29.59375 27.296875 37.703125 24.296875 37.703125 16.09375 
C 37.703125 9.5 32.59375 4.90625 25.203125 4.90625 
" id="SourceSansPro-Regular-38"/>
      </defs>
      <g transform="translate(416.119848936 264.8215625)scale(0.12 -0.12)">
       <use xlink:href="#SourceSansPro-Regular-38"/>
       <use transform="translate(49.6999969482 0.0)" xlink:href="#SourceSansPro-Regular-30"/>
      </g>
     </g>
    </g>
    <g id="text_10">
     <!-- time (Hours) -->
     <defs>
      <path d="M 27.09375 -1.203125 
C 39 -1.203125 49.59375 8.09375 49.59375 24.203125 
C 49.59375 40.5 39 49.796875 27.09375 49.796875 
C 15.203125 49.796875 4.59375 40.5 4.59375 24.203125 
C 4.59375 8.09375 15.203125 -1.203125 27.09375 -1.203125 
M 27.09375 5.59375 
C 18.796875 5.59375 13.09375 13.09375 13.09375 24.203125 
C 13.09375 35.40625 18.796875 43 27.09375 43 
C 35.5 43 41.09375 35.40625 41.09375 24.203125 
C 41.09375 13.09375 35.5 5.59375 27.09375 5.59375 
" id="SourceSansPro-Regular-6f"/>
      <path d="M 8.203125 0 
L 16.40625 0 
L 16.40625 35.203125 
C 20.90625 40.203125 25 42.703125 28.59375 42.703125 
C 34.796875 42.703125 37.703125 38.796875 37.703125 29.703125 
L 37.703125 0 
L 45.90625 0 
L 45.90625 35.203125 
C 50.40625 40.203125 54.296875 42.703125 58.09375 42.703125 
C 64.203125 42.703125 67.09375 38.796875 67.09375 29.703125 
L 67.09375 0 
L 75.296875 0 
L 75.296875 30.796875 
C 75.296875 43.203125 70.5 49.796875 60.5 49.796875 
C 54.59375 49.796875 49.59375 46 44.5 40.5 
C 42.5 46.296875 38.5 49.796875 31.09375 49.796875 
C 25.296875 49.796875 20.203125 46.203125 16 41.59375 
L 15.703125 41.59375 
L 15 48.59375 
L 8.203125 48.59375 
z
" id="SourceSansPro-Regular-6d"/>
      <path d="M 8.203125 0 
L 16.40625 0 
L 16.40625 48.59375 
L 8.203125 48.59375 
z
M 12.40625 58.59375 
C 15.59375 58.59375 18.09375 60.796875 18.09375 63.90625 
C 18.09375 67.09375 15.59375 69.203125 12.40625 69.203125 
C 9.203125 69.203125 6.703125 67.09375 6.703125 63.90625 
C 6.703125 60.796875 9.203125 58.59375 12.40625 58.59375 
" id="SourceSansPro-Regular-69"/>
      <path d="M 8.90625 -17.59375 
C 17.203125 -4.203125 22.09375 10.203125 22.09375 27.796875 
C 22.09375 45.40625 17.203125 59.796875 8.90625 73.203125 
L 3.796875 70.796875 
C 11.5 58.09375 15.296875 43 15.296875 27.796875 
C 15.296875 12.59375 11.5 -2.5 3.796875 -15.203125 
z
" id="SourceSansPro-Regular-29"/>
      <path id="SourceSansPro-Regular-20"/>
      <path d="M 9 0 
L 17.296875 0 
L 17.296875 30.90625 
L 47.796875 30.90625 
L 47.796875 0 
L 56.203125 0 
L 56.203125 65.59375 
L 47.796875 65.59375 
L 47.796875 38.09375 
L 17.296875 38.09375 
L 17.296875 65.59375 
L 9 65.59375 
z
" id="SourceSansPro-Regular-48"/>
      <path d="M 8.203125 0 
L 16.40625 0 
L 16.40625 31.203125 
C 19.703125 39.40625 24.59375 42.40625 28.703125 42.40625 
C 30.703125 42.40625 31.796875 42.09375 33.40625 41.59375 
L 35 48.796875 
C 33.40625 49.5 31.90625 49.796875 29.796875 49.796875 
C 24.296875 49.796875 19.296875 45.90625 16 39.796875 
L 15.703125 39.796875 
L 15 48.59375 
L 8.203125 48.59375 
z
" id="SourceSansPro-Regular-72"/>
      <path d="M 20.90625 -1.203125 
C 32.40625 -1.203125 38.703125 5.40625 38.703125 13.296875 
C 38.703125 22.5 30.90625 25.40625 23.90625 28 
C 18.40625 30.09375 13.09375 31.796875 13.09375 36.40625 
C 13.09375 40.09375 15.90625 43.40625 22 43.40625 
C 26.296875 43.40625 29.796875 41.59375 33.09375 39.09375 
L 37 44.296875 
C 33.296875 47.296875 28 49.796875 21.90625 49.796875 
C 11.40625 49.796875 5.203125 43.796875 5.203125 36 
C 5.203125 27.796875 12.796875 24.5 19.703125 22 
C 25 20 30.796875 17.796875 30.796875 12.796875 
C 30.796875 8.59375 27.59375 5.203125 21.203125 5.203125 
C 15.40625 5.203125 11.09375 7.59375 6.90625 11 
L 2.796875 5.5 
C 7.40625 1.703125 14 -1.203125 20.90625 -1.203125 
" id="SourceSansPro-Regular-73"/>
      <path d="M 23.5 -1.203125 
C 26.5 -1.203125 29.796875 -0.296875 32.5 0.59375 
L 30.90625 6.796875 
C 29.296875 6.203125 27.09375 5.5 25.40625 5.5 
C 19.796875 5.5 17.90625 8.90625 17.90625 14.90625 
L 17.90625 41.90625 
L 31 41.90625 
L 31 48.59375 
L 17.90625 48.59375 
L 17.90625 62.203125 
L 11 62.203125 
L 10 48.59375 
L 2.40625 48.09375 
L 2.40625 41.90625 
L 9.59375 41.90625 
L 9.59375 15 
C 9.59375 5.40625 13.09375 -1.203125 23.5 -1.203125 
" id="SourceSansPro-Regular-74"/>
      <path d="M 22.40625 -1.203125 
C 29.09375 -1.203125 33.90625 2.296875 38.40625 7.59375 
L 38.703125 7.59375 
L 39.40625 0 
L 46.203125 0 
L 46.203125 48.59375 
L 38 48.59375 
L 38 14.09375 
C 33.40625 8.40625 29.90625 5.90625 24.90625 5.90625 
C 18.5 5.90625 15.796875 9.796875 15.796875 18.90625 
L 15.796875 48.59375 
L 7.5 48.59375 
L 7.5 17.796875 
C 7.5 5.40625 12.09375 -1.203125 22.40625 -1.203125 
" id="SourceSansPro-Regular-75"/>
      <path d="M 27.90625 -1.203125 
C 34.5 -1.203125 39.703125 1.09375 43.90625 3.796875 
L 41 9.203125 
C 37.40625 6.90625 33.5 5.40625 28.90625 5.40625 
C 19.59375 5.40625 13.296875 12 12.703125 22.296875 
L 45.5 22.296875 
C 45.703125 23.5 45.796875 25.296875 45.796875 27 
C 45.796875 40.90625 38.796875 49.796875 26.40625 49.796875 
C 15.296875 49.796875 4.59375 40.09375 4.59375 24.203125 
C 4.59375 8.296875 14.90625 -1.203125 27.90625 -1.203125 
M 12.59375 28.203125 
C 13.59375 37.796875 19.796875 43.296875 26.59375 43.296875 
C 34.203125 43.296875 38.59375 38 38.59375 28.203125 
z
" id="SourceSansPro-Regular-65"/>
      <path d="M 21.40625 -17.59375 
L 26.5 -15.203125 
C 18.796875 -2.5 15 12.59375 15 27.796875 
C 15 43 18.796875 58.09375 26.5 70.796875 
L 21.40625 73.203125 
C 13.09375 59.796875 8.203125 45.40625 8.203125 27.796875 
C 8.203125 10.203125 13.09375 -4.203125 21.40625 -17.59375 
" id="SourceSansPro-Regular-28"/>
     </defs>
     <g transform="translate(208.147504352 282.25)scale(0.14 -0.14)">
      <use xlink:href="#SourceSansPro-Regular-74"/>
      <use x="33.799987793" xlink:href="#SourceSansPro-Regular-69"/>
      <use x="58.3999786377" xlink:href="#SourceSansPro-Regular-6d"/>
      <use x="141.299972534" xlink:href="#SourceSansPro-Regular-65"/>
      <use x="190.899963379" xlink:href="#SourceSansPro-Regular-20"/>
      <use x="210.89994812" xlink:href="#SourceSansPro-Regular-28"/>
      <use x="241.199935913" xlink:href="#SourceSansPro-Regular-48"/>
      <use x="306.399932861" xlink:href="#SourceSansPro-Regular-6f"/>
      <use x="360.59992981" xlink:href="#SourceSansPro-Regular-75"/>
      <use x="414.999923706" xlink:href="#SourceSansPro-Regular-72"/>
      <use x="449.699920654" xlink:href="#SourceSansPro-Regular-73"/>
      <use x="491.599914551" xlink:href="#SourceSansPro-Regular-29"/>
     </g>
    </g>
   </g>
   <g id="matplotlib.axis_2">
    <g id="ytick_1">
     <g id="line2d_28">
      <path clip-path="url(#p34d0502b19)" d="M 66.798438 246.277187 
L 422.563446 246.277187 
" style="fill:none;opacity:0.2;stroke:#b2b2b2;stroke-linecap:square;stroke-width:0.5;"/>
     </g>
     <g id="line2d_29">
      <defs>
       <path d="M 0 0 
L -4 0 
" id="m1da14bc8ad" style="stroke:#000000;"/>
      </defs>
      <g>
       <use style="stroke:#000000;" x="66.7984375" xlink:href="#m1da14bc8ad" y="246.2771875"/>
      </g>
     </g>
     <g id="line2d_30">
      <defs>
       <path d="M 0 0 
L 4 0 
" id="m3fd18d442a" style="stroke:#000000;"/>
      </defs>
      <g>
       <use style="stroke:#000000;" x="422.563446203" xlink:href="#m3fd18d442a" y="246.2771875"/>
      </g>
     </g>
     <g id="text_11">
      <!-- $\mathdefault{0.0}$ -->
      <defs>
       <path d="M 12.5 -1.203125 
C 15.703125 -1.203125 18.40625 1.40625 18.40625 5 
C 18.40625 8.796875 15.703125 11.40625 12.5 11.40625 
C 9.203125 11.40625 6.5 8.796875 6.5 5 
C 6.5 1.40625 9.203125 -1.203125 12.5 -1.203125 
" id="SourceSansPro-Regular-2e"/>
      </defs>
      <g transform="translate(39.8784375 249.319375)scale(0.12 -0.12)">
       <use xlink:href="#SourceSansPro-Regular-30"/>
       <use transform="translate(49.6999969482 0.0)" xlink:href="#SourceSansPro-Regular-2e"/>
       <use transform="translate(91.179989624 0.0)" xlink:href="#SourceSansPro-Regular-30"/>
      </g>
     </g>
    </g>
    <g id="ytick_2">
     <g id="line2d_31">
      <path clip-path="url(#p34d0502b19)" d="M 66.798438 222.755764 
L 422.563446 222.755764 
" style="fill:none;opacity:0.2;stroke:#b2b2b2;stroke-linecap:square;stroke-width:0.5;"/>
     </g>
     <g id="line2d_32">
      <g>
       <use style="stroke:#000000;" x="66.7984375" xlink:href="#m1da14bc8ad" y="222.755763889"/>
      </g>
     </g>
     <g id="line2d_33">
      <g>
       <use style="stroke:#000000;" x="422.563446203" xlink:href="#m3fd18d442a" y="222.755763889"/>
      </g>
     </g>
     <g id="text_12">
      <!-- $\mathdefault{0.2}$ -->
      <g transform="translate(39.8784375 225.797951389)scale(0.12 -0.12)">
       <use xlink:href="#SourceSansPro-Regular-30"/>
       <use transform="translate(49.6999969482 0.0)" xlink:href="#SourceSansPro-Regular-2e"/>
       <use transform="translate(91.179989624 0.0)" xlink:href="#SourceSansPro-Regular-32"/>
      </g>
     </g>
    </g>
    <g id="ytick_3">
     <g id="line2d_34">
      <path clip-path="url(#p34d0502b19)" d="M 66.798438 199.23434 
L 422.563446 199.23434 
" style="fill:none;opacity:0.2;stroke:#b2b2b2;stroke-linecap:square;stroke-width:0.5;"/>
     </g>
     <g id="line2d_35">
      <g>
       <use style="stroke:#000000;" x="66.7984375" xlink:href="#m1da14bc8ad" y="199.234340278"/>
      </g>
     </g>
     <g id="line2d_36">
      <g>
       <use style="stroke:#000000;" x="422.563446203" xlink:href="#m3fd18d442a" y="199.234340278"/>
      </g>
     </g>
     <g id="text_13">
      <!-- $\mathdefault{0.4}$ -->
      <g transform="translate(39.8784375 202.276527778)scale(0.12 -0.12)">
       <use xlink:href="#SourceSansPro-Regular-30"/>
       <use transform="translate(49.6999969482 0.0)" xlink:href="#SourceSansPro-Regular-2e"/>
       <use transform="translate(91.179989624 0.0)" xlink:href="#SourceSansPro-Regular-34"/>
      </g>
     </g>
    </g>
    <g id="ytick_4">
     <g id="line2d_37">
      <path clip-path="url(#p34d0502b19)" d="M 66.798438 175.712917 
L 422.563446 175.712917 
" style="fill:none;opacity:0.2;stroke:#b2b2b2;stroke-linecap:square;stroke-width:0.5;"/>
     </g>
     <g id="line2d_38">
      <g>
       <use style="stroke:#000000;" x="66.7984375" xlink:href="#m1da14bc8ad" y="175.712916667"/>
      </g>
     </g>
     <g id="line2d_39">
      <g>
       <use style="stroke:#000000;" x="422.563446203" xlink:href="#m3fd18d442a" y="175.712916667"/>
      </g>
     </g>
     <g id="text_14">
      <!-- $\mathdefault{0.6}$ -->
      <g transform="translate(39.8784375 178.755104167)scale(0.12 -0.12)">
       <use xlink:href="#SourceSansPro-Regular-30"/>
       <use transform="translate(49.6999969482 0.0)" xlink:href="#SourceSansPro-Regular-2e"/>
       <use transform="translate(91.179989624 0.0)" xlink:href="#SourceSansPro-Regular-36"/>
      </g>
     </g>
    </g>
    <g id="ytick_5">
     <g id="line2d_40">
      <path clip-path="url(#p34d0502b19)" d="M 66.798438 152.191493 
L 422.563446 152.191493 
" style="fill:none;opacity:0.2;stroke:#b2b2b2;stroke-linecap:square;stroke-width:0.5;"/>
     </g>
     <g id="line2d_41">
      <g>
       <use style="stroke:#000000;" x="66.7984375" xlink:href="#m1da14bc8ad" y="152.191493056"/>
      </g>
     </g>
     <g id="line2d_42">
      <g>
       <use style="stroke:#000000;" x="422.563446203" xlink:href="#m3fd18d442a" y="152.191493056"/>
      </g>
     </g>
     <g id="text_15">
      <!-- $\mathdefault{0.8}$ -->
      <g transform="translate(39.8784375 155.233680556)scale(0.12 -0.12)">
       <use xlink:href="#SourceSansPro-Regular-30"/>
       <use transform="translate(49.6999969482 0.0)" xlink:href="#SourceSansPro-Regular-2e"/>
       <use transform="translate(91.179989624 0.0)" xlink:href="#SourceSansPro-Regular-38"/>
      </g>
     </g>
    </g>
    <g id="ytick_6">
     <g id="line2d_43">
      <path clip-path="url(#p34d0502b19)" d="M 66.798438 128.670069 
L 422.563446 128.670069 
" style="fill:none;opacity:0.2;stroke:#b2b2b2;stroke-linecap:square;stroke-width:0.5;"/>
     </g>
     <g id="line2d_44">
      <g>
       <use style="stroke:#000000;" x="66.7984375" xlink:href="#m1da14bc8ad" y="128.670069444"/>
      </g>
     </g>
     <g id="line2d_45">
      <g>
       <use style="stroke:#000000;" x="422.563446203" xlink:href="#m3fd18d442a" y="128.670069444"/>
      </g>
     </g>
     <g id="text_16">
      <!-- $\mathdefault{1.0}$ -->
      <g transform="translate(39.8784375 131.712256944)scale(0.12 -0.12)">
       <use xlink:href="#SourceSansPro-Regular-31"/>
       <use transform="translate(49.6999969482 0.0)" xlink:href="#SourceSansPro-Regular-2e"/>
       <use transform="translate(91.179989624 0.0)" xlink:href="#SourceSansPro-Regular-30"/>
      </g>
     </g>
    </g>
    <g id="ytick_7">
     <g id="line2d_46">
      <path clip-path="url(#p34d0502b19)" d="M 66.798438 105.148646 
L 422.563446 105.148646 
" style="fill:none;opacity:0.2;stroke:#b2b2b2;stroke-linecap:square;stroke-width:0.5;"/>
     </g>
     <g id="line2d_47">
      <g>
       <use style="stroke:#000000;" x="66.7984375" xlink:href="#m1da14bc8ad" y="105.148645833"/>
      </g>
     </g>
     <g id="line2d_48">
      <g>
       <use style="stroke:#000000;" x="422.563446203" xlink:href="#m3fd18d442a" y="105.148645833"/>
      </g>
     </g>
     <g id="text_17">
      <!-- $\mathdefault{1.2}$ -->
      <g transform="translate(39.8784375 108.190833333)scale(0.12 -0.12)">
       <use xlink:href="#SourceSansPro-Regular-31"/>
       <use transform="translate(49.6999969482 0.0)" xlink:href="#SourceSansPro-Regular-2e"/>
       <use transform="translate(91.179989624 0.0)" xlink:href="#SourceSansPro-Regular-32"/>
      </g>
     </g>
    </g>
    <g id="ytick_8">
     <g id="line2d_49">
      <path clip-path="url(#p34d0502b19)" d="M 66.798438 81.627222 
L 422.563446 81.627222 
" style="fill:none;opacity:0.2;stroke:#b2b2b2;stroke-linecap:square;stroke-width:0.5;"/>
     </g>
     <g id="line2d_50">
      <g>
       <use style="stroke:#000000;" x="66.7984375" xlink:href="#m1da14bc8ad" y="81.6272222222"/>
      </g>
     </g>
     <g id="line2d_51">
      <g>
       <use style="stroke:#000000;" x="422.563446203" xlink:href="#m3fd18d442a" y="81.6272222222"/>
      </g>
     </g>
     <g id="text_18">
      <!-- $\mathdefault{1.4}$ -->
      <g transform="translate(39.8784375 84.6694097222)scale(0.12 -0.12)">
       <use transform="translate(0.0 0.203125)" xlink:href="#SourceSansPro-Regular-31"/>
       <use transform="translate(49.6999969482 0.203125)" xlink:href="#SourceSansPro-Regular-2e"/>
       <use transform="translate(91.179989624 0.203125)" xlink:href="#SourceSansPro-Regular-34"/>
      </g>
     </g>
    </g>
    <g id="ytick_9">
     <g id="line2d_52">
      <path clip-path="url(#p34d0502b19)" d="M 66.798438 58.105799 
L 422.563446 58.105799 
" style="fill:none;opacity:0.2;stroke:#b2b2b2;stroke-linecap:square;stroke-width:0.5;"/>
     </g>
     <g id="line2d_53">
      <g>
       <use style="stroke:#000000;" x="66.7984375" xlink:href="#m1da14bc8ad" y="58.1057986111"/>
      </g>
     </g>
     <g id="line2d_54">
      <g>
       <use style="stroke:#000000;" x="422.563446203" xlink:href="#m3fd18d442a" y="58.1057986111"/>
      </g>
     </g>
     <g id="text_19">
      <!-- $\mathdefault{1.6}$ -->
      <g transform="translate(39.8784375 61.1479861111)scale(0.12 -0.12)">
       <use xlink:href="#SourceSansPro-Regular-31"/>
       <use transform="translate(49.6999969482 0.0)" xlink:href="#SourceSansPro-Regular-2e"/>
       <use transform="translate(91.179989624 0.0)" xlink:href="#SourceSansPro-Regular-36"/>
      </g>
     </g>
    </g>
    <g id="ytick_10">
     <g id="line2d_55">
      <path clip-path="url(#p34d0502b19)" d="M 66.798438 34.584375 
L 422.563446 34.584375 
" style="fill:none;opacity:0.2;stroke:#b2b2b2;stroke-linecap:square;stroke-width:0.5;"/>
     </g>
     <g id="line2d_56">
      <g>
       <use style="stroke:#000000;" x="66.7984375" xlink:href="#m1da14bc8ad" y="34.584375"/>
      </g>
     </g>
     <g id="line2d_57">
      <g>
       <use style="stroke:#000000;" x="422.563446203" xlink:href="#m3fd18d442a" y="34.584375"/>
      </g>
     </g>
     <g id="text_20">
      <!-- $\mathdefault{1.8}$ -->
      <g transform="translate(39.8784375 37.6265625)scale(0.12 -0.12)">
       <use xlink:href="#SourceSansPro-Regular-31"/>
       <use transform="translate(49.6999969482 0.0)" xlink:href="#SourceSansPro-Regular-2e"/>
       <use transform="translate(91.179989624 0.0)" xlink:href="#SourceSansPro-Regular-38"/>
      </g>
     </g>
    </g>
    <g id="text_21">
     <!-- Number of Cells -->
     <defs>
      <path d="M 16.90625 -1.203125 
C 19.09375 -1.203125 20.5 -0.90625 21.59375 -0.40625 
L 20.5 5.796875 
C 19.59375 5.59375 19.203125 5.59375 18.703125 5.59375 
C 17.5 5.59375 16.40625 6.59375 16.40625 9.203125 
L 16.40625 71.203125 
L 8.203125 71.203125 
L 8.203125 9.796875 
C 8.203125 2.703125 10.703125 -1.203125 16.90625 -1.203125 
" id="SourceSansPro-Regular-6c"/>
      <path d="M 29.703125 -1.203125 
C 40.796875 -1.203125 50.703125 8.5 50.703125 25.09375 
C 50.703125 40.09375 44 49.796875 31.40625 49.796875 
C 26 49.796875 20.59375 46.90625 16.203125 43 
L 16.40625 51.796875 
L 16.40625 71.203125 
L 8.203125 71.203125 
L 8.203125 0 
L 14.796875 0 
L 15.5 5 
L 15.796875 5 
C 20.09375 1.09375 25.203125 -1.203125 29.703125 -1.203125 
M 28.296875 5.703125 
C 25.09375 5.703125 20.703125 7.09375 16.40625 10.796875 
L 16.40625 36.296875 
C 21 40.59375 25.296875 42.90625 29.40625 42.90625 
C 38.59375 42.90625 42.203125 35.703125 42.203125 25 
C 42.203125 13 36.296875 5.703125 28.296875 5.703125 
" id="SourceSansPro-Regular-62"/>
      <path d="M 33.796875 -1.203125 
C 42.296875 -1.203125 48.703125 2.296875 53.90625 8.296875 
L 49.296875 13.5 
C 45.09375 8.90625 40.40625 6.09375 34.09375 6.09375 
C 21.703125 6.09375 13.796875 16.5 13.796875 33 
C 13.796875 49.296875 22 59.5 34.40625 59.5 
C 40 59.5 44.296875 57 47.796875 53.296875 
L 52.296875 58.703125 
C 48.5 63 42.296875 66.796875 34.296875 66.796875 
C 17.59375 66.796875 5.203125 53.90625 5.203125 32.796875 
C 5.203125 11.40625 17.40625 -1.203125 33.796875 -1.203125 
" id="SourceSansPro-Regular-43"/>
      <path d="M 9 0 
L 16.90625 0 
L 16.90625 34.296875 
C 16.90625 41.203125 16.296875 48.203125 15.796875 54.796875 
L 16.203125 54.796875 
L 23.296875 41.296875 
L 47.09375 0 
L 55.703125 0 
L 55.703125 65.59375 
L 47.796875 65.59375 
L 47.796875 31.703125 
C 47.796875 24.796875 48.40625 17.40625 48.796875 10.796875 
L 48.40625 10.796875 
L 41.296875 24.40625 
L 17.59375 65.59375 
L 9 65.59375 
z
" id="SourceSansPro-Regular-4e"/>
      <path d="M 9.59375 0 
L 17.796875 0 
L 17.796875 41.90625 
L 28.09375 41.90625 
L 28.09375 48.59375 
L 17.796875 48.59375 
L 17.796875 56.296875 
C 17.796875 62.5 20 65.703125 24.59375 65.703125 
C 26.40625 65.703125 28.296875 65.296875 30.09375 64.5 
L 31.90625 70.796875 
C 29.703125 71.703125 26.796875 72.40625 23.796875 72.40625 
C 14.09375 72.40625 9.59375 66.203125 9.59375 56.296875 
L 9.59375 48.59375 
L 3 48.09375 
L 3 41.90625 
L 9.59375 41.90625 
z
" id="SourceSansPro-Regular-66"/>
     </defs>
     <g transform="translate(32.0084375 186.9534375)rotate(-90.0)scale(0.14 -0.14)">
      <use xlink:href="#SourceSansPro-Regular-4e"/>
      <use x="64.6999969482" xlink:href="#SourceSansPro-Regular-75"/>
      <use x="119.099990845" xlink:href="#SourceSansPro-Regular-6d"/>
      <use x="201.999984741" xlink:href="#SourceSansPro-Regular-62"/>
      <use x="257.299972534" xlink:href="#SourceSansPro-Regular-65"/>
      <use x="306.899963379" xlink:href="#SourceSansPro-Regular-72"/>
      <use x="341.599960327" xlink:href="#SourceSansPro-Regular-20"/>
      <use x="361.599945068" xlink:href="#SourceSansPro-Regular-6f"/>
      <use x="415.799942017" xlink:href="#SourceSansPro-Regular-66"/>
      <use x="444.999938965" xlink:href="#SourceSansPro-Regular-20"/>
      <use x="464.999923706" xlink:href="#SourceSansPro-Regular-43"/>
      <use x="522.099914551" xlink:href="#SourceSansPro-Regular-65"/>
      <use x="571.699905396" xlink:href="#SourceSansPro-Regular-6c"/>
      <use x="597.199890137" xlink:href="#SourceSansPro-Regular-6c"/>
      <use x="622.699874878" xlink:href="#SourceSansPro-Regular-73"/>
     </g>
    </g>
    <g id="text_22">
     <!-- $\times\mathdefault{10^{4}}\mathdefault{}$ -->
     <defs>
      <path d="M 9.40625 12.59375 
L 24.90625 28.59375 
L 40.296875 12.59375 
L 44.703125 17.09375 
L 29.203125 33 
L 44.703125 48.796875 
L 40.296875 53.296875 
L 24.90625 37.40625 
L 9.40625 53.296875 
L 5 48.796875 
L 20.5 33 
L 5 17.09375 
z
" id="SourceSansPro-Regular-d7"/>
     </defs>
     <g transform="translate(66.7984375 31.584375)scale(0.12 -0.12)">
      <use transform="translate(0.0 0.475)" xlink:href="#SourceSansPro-Regular-d7"/>
      <use transform="translate(49.6999969482 0.475)" xlink:href="#SourceSansPro-Regular-31"/>
      <use transform="translate(99.3999938965 0.475)" xlink:href="#SourceSansPro-Regular-30"/>
      <use transform="translate(151.65116272 22.3421875)scale(0.7)" xlink:href="#SourceSansPro-Regular-34"/>
     </g>
    </g>
   </g>
   <g id="LineCollection_1">
    <path clip-path="url(#p34d0502b19)" d="M 67.242035 233.256119 
L 67.242035 232.632802 
" style="fill:none;stroke:#000000;stroke-width:2.0;"/>
    <path clip-path="url(#p34d0502b19)" d="M 280.168723 185.945716 
L 280.168723 177.064418 
" style="fill:none;stroke:#000000;stroke-width:2.0;"/>
    <path clip-path="url(#p34d0502b19)" d="M 386.632068 74.261096 
L 386.632068 54.644229 
" style="fill:none;stroke:#000000;stroke-width:2.0;"/>
   </g>
   <g id="line2d_58">
    <defs>
     <path d="M 3 0 
L -3 -0 
" id="mf215d4491c" style="stroke:#000000;stroke-width:2.0;"/>
    </defs>
    <g clip-path="url(#p34d0502b19)">
     <use style="stroke:#000000;stroke-width:2.0;" x="67.2420347677" xlink:href="#mf215d4491c" y="233.256119413"/>
     <use style="stroke:#000000;stroke-width:2.0;" x="280.168723268" xlink:href="#mf215d4491c" y="185.945715997"/>
     <use style="stroke:#000000;stroke-width:2.0;" x="386.632067519" xlink:href="#mf215d4491c" y="74.2610963947"/>
    </g>
   </g>
   <g id="line2d_59">
    <g clip-path="url(#p34d0502b19)">
     <use style="stroke:#000000;stroke-width:2.0;" x="67.2420347677" xlink:href="#mf215d4491c" y="232.632801687"/>
     <use style="stroke:#000000;stroke-width:2.0;" x="280.168723268" xlink:href="#mf215d4491c" y="177.064418465"/>
     <use style="stroke:#000000;stroke-width:2.0;" x="386.632067519" xlink:href="#mf215d4491c" y="54.644229103"/>
    </g>
   </g>
   <g id="line2d_60">
    <path clip-path="url(#p34d0502b19)" d="M 67.242035 232.944461 
L 280.168723 181.505067 
L 386.632068 64.452663 
" style="fill:none;stroke:#000000;stroke-dasharray:1.000000,3.000000;stroke-dashoffset:0.0;stroke-linecap:round;stroke-width:2.0;"/>
   </g>
   <g id="line2d_61">
    <defs>
     <path d="M 0 1.75 
C 0.464105 1.75 0.909265 1.565609 1.237437 1.237437 
C 1.565609 0.909265 1.75 0.464105 1.75 0 
C 1.75 -0.464105 1.565609 -0.909265 1.237437 -1.237437 
C 0.909265 -1.565609 0.464105 -1.75 0 -1.75 
C -0.464105 -1.75 -0.909265 -1.565609 -1.237437 -1.237437 
C -1.565609 -0.909265 -1.75 -0.464105 -1.75 0 
C -1.75 0.464105 -1.565609 0.909265 -1.237437 1.237437 
C -0.909265 1.565609 -0.464105 1.75 0 1.75 
z
" id="mdbca3ddea3" style="stroke:#000000;stroke-width:2.0;"/>
    </defs>
    <g clip-path="url(#p34d0502b19)">
     <use style="opacity:0.5;stroke:#000000;stroke-width:2.0;" x="67.2420347677" xlink:href="#mdbca3ddea3" y="232.321142824"/>
    </g>
   </g>
   <g id="line2d_62">
    <g clip-path="url(#p34d0502b19)">
     <use style="opacity:0.5;stroke:#000000;stroke-width:2.0;" x="67.2420347677" xlink:href="#mdbca3ddea3" y="233.567778275"/>
    </g>
   </g>
   <g id="line2d_63">
    <g clip-path="url(#p34d0502b19)">
     <use style="opacity:0.5;stroke:#000000;stroke-width:2.0;" x="280.168723268" xlink:href="#mdbca3ddea3" y="190.386364763"/>
    </g>
   </g>
   <g id="line2d_64">
    <g clip-path="url(#p34d0502b19)">
     <use style="opacity:0.5;stroke:#000000;stroke-width:2.0;" x="280.168723268" xlink:href="#mdbca3ddea3" y="172.623769699"/>
    </g>
   </g>
   <g id="line2d_65">
    <g clip-path="url(#p34d0502b19)">
     <use style="opacity:0.5;stroke:#000000;stroke-width:2.0;" x="386.632067519" xlink:href="#mdbca3ddea3" y="84.0695300405"/>
    </g>
   </g>
   <g id="line2d_66">
    <g clip-path="url(#p34d0502b19)">
     <use style="opacity:0.5;stroke:#000000;stroke-width:2.0;" x="386.632067519" xlink:href="#mdbca3ddea3" y="44.8357954572"/>
    </g>
   </g>
   <g id="patch_3">
    <path d="M 66.798438 34.584375 
L 422.563446 34.584375 
" style="fill:none;stroke:#000000;stroke-linecap:square;stroke-linejoin:miter;"/>
   </g>
   <g id="patch_4">
    <path d="M 422.563446 246.277187 
L 422.563446 34.584375 
" style="fill:none;stroke:#000000;stroke-linecap:square;stroke-linejoin:miter;"/>
   </g>
   <g id="patch_5">
    <path d="M 66.798438 246.277187 
L 422.563446 246.277187 
" style="fill:none;stroke:#000000;stroke-linecap:square;stroke-linejoin:miter;"/>
   </g>
   <g id="patch_6">
    <path d="M 66.798438 246.277187 
L 66.798438 34.584375 
" style="fill:none;stroke:#000000;stroke-linecap:square;stroke-linejoin:miter;"/>
   </g>
   <g id="legend_1">
    <g id="patch_7">
     <path d="M 434.643446 154.793406 
L 542.008946 154.793406 
Q 544.888946 154.793406 544.888946 151.913406 
L 544.888946 132.948156 
Q 544.888946 130.068156 542.008946 130.068156 
L 434.643446 130.068156 
Q 431.763446 130.068156 431.763446 132.948156 
L 431.763446 151.913406 
Q 431.763446 154.793406 434.643446 154.793406 
z
" style="fill:#4c4c4c;opacity:0.5;stroke:#4c4c4c;stroke-linejoin:miter;"/>
    </g>
    <g id="patch_8">
     <path d="M 432.643446 152.793406 
L 540.008946 152.793406 
Q 542.888946 152.793406 542.888946 149.913406 
L 542.888946 130.948156 
Q 542.888946 128.068156 540.008946 128.068156 
L 432.643446 128.068156 
Q 429.763446 128.068156 429.763446 130.948156 
L 429.763446 149.913406 
Q 429.763446 152.793406 432.643446 152.793406 
z
" style="fill:#ffffff;stroke:#000000;stroke-linejoin:miter;"/>
    </g>
    <g id="LineCollection_2">
     <path d="M 449.923446 146.241406 
L 449.923446 131.841406 
" style="fill:none;stroke:#000000;stroke-width:2.0;"/>
    </g>
    <g id="line2d_67">
     <g>
      <use style="stroke:#000000;stroke-width:2.0;" x="449.923446203" xlink:href="#mf215d4491c" y="146.24140625"/>
     </g>
    </g>
    <g id="line2d_68">
     <g>
      <use style="stroke:#000000;stroke-width:2.0;" x="449.923446203" xlink:href="#mf215d4491c" y="131.84140625"/>
     </g>
    </g>
    <g id="line2d_69">
     <path d="M 435.523446 139.041406 
L 464.323446 139.041406 
" style="fill:none;stroke:#000000;stroke-dasharray:1.000000,3.000000;stroke-dashoffset:0.0;stroke-linecap:round;stroke-width:2.0;"/>
    </g>
    <g id="line2d_70"/>
    <g id="text_23">
     <!-- Total cells -->
     <defs>
      <path d="M 27.40625 -1.203125 
C 33.203125 -1.203125 38.703125 1.09375 43.09375 5 
L 39.5 10.5 
C 36.5 7.796875 32.59375 5.59375 28.09375 5.59375 
C 19.203125 5.59375 13.09375 13.09375 13.09375 24.203125 
C 13.09375 35.40625 19.5 43 28.296875 43 
C 32.203125 43 35.203125 41.203125 38 38.703125 
L 42.203125 44.09375 
C 38.796875 47.203125 34.40625 49.796875 28 49.796875 
C 15.5 49.796875 4.59375 40.5 4.59375 24.203125 
C 4.59375 8.09375 14.5 -1.203125 27.40625 -1.203125 
" id="SourceSansPro-Regular-63"/>
      <path d="M 22.59375 0 
L 31 0 
L 31 58.59375 
L 50.796875 58.59375 
L 50.796875 65.59375 
L 2.796875 65.59375 
L 2.796875 58.59375 
L 22.59375 58.59375 
z
" id="SourceSansPro-Regular-54"/>
      <path d="M 19.40625 -1.203125 
C 25.5 -1.203125 30.90625 2 35.5 5.796875 
L 35.796875 5.796875 
L 36.5 0 
L 43.296875 0 
L 43.296875 29.796875 
C 43.296875 41.90625 38.296875 49.796875 26.40625 49.796875 
C 18.59375 49.796875 11.796875 46.40625 7.296875 43.5 
L 10.5 37.796875 
C 14.296875 40.40625 19.40625 43 25 43 
C 33 43 35 37 35 30.796875 
C 14.296875 28.5 5.203125 23.203125 5.203125 12.59375 
C 5.203125 3.90625 11.296875 -1.203125 19.40625 -1.203125 
M 21.796875 5.40625 
C 17 5.40625 13.203125 7.703125 13.203125 13.203125 
C 13.203125 19.40625 18.796875 23.40625 35 25.40625 
L 35 11.90625 
C 30.296875 7.703125 26.5 5.40625 21.796875 5.40625 
" id="SourceSansPro-Regular-61"/>
     </defs>
     <g transform="translate(475.843446203 144.08140625)scale(0.144 -0.144)">
      <use xlink:href="#SourceSansPro-Regular-54"/>
      <use x="53.5999908447" xlink:href="#SourceSansPro-Regular-6f"/>
      <use x="107.799987793" xlink:href="#SourceSansPro-Regular-74"/>
      <use x="141.599975586" xlink:href="#SourceSansPro-Regular-61"/>
      <use x="191.999969482" xlink:href="#SourceSansPro-Regular-6c"/>
      <use x="217.499954224" xlink:href="#SourceSansPro-Regular-20"/>
      <use x="237.499938965" xlink:href="#SourceSansPro-Regular-63"/>
      <use x="283.09992981" xlink:href="#SourceSansPro-Regular-65"/>
      <use x="332.699920654" xlink:href="#SourceSansPro-Regular-6c"/>
      <use x="358.199905396" xlink:href="#SourceSansPro-Regular-6c"/>
      <use x="383.699890137" xlink:href="#SourceSansPro-Regular-73"/>
     </g>
    </g>
   </g>
  </g>
  <g id="text_24">
   <!-- Data provided -->
   <defs>
    <path d="M 8.203125 -20.5 
L 16.40625 -20.5 
L 16.40625 -4.09375 
L 16.203125 4.40625 
C 20.703125 0.90625 25.203125 -1.203125 29.703125 -1.203125 
C 40.796875 -1.203125 50.703125 8.5 50.703125 25 
C 50.703125 40.09375 44 49.796875 31.5 49.796875 
C 25.796875 49.796875 20.40625 46.703125 16 43 
L 15.703125 43 
L 15 48.59375 
L 8.203125 48.59375 
z
M 28.296875 5.703125 
C 25.09375 5.703125 20.796875 7.09375 16.40625 10.796875 
L 16.40625 36.296875 
C 21.203125 40.59375 25.296875 42.90625 29.40625 42.90625 
C 38.59375 42.90625 42.203125 35.703125 42.203125 25 
C 42.203125 13 36.296875 5.703125 28.296875 5.703125 
" id="SourceSansPro-Regular-70"/>
    <path d="M 9 0 
L 25.796875 0 
C 45.59375 0 56.40625 12.203125 56.40625 33.09375 
C 56.40625 53.90625 45.59375 65.59375 25.40625 65.59375 
L 9 65.59375 
z
M 17.296875 6.796875 
L 17.296875 58.796875 
L 24.796875 58.796875 
C 40.09375 58.796875 47.796875 49.59375 47.796875 33.09375 
C 47.796875 16.5 40.09375 6.796875 24.796875 6.796875 
z
" id="SourceSansPro-Regular-44"/>
    <path d="M 18.703125 0 
L 28.296875 0 
L 45.5 48.59375 
L 37.40625 48.59375 
L 28.203125 21 
C 26.796875 16.203125 25.203125 11.296875 23.796875 6.703125 
L 23.40625 6.703125 
C 21.90625 11.296875 20.296875 16.203125 18.90625 21 
L 9.703125 48.59375 
L 1.203125 48.59375 
z
" id="SourceSansPro-Regular-76"/>
    <path d="M 24.796875 -1.203125 
C 30.5 -1.203125 35.703125 2 39.5 5.703125 
L 39.796875 5.703125 
L 40.5 0 
L 47.296875 0 
L 47.296875 71.203125 
L 39 71.203125 
L 39 52.5 
L 39.40625 44.203125 
C 35.09375 47.703125 31.40625 49.796875 25.796875 49.796875 
C 14.703125 49.796875 4.703125 40 4.703125 24.203125 
C 4.703125 8 12.59375 -1.203125 24.796875 -1.203125 
M 26.59375 5.703125 
C 18.09375 5.703125 13.203125 12.703125 13.203125 24.296875 
C 13.203125 35.40625 19.40625 42.90625 27.203125 42.90625 
C 31.203125 42.90625 34.90625 41.5 39 37.796875 
L 39 12.40625 
C 35 7.90625 31.09375 5.703125 26.59375 5.703125 
" id="SourceSansPro-Regular-64"/>
   </defs>
   <g transform="translate(153.99125 24.28875)scale(0.24 -0.24)">
    <use xlink:href="#SourceSansPro-Regular-44"/>
    <use x="61.4999847412" xlink:href="#SourceSansPro-Regular-61"/>
    <use x="111.899978638" xlink:href="#SourceSansPro-Regular-74"/>
    <use x="145.699966431" xlink:href="#SourceSansPro-Regular-61"/>
    <use x="196.099960327" xlink:href="#SourceSansPro-Regular-20"/>
    <use x="216.099945068" xlink:href="#SourceSansPro-Regular-70"/>
    <use x="271.59992981" xlink:href="#SourceSansPro-Regular-72"/>
    <use x="306.299926758" xlink:href="#SourceSansPro-Regular-6f"/>
    <use x="360.499923706" xlink:href="#SourceSansPro-Regular-76"/>
    <use x="407.199920654" xlink:href="#SourceSansPro-Regular-69"/>
    <use x="431.799911499" xlink:href="#SourceSansPro-Regular-64"/>
    <use x="487.29989624" xlink:href="#SourceSansPro-Regular-65"/>
    <use x="536.899887085" xlink:href="#SourceSansPro-Regular-64"/>
   </g>
  </g>
 </g>
 <defs>
  <clipPath id="p34d0502b19">
   <rect height="211.6928125" width="355.765008703" x="66.7984375" y="34.584375"/>
  </clipPath>
 </defs>
</svg>
