<table>
<tr><th>Parameter    </th><th>   Value</th><th>  Std. Error</th><th>units          </th><th>  Inv_value</th></tr>
<tr><td>growth_rate  </td><td>0.0277  </td><td>0.0019      </td><td>1/hours        </td><td>36.1       </td></tr>
<tr><td>seeding_cells</td><td>3.13e+03</td><td>255         </td><td>number of cells</td><td>0.00032    </td></tr>
</table>