Name,MAPE,Warning
Live cells model (with logistic limits),1.97e-12,
Total cells model (with logistic limits),7.75e-12,
Live cells model (with cell death and logistic limits),1.47,(c)
Live cells model,2.14,
Total cells model,2.15,
Live cells model (with cell death),2.29,(c)
