Name,Reduced_Chi_Squared,Warning
Live cells model (with logistic limits),1.16e-22,
Total cells model (with logistic limits),1.73e-21,
Live cells model (with cell death and logistic limits),0.116,(c)
Live cells model (with cell death),20,(c)
Live cells model,39.8,
Total cells model,40.5,
