<?xml version="1.0" encoding="UTF-8"?>
<MultiCellDS version="0.0" type="cell_line">
	<cell_line MultiCellDB_ID="-1" ID="0" MultiCellDB_name="Synthetic Data" label="synthetic_data">
		<metadata>
			<description>
				Digital cell line for synthetic_data cells, generated from data provided by Edwin Juarez on 2016-03-08. These are Synthetic Data.
			</description>
			<citation>
				<text>
					If this digital cell line is used in a publication, cite it as:
					"These are the results from running CellPD (Version 1.0)..."
					[1] E. Juarez et al., CellPD: A Cell Line Digitizer to estimate and record critical cell line growth parameters (2016, in preparation)
					[2] S. H. Friedman et al., Recording microenvironment-dependent cell phenotypes as digital cell lines with MultiCellDS (2016, in preparation)
				</text>			
				<URL>N/A</URL>
			</citation>
			<curation curated="false">  
				<created>2016-03-08T13:27:50.328303-08:00</created>
				<last_modified>2016-03-08T13:27:50.328303-08:00</last_modified>
				<version>1.0</version>
				<creator>
					<orcid-identifier>
						<path>0000-0003-1062-3642</path>
						<given-names>Edwin</given-names>		
						<family-name>Juarez</family-name>
						<email>juarezro@usc.edu</email>
						<url>MathCancer.org</url>
						<organization-name>University of Southern California</organization-name>
						<department-name>Electrical Engineering</department-name>
					</orcid-identifier>
				</creator>
				<current_contact>  
					<orcid-identifier>
						<path>0000-0003-1062-3642</path>
						<given-names>Edwin</given-names>		
						<family-name>Juarez</family-name>
						<email>juarezro@usc.edu</email>
						<url>MathCancer.org</url>
						<organization-name>University of Southern California</organization-name>
						<department-name>Electrical Engineering</department-name>
					</orcid-identifier>
				</current_contact>
				<curator>  
					<orcid-identifier>
						<path>0000-0003-1062-3642</path>
						<given-names>Edwin</given-names>		
						<family-name>Juarez</family-name>
						<email>juarezro@usc.edu</email>
						<url>http://MathCancer.org</url>
						<organization-name>University of Southern California</organization-name>
						<department-name>Center for Applied Molecular Medicine</department-name>
					</orcid-identifier>
				</curator>
				<last_modified_by>
					<orcid-identifier>
						<path>0000-0003-1062-3642</path>
						<given-names>Edwin</given-names>		
						<family-name>Juarez</family-name>
						<email>juarezro@usc.edu</email>
						<url>MathCancer.org</url>
						<organization-name>University of Southern California</organization-name>
						<department-name>Electrical Engineering</department-name>
					</orcid-identifier>
				</last_modified_by>
			</curation>
			<data_origins> 
				<data_origin>
					<citation>
						<URL>N/A</URL>
					</citation>
				</data_origin>
			</data_origins>
			<data_analysis> 
				<URL>http://MathCancer.org</URL>
				<notes>cell_line/phenotype_dataset/phenotype/cell_cycle/cell_cycle_phase/duration does not have associated uncertainty measures because it is a derived quantity from the corresponding rate.</notes>
			</data_analysis>
			<cell_origin>
				<CLO_ID>0000000</CLO_ID>
				<BTO_ID>0000000</BTO_ID>
				<species>Lenovo Thinkpad Yoga</species>
				<organ>Intel haswell i7</organ>
				<disease>CellPD</disease>
				<morphology>flow_cytometry_apoptotic_logistic</morphology>
			</cell_origin>
			<notes>
				//cell_cycle[@model="live_logistic"]/cell_cycle_phase[@name="birth_phase"]/growth_phase//cell_cycle[@model="live_logistic"]/cell_cycle_phase[@name="birth_phase"]/cell_cycle_arrest//cell_cycle[@model="total_logistic"]/cell_cycle_phase[@name="growth_phase"]/cell_cycle_arrest
			</notes>
		</metadata>	
		<phenotype_dataset ID="0" keywords="Normoxia">
			<microenvironment>
				<scale>
					<variables>
						<variable type="concentration" ChEBI_ID="15379" name="oxygen" units="mmHg">
							<mean measurement_type="Estimated">
							0.2
							</mean>
						</variable>
					</variables>
				</scale>
			</microenvironment>			
			<phenotype type="expected">
				
				<cell_cycle model="live" ID="0">
					<cell_cycle_phase name="growth_phase" ID="0">
						<birt_rate units="1/hours" measurement_type="inferred" standard_error_of_the_mean ="0.0018">
						0.028
						</birt_rate>
						<duration units="hours" measurement_type="inferred">
						35.8
						</duration>
					</cell_cycle_phase>
					<cell_cycle_phase name="SEEDING_CELLS WHY AM I YELLING?!" ID="1">
						<birt_rate units="number of cells" measurement_type="inferred" standard_error_of_the_mean ="508">
						6.16e+03
						</birt_rate>
						<duration units="hours" measurement_type="inferred">
						0.000162
						</duration>
					</cell_cycle_phase>
				</cell_cycle>
				<cell_cycle model="live_logistic" ID="1">
					<cell_cycle_phase name="growth_phase" ID="0">
						<net_birth_rate  units="1/hours" measurement_type="inferred" standard_error_of_the_mean ="0.0315">
						0.028
						</net_birth_rate >
						<duration units="hours" measurement_type="inferred">
						35.8
						</duration>
						<cell_cycle_arrest>
							<condition type="maximum_cell_density" units="number of cells" measurement_type="inferred" standard_error_of_the_mean ="1.26e+16">
							1.54e+10
							</condition>
						</cell_cycle_arrest>
					</cell_cycle_phase>
					<cell_cycle_phase name="SEEDING_CELLS WHY AM I YELLING?!" ID="1">
						<net_birth_rate  units="number of cells" measurement_type="inferred" standard_error_of_the_mean ="775">
						6.16e+03
						</net_birth_rate >
						<duration units="hours" measurement_type="inferred">
						0.000162
						</duration>
						<cell_cycle_arrest>
							<condition type="maximum_cell_density" units="number of cells" measurement_type="inferred" standard_error_of_the_mean ="1.26e+16">
							1.54e+10
							</condition>
						</cell_cycle_arrest>
					</cell_cycle_phase>
				</cell_cycle>
				<cell_cycle model="total" ID="2">
					<cell_cycle_phase name="growth_phase" ID="0">
						<net_birth_rate  units="1/hours" measurement_type="inferred" standard_error_of_the_mean ="0.0018">
						0.028
						</net_birth_rate >
						<duration units="hours" measurement_type="inferred">
						35.8
						</duration>
					</cell_cycle_phase>
					<cell_cycle_phase name="SEEDING_CELLS WHY AM I YELLING?!" ID="1">
						<net_birth_rate  units="number of cells" measurement_type="inferred" standard_error_of_the_mean ="509">
						6.16e+03
						</net_birth_rate >
						<duration units="hours" measurement_type="inferred">
						0.000162
						</duration>
					</cell_cycle_phase>
				</cell_cycle>
				<cell_cycle model="total_logistic" ID="3">
					<cell_cycle_phase name="growth_phase" ID="0">
						<net_birth_rate  units="1/hours" measurement_type="inferred" standard_error_of_the_mean ="0.00352">
						0.028
						</net_birth_rate >
						<duration units="hours" measurement_type="inferred">
						35.8
						</duration>
						<cell_cycle_arrest>
							<condition type="maximum_cell_density" units="number of cells" measurement_type="inferred" standard_error_of_the_mean ="2.56e+16">
							1.21e+11
							</condition>
						</cell_cycle_arrest>
					</cell_cycle_phase>
					<cell_cycle_phase name="SEEDING_CELLS WHY AM I YELLING?!" ID="1">
						<net_birth_rate  units="number of cells" measurement_type="inferred" standard_error_of_the_mean ="787">
						6.16e+03
						</net_birth_rate >
						<duration units="hours" measurement_type="inferred">
						0.000162
						</duration>
						<cell_cycle_arrest>
							<condition type="maximum_cell_density" units="number of cells" measurement_type="inferred" standard_error_of_the_mean ="2.56e+16">
							1.21e+11
							</condition>
						</cell_cycle_arrest>
					</cell_cycle_phase>
				</cell_cycle>
				<cell_cycle model="live_dead" ID="4">
					<cell_cycle_phase name="birth_phase" ID="0">
						<birth_rate units="1/hours" measurement_type="inferred" standard_error_of_the_mean ="0">
						0.151
						</birth_rate>
						<duration units="hours" measurement_type="inferred">
						6.64
						</duration>
						<death_rate units="1/hours" measurement_type="inferred" standard_error_of_the_mean ="0">
						7.72e-05
						</death_rate>
					</cell_cycle_phase>
					<cell_cycle_phase name="I'll tell you... IDK" ID="1">
						<birth_rate units="number of cells" measurement_type="inferred" standard_error_of_the_mean ="0">
						0.979
						</birth_rate>
						<duration units="hours" measurement_type="inferred">
						1.02
						</duration>
						<death_rate units="1/hours" measurement_type="inferred" standard_error_of_the_mean ="0">
						7.72e-05
						</death_rate>
					</cell_cycle_phase>
					<cell_cycle_phase name="I'll tell you... IDK" ID="2">
						<birth_rate units="number of cells" measurement_type="inferred" standard_error_of_the_mean ="0">
						2.4
						</birth_rate>
						<duration units="hours" measurement_type="inferred">
						0.416
						</duration>
						<death_rate units="1/hours" measurement_type="inferred" standard_error_of_the_mean ="0">
						7.72e-05
						</death_rate>
					</cell_cycle_phase>
				</cell_cycle>
				<cell_death type="Apoptosis">
					<duration units="1/hours" measurement_type="inferred" standard_error_of_the_mean ="0">
					0
					</duration>
				</cell_death>
				<cell_cycle model="live_dead_logistic" ID="5">
					<cell_cycle_phase name="birth_phase" ID="0">
						<birth_rate units="1/hours" measurement_type="inferred" standard_error_of_the_mean ="0">
						0.222
						</birth_rate>
						<duration units="hours" measurement_type="inferred">
						4.5
						</duration>
						<death_rate units="1/hours" measurement_type="inferred" standard_error_of_the_mean ="0">
						2.32e-05
						</death_rate>
						<cell_cycle_arrest>
							<condition type="maximum_cell_density" units="number of cells" measurement_type="inferred" standard_error_of_the_mean ="0">
							4.84e+04
							</condition>
						</cell_cycle_arrest>
					</cell_cycle_phase>
					<cell_cycle_phase name="I'll tell you... IDK" ID="1">
						<birth_rate units="number of cells" measurement_type="inferred" standard_error_of_the_mean ="0">
						0.866
						</birth_rate>
						<duration units="hours" measurement_type="inferred">
						1.15
						</duration>
						<death_rate units="1/hours" measurement_type="inferred" standard_error_of_the_mean ="0">
						2.32e-05
						</death_rate>
						<cell_cycle_arrest>
							<condition type="maximum_cell_density" units="number of cells" measurement_type="inferred" standard_error_of_the_mean ="0">
							4.84e+04
							</condition>
						</cell_cycle_arrest>
					</cell_cycle_phase>
					<cell_cycle_phase name="I'll tell you... IDK" ID="2">
						<birth_rate units="number of cells" measurement_type="inferred" standard_error_of_the_mean ="0">
						2.4
						</birth_rate>
						<duration units="hours" measurement_type="inferred">
						0.416
						</duration>
						<death_rate units="1/hours" measurement_type="inferred" standard_error_of_the_mean ="0">
						2.32e-05
						</death_rate>
						<cell_cycle_arrest>
							<condition type="maximum_cell_density" units="number of cells" measurement_type="inferred" standard_error_of_the_mean ="0">
							4.84e+04
							</condition>
						</cell_cycle_arrest>
					</cell_cycle_phase>
				</cell_cycle>
				<cell_death type="Apoptosis">
					<duration units="1/hours" measurement_type="inferred" standard_error_of_the_mean ="0">
					0
					</duration>
				</cell_death>
			</phenotype>
		</phenotype_dataset>
	</cell_line>
</MultiCellDS>