<?xml version="1.0" encoding="utf-8" standalone="no"?>
<!DOCTYPE svg PUBLIC "-//W3C//DTD SVG 1.1//EN"
  "http://www.w3.org/Graphics/SVG/1.1/DTD/svg11.dtd">
<!-- Created with matplotlib (http://matplotlib.org/) -->
<svg height="307pt" version="1.1" viewBox="0 0 603 307" width="603pt" xmlns="http://www.w3.org/2000/svg" xmlns:xlink="http://www.w3.org/1999/xlink">
 <defs>
  <style type="text/css">
*{stroke-linecap:butt;stroke-linejoin:round;}
  </style>
 </defs>
 <g id="figure_1">
  <g id="patch_1">
   <path d="
M0 307.16
L603.383 307.16
L603.383 0
L0 0
z
" style="fill:#ffffff;"/>
  </g>
  <g id="axes_1">
   <g id="patch_2">
    <path d="
M66.4034 246.007
L425.626 246.007
L425.626 35.895
L66.4034 35.895
z
" style="fill:#ffffff;"/>
   </g>
   <g id="matplotlib.axis_1">
    <g id="xtick_1">
     <g id="line2d_1">
      <path clip-path="url(#p7875ff5245)" d="
M72.1974 246.007
L72.1974 35.895" style="fill:none;opacity:0.2;stroke:#b2b2b2;stroke-linecap:square;stroke-width:0.5;"/>
     </g>
     <g id="line2d_2">
      <defs>
       <path d="
M0 0
L0 4" id="m8a7fcc65d0" style="stroke:#000000;"/>
      </defs>
      <g>
       <use style="stroke:#000000;" x="72.1973545928" xlink:href="#m8a7fcc65d0" y="246.0075"/>
      </g>
     </g>
     <g id="line2d_3">
      <defs>
       <path d="
M0 0
L0 -4" id="mf06237e818" style="stroke:#000000;"/>
      </defs>
      <g>
       <use style="stroke:#000000;" x="72.1973545928" xlink:href="#mf06237e818" y="35.895"/>
      </g>
     </g>
     <g id="text_1">
      <!-- $\mathdefault{0.0}$ -->
      <defs>
       <path d="
M4.15625 35.2969
Q4.15625 48 6.76562 55.7344
Q9.375 63.4844 14.5156 67.6719
Q19.6719 71.875 27.4844 71.875
Q33.25 71.875 37.5938 69.5469
Q41.9375 67.2344 44.7656 62.8594
Q47.6094 58.5 49.2188 52.2188
Q50.8281 45.9531 50.8281 35.2969
Q50.8281 22.7031 48.2344 14.9688
Q45.6562 7.23438 40.5 3
Q35.3594 -1.21875 27.4844 -1.21875
Q17.1406 -1.21875 11.2344 6.20312
Q4.15625 15.1406 4.15625 35.2969
M13.1875 35.2969
Q13.1875 17.6719 17.3125 11.8281
Q21.4375 6 27.4844 6
Q33.5469 6 37.6719 11.8594
Q41.7969 17.7188 41.7969 35.2969
Q41.7969 52.9844 37.6719 58.7812
Q33.5469 64.5938 27.3906 64.5938
Q21.3438 64.5938 17.7188 59.4688
Q13.1875 52.9375 13.1875 35.2969" id="ArialMT-30"/>
       <path d="
M9.07812 0
L9.07812 10.0156
L19.0938 10.0156
L19.0938 0
z
" id="ArialMT-2e"/>
      </defs>
      <g transform="translate(63.9173545928 264.596875)scale(0.12 -0.12)">
       <use transform="translate(0.0 0.125)" xlink:href="#ArialMT-30"/>
       <use transform="translate(55.615234375 0.125)" xlink:href="#ArialMT-2e"/>
       <use transform="translate(82.275390625 0.125)" xlink:href="#ArialMT-30"/>
      </g>
     </g>
    </g>
    <g id="xtick_2">
     <g id="line2d_4">
      <path clip-path="url(#p7875ff5245)" d="
M130.137 246.007
L130.137 35.895" style="fill:none;opacity:0.2;stroke:#b2b2b2;stroke-linecap:square;stroke-width:0.5;"/>
     </g>
     <g id="line2d_5">
      <g>
       <use style="stroke:#000000;" x="130.136525521" xlink:href="#m8a7fcc65d0" y="246.0075"/>
      </g>
     </g>
     <g id="line2d_6">
      <g>
       <use style="stroke:#000000;" x="130.136525521" xlink:href="#mf06237e818" y="35.895"/>
      </g>
     </g>
     <g id="text_2">
      <!-- $\mathdefault{0.5}$ -->
      <defs>
       <path d="
M4.15625 18.75
L13.375 19.5312
Q14.4062 12.7969 18.1406 9.39062
Q21.875 6 27.1562 6
Q33.5 6 37.8906 10.7812
Q42.2812 15.5781 42.2812 23.4844
Q42.2812 31 38.0625 35.3438
Q33.8438 39.7031 27 39.7031
Q22.75 39.7031 19.3281 37.7656
Q15.9219 35.8438 13.9688 32.7656
L5.71875 33.8438
L12.6406 70.6094
L48.25 70.6094
L48.25 62.2031
L19.6719 62.2031
L15.8281 42.9688
Q22.2656 47.4688 29.3438 47.4688
Q38.7188 47.4688 45.1562 40.9688
Q51.6094 34.4688 51.6094 24.2656
Q51.6094 14.5469 45.9531 7.46875
Q39.0625 -1.21875 27.1562 -1.21875
Q17.3906 -1.21875 11.2031 4.25
Q5.03125 9.71875 4.15625 18.75" id="ArialMT-35"/>
      </defs>
      <g transform="translate(121.856525521 264.596875)scale(0.12 -0.12)">
       <use transform="translate(0.0 0.125)" xlink:href="#ArialMT-30"/>
       <use transform="translate(55.615234375 0.125)" xlink:href="#ArialMT-2e"/>
       <use transform="translate(82.275390625 0.125)" xlink:href="#ArialMT-35"/>
      </g>
     </g>
    </g>
    <g id="xtick_3">
     <g id="line2d_7">
      <path clip-path="url(#p7875ff5245)" d="
M188.076 246.007
L188.076 35.895" style="fill:none;opacity:0.2;stroke:#b2b2b2;stroke-linecap:square;stroke-width:0.5;"/>
     </g>
     <g id="line2d_8">
      <g>
       <use style="stroke:#000000;" x="188.075696449" xlink:href="#m8a7fcc65d0" y="246.0075"/>
      </g>
     </g>
     <g id="line2d_9">
      <g>
       <use style="stroke:#000000;" x="188.075696449" xlink:href="#mf06237e818" y="35.895"/>
      </g>
     </g>
     <g id="text_3">
      <!-- $\mathdefault{1.0}$ -->
      <defs>
       <path d="
M37.25 0
L28.4688 0
L28.4688 56
Q25.2969 52.9844 20.1406 49.9531
Q14.9844 46.9219 10.8906 45.4062
L10.8906 53.9062
Q18.2656 57.375 23.7812 62.2969
Q29.2969 67.2344 31.5938 71.875
L37.25 71.875
z
" id="ArialMT-31"/>
      </defs>
      <g transform="translate(179.795696449 264.596875)scale(0.12 -0.12)">
       <use transform="translate(0.0 0.125)" xlink:href="#ArialMT-31"/>
       <use transform="translate(55.615234375 0.125)" xlink:href="#ArialMT-2e"/>
       <use transform="translate(82.275390625 0.125)" xlink:href="#ArialMT-30"/>
      </g>
     </g>
    </g>
    <g id="xtick_4">
     <g id="line2d_10">
      <path clip-path="url(#p7875ff5245)" d="
M246.015 246.007
L246.015 35.895" style="fill:none;opacity:0.2;stroke:#b2b2b2;stroke-linecap:square;stroke-width:0.5;"/>
     </g>
     <g id="line2d_11">
      <g>
       <use style="stroke:#000000;" x="246.014867377" xlink:href="#m8a7fcc65d0" y="246.0075"/>
      </g>
     </g>
     <g id="line2d_12">
      <g>
       <use style="stroke:#000000;" x="246.014867377" xlink:href="#mf06237e818" y="35.895"/>
      </g>
     </g>
     <g id="text_4">
      <!-- $\mathdefault{1.5}$ -->
      <g transform="translate(237.734867377 264.596875)scale(0.12 -0.12)">
       <use transform="translate(0.0 0.125)" xlink:href="#ArialMT-31"/>
       <use transform="translate(55.615234375 0.125)" xlink:href="#ArialMT-2e"/>
       <use transform="translate(82.275390625 0.125)" xlink:href="#ArialMT-35"/>
      </g>
     </g>
    </g>
    <g id="xtick_5">
     <g id="line2d_13">
      <path clip-path="url(#p7875ff5245)" d="
M303.954 246.007
L303.954 35.895" style="fill:none;opacity:0.2;stroke:#b2b2b2;stroke-linecap:square;stroke-width:0.5;"/>
     </g>
     <g id="line2d_14">
      <g>
       <use style="stroke:#000000;" x="303.954038304" xlink:href="#m8a7fcc65d0" y="246.0075"/>
      </g>
     </g>
     <g id="line2d_15">
      <g>
       <use style="stroke:#000000;" x="303.954038304" xlink:href="#mf06237e818" y="35.895"/>
      </g>
     </g>
     <g id="text_5">
      <!-- $\mathdefault{2.0}$ -->
      <defs>
       <path d="
M50.3438 8.45312
L50.3438 0
L3.03125 0
Q2.9375 3.17188 4.04688 6.10938
Q5.85938 10.9375 9.82812 15.625
Q13.8125 20.3125 21.3438 26.4688
Q33.0156 36.0312 37.1094 41.625
Q41.2188 47.2188 41.2188 52.2031
Q41.2188 57.4219 37.4688 61
Q33.7344 64.5938 27.7344 64.5938
Q21.3906 64.5938 17.5781 60.7812
Q13.7656 56.9844 13.7188 50.25
L4.6875 51.1719
Q5.60938 61.2812 11.6562 66.5781
Q17.7188 71.875 27.9375 71.875
Q38.2344 71.875 44.2344 66.1562
Q50.25 60.4531 50.25 52
Q50.25 47.7031 48.4844 43.5469
Q46.7344 39.4062 42.6562 34.8125
Q38.5781 30.2188 29.1094 22.2188
Q21.1875 15.5781 18.9375 13.2031
Q16.7031 10.8438 15.2344 8.45312
z
" id="ArialMT-32"/>
      </defs>
      <g transform="translate(295.674038304 264.596875)scale(0.12 -0.12)">
       <use transform="translate(0.0 0.125)" xlink:href="#ArialMT-32"/>
       <use transform="translate(55.615234375 0.125)" xlink:href="#ArialMT-2e"/>
       <use transform="translate(82.275390625 0.125)" xlink:href="#ArialMT-30"/>
      </g>
     </g>
    </g>
    <g id="xtick_6">
     <g id="line2d_16">
      <path clip-path="url(#p7875ff5245)" d="
M361.893 246.007
L361.893 35.895" style="fill:none;opacity:0.2;stroke:#b2b2b2;stroke-linecap:square;stroke-width:0.5;"/>
     </g>
     <g id="line2d_17">
      <g>
       <use style="stroke:#000000;" x="361.893209232" xlink:href="#m8a7fcc65d0" y="246.0075"/>
      </g>
     </g>
     <g id="line2d_18">
      <g>
       <use style="stroke:#000000;" x="361.893209232" xlink:href="#mf06237e818" y="35.895"/>
      </g>
     </g>
     <g id="text_6">
      <!-- $\mathdefault{2.5}$ -->
      <g transform="translate(353.613209232 264.596875)scale(0.12 -0.12)">
       <use transform="translate(0.0 0.125)" xlink:href="#ArialMT-32"/>
       <use transform="translate(55.615234375 0.125)" xlink:href="#ArialMT-2e"/>
       <use transform="translate(82.275390625 0.125)" xlink:href="#ArialMT-35"/>
      </g>
     </g>
    </g>
    <g id="xtick_7">
     <g id="line2d_19">
      <path clip-path="url(#p7875ff5245)" d="
M419.832 246.007
L419.832 35.895" style="fill:none;opacity:0.2;stroke:#b2b2b2;stroke-linecap:square;stroke-width:0.5;"/>
     </g>
     <g id="line2d_20">
      <g>
       <use style="stroke:#000000;" x="419.83238016" xlink:href="#m8a7fcc65d0" y="246.0075"/>
      </g>
     </g>
     <g id="line2d_21">
      <g>
       <use style="stroke:#000000;" x="419.83238016" xlink:href="#mf06237e818" y="35.895"/>
      </g>
     </g>
     <g id="text_7">
      <!-- $\mathdefault{3.0}$ -->
      <defs>
       <path d="
M4.20312 18.8906
L12.9844 20.0625
Q14.5 12.5938 18.1406 9.29688
Q21.7812 6 27 6
Q33.2031 6 37.4688 10.2969
Q41.75 14.5938 41.75 20.9531
Q41.75 27 37.7969 30.9219
Q33.8438 34.8594 27.7344 34.8594
Q25.25 34.8594 21.5312 33.8906
L22.5156 41.6094
Q23.3906 41.5 23.9219 41.5
Q29.5469 41.5 34.0312 44.4219
Q38.5312 47.3594 38.5312 53.4688
Q38.5312 58.2969 35.25 61.4688
Q31.9844 64.6562 26.8125 64.6562
Q21.6875 64.6562 18.2656 61.4219
Q14.8438 58.2031 13.875 51.7656
L5.07812 53.3281
Q6.6875 62.1562 12.3906 67.0156
Q18.1094 71.875 26.6094 71.875
Q32.4688 71.875 37.3906 69.3594
Q42.3281 66.8438 44.9375 62.5
Q47.5625 58.1562 47.5625 53.2656
Q47.5625 48.6406 45.0625 44.8281
Q42.5781 41.0156 37.7031 38.7656
Q44.0469 37.3125 47.5625 32.6875
Q51.0781 28.0781 51.0781 21.1406
Q51.0781 11.7656 44.2344 5.25
Q37.4062 -1.26562 26.9531 -1.26562
Q17.5312 -1.26562 11.2969 4.34375
Q5.07812 9.96875 4.20312 18.8906" id="ArialMT-33"/>
      </defs>
      <g transform="translate(411.55238016 264.596875)scale(0.12 -0.12)">
       <use transform="translate(0.0 0.125)" xlink:href="#ArialMT-33"/>
       <use transform="translate(55.615234375 0.125)" xlink:href="#ArialMT-2e"/>
       <use transform="translate(82.275390625 0.125)" xlink:href="#ArialMT-30"/>
      </g>
     </g>
    </g>
    <g id="text_8">
     <!-- time (Days) -->
     <defs>
      <path id="ArialMT-20"/>
      <path d="
M25.7812 7.85938
L27.0469 0.09375
Q23.3438 -0.6875 20.4062 -0.6875
Q15.625 -0.6875 12.9844 0.828125
Q10.3594 2.34375 9.28125 4.8125
Q8.20312 7.28125 8.20312 15.1875
L8.20312 45.0156
L1.76562 45.0156
L1.76562 51.8594
L8.20312 51.8594
L8.20312 64.7031
L16.9375 69.9688
L16.9375 51.8594
L25.7812 51.8594
L25.7812 45.0156
L16.9375 45.0156
L16.9375 14.7031
Q16.9375 10.9375 17.4062 9.85938
Q17.875 8.79688 18.9219 8.15625
Q19.9688 7.51562 21.9219 7.51562
Q23.3906 7.51562 25.7812 7.85938" id="ArialMT-74"/>
      <path d="
M6.20312 -19.9688
L5.21875 -11.7188
Q8.10938 -12.5 10.25 -12.5
Q13.1875 -12.5 14.9375 -11.5156
Q16.7031 -10.5469 17.8281 -8.79688
Q18.6562 -7.46875 20.5156 -2.25
Q20.75 -1.51562 21.2969 -0.09375
L1.60938 51.8594
L11.0781 51.8594
L21.875 21.8281
Q23.9688 16.1094 25.6406 9.8125
Q27.1562 15.875 29.25 21.625
L40.3281 51.8594
L49.125 51.8594
L29.3906 -0.875
Q26.2188 -9.42188 24.4688 -12.6406
Q22.125 -17 19.0938 -19.0156
Q16.0625 -21.0469 11.8594 -21.0469
Q9.32812 -21.0469 6.20312 -19.9688" id="ArialMT-79"/>
      <path d="
M6.64062 61.4688
L6.64062 71.5781
L15.4375 71.5781
L15.4375 61.4688
z

M6.64062 0
L6.64062 51.8594
L15.4375 51.8594
L15.4375 0
z
" id="ArialMT-69"/>
      <path d="
M6.59375 0
L6.59375 51.8594
L14.4531 51.8594
L14.4531 44.5781
Q16.8906 48.3906 20.9375 50.7031
Q25 53.0312 30.1719 53.0312
Q35.9375 53.0312 39.625 50.6406
Q43.3125 48.25 44.8281 43.9531
Q50.9844 53.0312 60.8438 53.0312
Q68.5625 53.0312 72.7031 48.75
Q76.8594 44.4844 76.8594 35.5938
L76.8594 0
L68.1094 0
L68.1094 32.6719
Q68.1094 37.9375 67.25 40.25
Q66.4062 42.5781 64.1562 43.9844
Q61.9219 45.4062 58.8906 45.4062
Q53.4219 45.4062 49.7969 41.7656
Q46.1875 38.1406 46.1875 30.125
L46.1875 0
L37.4062 0
L37.4062 33.6875
Q37.4062 39.5469 35.25 42.4688
Q33.1094 45.4062 28.2188 45.4062
Q24.5156 45.4062 21.3594 43.4531
Q18.2188 41.5 16.7969 37.7344
Q15.375 33.9844 15.375 26.9062
L15.375 0
z
" id="ArialMT-6d"/>
      <path d="
M12.3594 -21.0469
L6.0625 -21.0469
Q20.6562 2.39062 20.6562 25.875
Q20.6562 35.0625 18.5625 44.0938
Q16.8906 51.4219 13.9219 58.1562
Q12.0156 62.5469 6.0625 72.7969
L12.3594 72.7969
Q21.5312 60.5469 25.9219 48.1875
Q29.6875 37.5469 29.6875 25.9219
Q29.6875 12.75 24.625 0.4375
Q19.5781 -11.8594 12.3594 -21.0469" id="ArialMT-29"/>
      <path d="
M7.71875 0
L7.71875 71.5781
L32.375 71.5781
Q40.7188 71.5781 45.125 70.5625
Q51.2656 69.1406 55.6094 65.4375
Q61.2812 60.6406 64.0781 53.1875
Q66.8906 45.75 66.8906 36.1875
Q66.8906 28.0312 64.9844 21.7344
Q63.0938 15.4375 60.1094 11.2969
Q57.125 7.17188 53.5781 4.79688
Q50.0469 2.4375 45.0469 1.21875
Q40.0469 0 33.5469 0
z

M17.1875 8.45312
L32.4688 8.45312
Q39.5469 8.45312 43.5781 9.76562
Q47.6094 11.0781 50 13.4844
Q53.375 16.8438 55.25 22.5312
Q57.125 28.2188 57.125 36.3281
Q57.125 47.5625 53.4375 53.5938
Q49.75 59.625 44.4844 61.6719
Q40.6719 63.1406 32.2344 63.1406
L17.1875 63.1406
z
" id="ArialMT-44"/>
      <path d="
M42.0938 16.7031
L51.1719 15.5781
Q49.0312 7.625 43.2188 3.21875
Q37.4062 -1.17188 28.375 -1.17188
Q17 -1.17188 10.3281 5.82812
Q3.65625 12.8438 3.65625 25.4844
Q3.65625 38.5781 10.3906 45.7969
Q17.1406 53.0312 27.875 53.0312
Q38.2812 53.0312 44.875 45.9531
Q51.4688 38.875 51.4688 26.0312
Q51.4688 25.25 51.4219 23.6875
L12.75 23.6875
Q13.2344 15.1406 17.5781 10.5938
Q21.9219 6.0625 28.4219 6.0625
Q33.25 6.0625 36.6719 8.59375
Q40.0938 11.1406 42.0938 16.7031
M13.2344 30.9062
L42.1875 30.9062
Q41.6094 37.4531 38.875 40.7188
Q34.6719 45.7969 27.9844 45.7969
Q21.9219 45.7969 17.7969 41.75
Q13.6719 37.7031 13.2344 30.9062" id="ArialMT-65"/>
      <path d="
M40.4375 6.39062
Q35.5469 2.25 31.0312 0.53125
Q26.5156 -1.17188 21.3438 -1.17188
Q12.7969 -1.17188 8.20312 3
Q3.60938 7.17188 3.60938 13.6719
Q3.60938 17.4844 5.34375 20.625
Q7.07812 23.7812 9.89062 25.6875
Q12.7031 27.5938 16.2188 28.5625
Q18.7969 29.25 24.0312 29.8906
Q34.6719 31.1562 39.7031 32.9062
Q39.75 34.7188 39.75 35.2031
Q39.75 40.5781 37.25 42.7812
Q33.8906 45.75 27.25 45.75
Q21.0469 45.75 18.0938 43.5781
Q15.1406 41.4062 13.7188 35.8906
L5.125 37.0625
Q6.29688 42.5781 8.98438 45.9688
Q11.6719 49.3594 16.75 51.1875
Q21.8281 53.0312 28.5156 53.0312
Q35.1562 53.0312 39.2969 51.4688
Q43.4531 49.9062 45.4062 47.5312
Q47.3594 45.1719 48.1406 41.5469
Q48.5781 39.3125 48.5781 33.4531
L48.5781 21.7344
Q48.5781 9.46875 49.1406 6.21875
Q49.7031 2.98438 51.375 0
L42.1875 0
Q40.8281 2.73438 40.4375 6.39062
M39.7031 26.0312
Q34.9062 24.0781 25.3438 22.7031
Q19.9219 21.9219 17.6719 20.9375
Q15.4375 19.9688 14.2031 18.0938
Q12.9844 16.2188 12.9844 13.9219
Q12.9844 10.4062 15.6406 8.0625
Q18.3125 5.71875 23.4375 5.71875
Q28.5156 5.71875 32.4688 7.9375
Q36.4219 10.1562 38.2812 14.0156
Q39.7031 17 39.7031 22.7969
z
" id="ArialMT-61"/>
      <path d="
M23.3906 -21.0469
Q16.1094 -11.8594 11.0781 0.4375
Q6.0625 12.75 6.0625 25.9219
Q6.0625 37.5469 9.8125 48.1875
Q14.2031 60.5469 23.3906 72.7969
L29.6875 72.7969
Q23.7812 62.6406 21.875 58.2969
Q18.8906 51.5625 17.1875 44.2344
Q15.0938 35.1094 15.0938 25.875
Q15.0938 2.39062 29.6875 -21.0469
z
" id="ArialMT-28"/>
      <path d="
M3.07812 15.4844
L11.7656 16.8438
Q12.5 11.625 15.8438 8.84375
Q19.1875 6.0625 25.2031 6.0625
Q31.25 6.0625 34.1719 8.51562
Q37.1094 10.9844 37.1094 14.3125
Q37.1094 17.2812 34.5156 19
Q32.7188 20.1719 25.5312 21.9688
Q15.875 24.4219 12.1406 26.2031
Q8.40625 27.9844 6.46875 31.125
Q4.54688 34.2812 4.54688 38.0938
Q4.54688 41.5469 6.125 44.5
Q7.71875 47.4688 10.4531 49.4219
Q12.5 50.9219 16.0312 51.9688
Q19.5781 53.0312 23.6406 53.0312
Q29.7344 53.0312 34.3438 51.2656
Q38.9688 49.5156 41.1562 46.5
Q43.3594 43.5 44.1875 38.4844
L35.5938 37.3125
Q35.0156 41.3125 32.2031 43.5469
Q29.3906 45.7969 24.2656 45.7969
Q18.2188 45.7969 15.625 43.7969
Q13.0312 41.7969 13.0312 39.1094
Q13.0312 37.4062 14.1094 36.0312
Q15.1875 34.625 17.4844 33.6875
Q18.7969 33.2031 25.25 31.4531
Q34.5781 28.9531 38.25 27.3594
Q41.9375 25.7812 44.0312 22.75
Q46.1406 19.7344 46.1406 15.2344
Q46.1406 10.8438 43.5781 6.95312
Q41.0156 3.07812 36.1719 0.953125
Q31.3438 -1.17188 25.25 -1.17188
Q15.1406 -1.17188 9.84375 3.03125
Q4.54688 7.23438 3.07812 15.4844" id="ArialMT-73"/>
     </defs>
     <g transform="translate(210.489867377 282.1734375)scale(0.14 -0.14)">
      <use xlink:href="#ArialMT-74"/>
      <use x="27.783203125" xlink:href="#ArialMT-69"/>
      <use x="50.0" xlink:href="#ArialMT-6d"/>
      <use x="133.30078125" xlink:href="#ArialMT-65"/>
      <use x="188.916015625" xlink:href="#ArialMT-20"/>
      <use x="216.69921875" xlink:href="#ArialMT-28"/>
      <use x="250.0" xlink:href="#ArialMT-44"/>
      <use x="322.216796875" xlink:href="#ArialMT-61"/>
      <use x="377.83203125" xlink:href="#ArialMT-79"/>
      <use x="427.83203125" xlink:href="#ArialMT-73"/>
      <use x="477.83203125" xlink:href="#ArialMT-29"/>
     </g>
    </g>
   </g>
   <g id="matplotlib.axis_2">
    <g id="ytick_1">
     <g id="line2d_22">
      <path clip-path="url(#p7875ff5245)" d="
M66.4034 246.007
L425.626 246.007" style="fill:none;opacity:0.2;stroke:#b2b2b2;stroke-linecap:square;stroke-width:0.5;"/>
     </g>
     <g id="line2d_23">
      <defs>
       <path d="
M0 0
L-4 0" id="mc35cc452be" style="stroke:#000000;"/>
      </defs>
      <g>
       <use style="stroke:#000000;" x="66.4034375" xlink:href="#mc35cc452be" y="246.0075"/>
      </g>
     </g>
     <g id="line2d_24">
      <defs>
       <path d="
M0 0
L4 0" id="m82fbe672db" style="stroke:#000000;"/>
      </defs>
      <g>
       <use style="stroke:#000000;" x="425.626297253" xlink:href="#m82fbe672db" y="246.0075"/>
      </g>
     </g>
     <g id="text_9">
      <!-- $\mathdefault{0.0}$ -->
      <g transform="translate(39.8434375 249.1096875)scale(0.12 -0.12)">
       <use transform="translate(0.0 0.125)" xlink:href="#ArialMT-30"/>
       <use transform="translate(55.615234375 0.125)" xlink:href="#ArialMT-2e"/>
       <use transform="translate(82.275390625 0.125)" xlink:href="#ArialMT-30"/>
      </g>
     </g>
    </g>
    <g id="ytick_2">
     <g id="line2d_25">
      <path clip-path="url(#p7875ff5245)" d="
M66.4034 215.991
L425.626 215.991" style="fill:none;opacity:0.2;stroke:#b2b2b2;stroke-linecap:square;stroke-width:0.5;"/>
     </g>
     <g id="line2d_26">
      <g>
       <use style="stroke:#000000;" x="66.4034375" xlink:href="#mc35cc452be" y="215.991428571"/>
      </g>
     </g>
     <g id="line2d_27">
      <g>
       <use style="stroke:#000000;" x="425.626297253" xlink:href="#m82fbe672db" y="215.991428571"/>
      </g>
     </g>
     <g id="text_10">
      <!-- $\mathdefault{0.5}$ -->
      <g transform="translate(39.8434375 219.093616071)scale(0.12 -0.12)">
       <use transform="translate(0.0 0.125)" xlink:href="#ArialMT-30"/>
       <use transform="translate(55.615234375 0.125)" xlink:href="#ArialMT-2e"/>
       <use transform="translate(82.275390625 0.125)" xlink:href="#ArialMT-35"/>
      </g>
     </g>
    </g>
    <g id="ytick_3">
     <g id="line2d_28">
      <path clip-path="url(#p7875ff5245)" d="
M66.4034 185.975
L425.626 185.975" style="fill:none;opacity:0.2;stroke:#b2b2b2;stroke-linecap:square;stroke-width:0.5;"/>
     </g>
     <g id="line2d_29">
      <g>
       <use style="stroke:#000000;" x="66.4034375" xlink:href="#mc35cc452be" y="185.975357143"/>
      </g>
     </g>
     <g id="line2d_30">
      <g>
       <use style="stroke:#000000;" x="425.626297253" xlink:href="#m82fbe672db" y="185.975357143"/>
      </g>
     </g>
     <g id="text_11">
      <!-- $\mathdefault{1.0}$ -->
      <g transform="translate(39.8434375 189.077544643)scale(0.12 -0.12)">
       <use transform="translate(0.0 0.125)" xlink:href="#ArialMT-31"/>
       <use transform="translate(55.615234375 0.125)" xlink:href="#ArialMT-2e"/>
       <use transform="translate(82.275390625 0.125)" xlink:href="#ArialMT-30"/>
      </g>
     </g>
    </g>
    <g id="ytick_4">
     <g id="line2d_31">
      <path clip-path="url(#p7875ff5245)" d="
M66.4034 155.959
L425.626 155.959" style="fill:none;opacity:0.2;stroke:#b2b2b2;stroke-linecap:square;stroke-width:0.5;"/>
     </g>
     <g id="line2d_32">
      <g>
       <use style="stroke:#000000;" x="66.4034375" xlink:href="#mc35cc452be" y="155.959285714"/>
      </g>
     </g>
     <g id="line2d_33">
      <g>
       <use style="stroke:#000000;" x="425.626297253" xlink:href="#m82fbe672db" y="155.959285714"/>
      </g>
     </g>
     <g id="text_12">
      <!-- $\mathdefault{1.5}$ -->
      <g transform="translate(39.8434375 159.061473214)scale(0.12 -0.12)">
       <use transform="translate(0.0 0.125)" xlink:href="#ArialMT-31"/>
       <use transform="translate(55.615234375 0.125)" xlink:href="#ArialMT-2e"/>
       <use transform="translate(82.275390625 0.125)" xlink:href="#ArialMT-35"/>
      </g>
     </g>
    </g>
    <g id="ytick_5">
     <g id="line2d_34">
      <path clip-path="url(#p7875ff5245)" d="
M66.4034 125.943
L425.626 125.943" style="fill:none;opacity:0.2;stroke:#b2b2b2;stroke-linecap:square;stroke-width:0.5;"/>
     </g>
     <g id="line2d_35">
      <g>
       <use style="stroke:#000000;" x="66.4034375" xlink:href="#mc35cc452be" y="125.943214286"/>
      </g>
     </g>
     <g id="line2d_36">
      <g>
       <use style="stroke:#000000;" x="425.626297253" xlink:href="#m82fbe672db" y="125.943214286"/>
      </g>
     </g>
     <g id="text_13">
      <!-- $\mathdefault{2.0}$ -->
      <g transform="translate(39.8434375 129.045401786)scale(0.12 -0.12)">
       <use transform="translate(0.0 0.125)" xlink:href="#ArialMT-32"/>
       <use transform="translate(55.615234375 0.125)" xlink:href="#ArialMT-2e"/>
       <use transform="translate(82.275390625 0.125)" xlink:href="#ArialMT-30"/>
      </g>
     </g>
    </g>
    <g id="ytick_6">
     <g id="line2d_37">
      <path clip-path="url(#p7875ff5245)" d="
M66.4034 95.9271
L425.626 95.9271" style="fill:none;opacity:0.2;stroke:#b2b2b2;stroke-linecap:square;stroke-width:0.5;"/>
     </g>
     <g id="line2d_38">
      <g>
       <use style="stroke:#000000;" x="66.4034375" xlink:href="#mc35cc452be" y="95.9271428571"/>
      </g>
     </g>
     <g id="line2d_39">
      <g>
       <use style="stroke:#000000;" x="425.626297253" xlink:href="#m82fbe672db" y="95.9271428571"/>
      </g>
     </g>
     <g id="text_14">
      <!-- $\mathdefault{2.5}$ -->
      <g transform="translate(39.8434375 99.0293303571)scale(0.12 -0.12)">
       <use transform="translate(0.0 0.125)" xlink:href="#ArialMT-32"/>
       <use transform="translate(55.615234375 0.125)" xlink:href="#ArialMT-2e"/>
       <use transform="translate(82.275390625 0.125)" xlink:href="#ArialMT-35"/>
      </g>
     </g>
    </g>
    <g id="ytick_7">
     <g id="line2d_40">
      <path clip-path="url(#p7875ff5245)" d="
M66.4034 65.9111
L425.626 65.9111" style="fill:none;opacity:0.2;stroke:#b2b2b2;stroke-linecap:square;stroke-width:0.5;"/>
     </g>
     <g id="line2d_41">
      <g>
       <use style="stroke:#000000;" x="66.4034375" xlink:href="#mc35cc452be" y="65.9110714286"/>
      </g>
     </g>
     <g id="line2d_42">
      <g>
       <use style="stroke:#000000;" x="425.626297253" xlink:href="#m82fbe672db" y="65.9110714286"/>
      </g>
     </g>
     <g id="text_15">
      <!-- $\mathdefault{3.0}$ -->
      <g transform="translate(39.8434375 69.0132589286)scale(0.12 -0.12)">
       <use transform="translate(0.0 0.125)" xlink:href="#ArialMT-33"/>
       <use transform="translate(55.615234375 0.125)" xlink:href="#ArialMT-2e"/>
       <use transform="translate(82.275390625 0.125)" xlink:href="#ArialMT-30"/>
      </g>
     </g>
    </g>
    <g id="ytick_8">
     <g id="line2d_43">
      <path clip-path="url(#p7875ff5245)" d="
M66.4034 35.895
L425.626 35.895" style="fill:none;opacity:0.2;stroke:#b2b2b2;stroke-linecap:square;stroke-width:0.5;"/>
     </g>
     <g id="line2d_44">
      <g>
       <use style="stroke:#000000;" x="66.4034375" xlink:href="#mc35cc452be" y="35.895"/>
      </g>
     </g>
     <g id="line2d_45">
      <g>
       <use style="stroke:#000000;" x="425.626297253" xlink:href="#m82fbe672db" y="35.895"/>
      </g>
     </g>
     <g id="text_16">
      <!-- $\mathdefault{3.5}$ -->
      <g transform="translate(39.8434375 38.9971875)scale(0.12 -0.12)">
       <use transform="translate(0.0 0.125)" xlink:href="#ArialMT-33"/>
       <use transform="translate(55.615234375 0.125)" xlink:href="#ArialMT-2e"/>
       <use transform="translate(82.275390625 0.125)" xlink:href="#ArialMT-35"/>
      </g>
     </g>
    </g>
    <g id="text_17">
     <!-- Number of Cells -->
     <defs>
      <path d="
M3.32812 25.9219
Q3.32812 40.3281 11.3281 47.2656
Q18.0156 53.0312 27.6406 53.0312
Q38.3281 53.0312 45.1094 46.0156
Q51.9062 39.0156 51.9062 26.6562
Q51.9062 16.6562 48.9062 10.9062
Q45.9062 5.17188 40.1562 2
Q34.4219 -1.17188 27.6406 -1.17188
Q16.75 -1.17188 10.0312 5.8125
Q3.32812 12.7969 3.32812 25.9219
M12.3594 25.9219
Q12.3594 15.9688 16.7031 11.0156
Q21.0469 6.0625 27.6406 6.0625
Q34.1875 6.0625 38.5312 11.0312
Q42.875 16.0156 42.875 26.2188
Q42.875 35.8438 38.5 40.7969
Q34.125 45.75 27.6406 45.75
Q21.0469 45.75 16.7031 40.8125
Q12.3594 35.8906 12.3594 25.9219" id="ArialMT-6f"/>
      <path d="
M7.625 0
L7.625 71.5781
L17.3281 71.5781
L54.9375 15.375
L54.9375 71.5781
L64.0156 71.5781
L64.0156 0
L54.2969 0
L16.7031 56.25
L16.7031 0
z
" id="ArialMT-4e"/>
      <path d="
M6.5 0
L6.5 51.8594
L14.4062 51.8594
L14.4062 44
Q17.4375 49.5156 20 51.2656
Q22.5625 53.0312 25.6406 53.0312
Q30.0781 53.0312 34.6719 50.2031
L31.6406 42.0469
Q28.4219 43.9531 25.2031 43.9531
Q22.3125 43.9531 20.0156 42.2188
Q17.7188 40.4844 16.75 37.4062
Q15.2812 32.7188 15.2812 27.1562
L15.2812 0
z
" id="ArialMT-72"/>
      <path d="
M14.7031 0
L6.54688 0
L6.54688 71.5781
L15.3281 71.5781
L15.3281 46.0469
Q20.9062 53.0312 29.5469 53.0312
Q34.3281 53.0312 38.5938 51.0938
Q42.875 49.1719 45.625 45.6719
Q48.3906 42.1875 49.9531 37.25
Q51.5156 32.3281 51.5156 26.7031
Q51.5156 13.375 44.9219 6.09375
Q38.3281 -1.17188 29.1094 -1.17188
Q19.9219 -1.17188 14.7031 6.5
z

M14.5938 26.3125
Q14.5938 17 17.1406 12.8438
Q21.2969 6.0625 28.375 6.0625
Q34.125 6.0625 38.3281 11.0625
Q42.5312 16.0625 42.5312 25.9844
Q42.5312 36.1406 38.5 40.9688
Q34.4688 45.7969 28.7656 45.7969
Q23 45.7969 18.7969 40.7969
Q14.5938 35.7969 14.5938 26.3125" id="ArialMT-62"/>
      <path d="
M8.6875 0
L8.6875 45.0156
L0.921875 45.0156
L0.921875 51.8594
L8.6875 51.8594
L8.6875 57.375
Q8.6875 62.5938 9.625 65.1406
Q10.8906 68.5625 14.0781 70.6719
Q17.2812 72.7969 23.0469 72.7969
Q26.7656 72.7969 31.25 71.9219
L29.9375 64.2656
Q27.2031 64.75 24.75 64.75
Q20.75 64.75 19.0938 63.0312
Q17.4375 61.3281 17.4375 56.6406
L17.4375 51.8594
L27.5469 51.8594
L27.5469 45.0156
L17.4375 45.0156
L17.4375 0
z
" id="ArialMT-66"/>
      <path d="
M58.7969 25.0938
L68.2656 22.7031
Q65.2812 11.0312 57.5469 4.90625
Q49.8125 -1.21875 38.625 -1.21875
Q27.0469 -1.21875 19.7969 3.48438
Q12.5469 8.20312 8.76562 17.1406
Q4.98438 26.0781 4.98438 36.3281
Q4.98438 47.5156 9.25 55.8281
Q13.5312 64.1562 21.4062 68.4688
Q29.2969 72.7969 38.7656 72.7969
Q49.5156 72.7969 56.8281 67.3281
Q64.1562 61.8594 67.0469 51.9531
L57.7188 49.75
Q55.2188 57.5625 50.4844 61.125
Q45.75 64.7031 38.5781 64.7031
Q30.3281 64.7031 24.7812 60.7344
Q19.2344 56.7812 16.9844 50.1094
Q14.75 43.4531 14.75 36.375
Q14.75 27.25 17.4062 20.4375
Q20.0625 13.625 25.6719 10.25
Q31.2969 6.89062 37.8438 6.89062
Q45.7969 6.89062 51.3125 11.4688
Q56.8438 16.0625 58.7969 25.0938" id="ArialMT-43"/>
      <path d="
M6.39062 0
L6.39062 71.5781
L15.1875 71.5781
L15.1875 0
z
" id="ArialMT-6c"/>
      <path d="
M40.5781 0
L40.5781 7.625
Q34.5156 -1.17188 24.125 -1.17188
Q19.5312 -1.17188 15.5469 0.578125
Q11.5781 2.34375 9.64062 5
Q7.71875 7.67188 6.9375 11.5312
Q6.39062 14.1094 6.39062 19.7344
L6.39062 51.8594
L15.1875 51.8594
L15.1875 23.0938
Q15.1875 16.2188 15.7188 13.8125
Q16.5469 10.3594 19.2344 8.375
Q21.9219 6.39062 25.875 6.39062
Q29.8281 6.39062 33.2969 8.42188
Q36.7656 10.4531 38.2031 13.9375
Q39.6562 17.4375 39.6562 24.0781
L39.6562 51.8594
L48.4375 51.8594
L48.4375 0
z
" id="ArialMT-75"/>
     </defs>
     <g transform="translate(32.0609375 190.86125)rotate(-90.0)scale(0.14 -0.14)">
      <use xlink:href="#ArialMT-4e"/>
      <use x="72.216796875" xlink:href="#ArialMT-75"/>
      <use x="127.83203125" xlink:href="#ArialMT-6d"/>
      <use x="211.1328125" xlink:href="#ArialMT-62"/>
      <use x="266.748046875" xlink:href="#ArialMT-65"/>
      <use x="322.36328125" xlink:href="#ArialMT-72"/>
      <use x="355.6640625" xlink:href="#ArialMT-20"/>
      <use x="383.447265625" xlink:href="#ArialMT-6f"/>
      <use x="439.0625" xlink:href="#ArialMT-66"/>
      <use x="466.845703125" xlink:href="#ArialMT-20"/>
      <use x="494.62890625" xlink:href="#ArialMT-43"/>
      <use x="566.845703125" xlink:href="#ArialMT-65"/>
      <use x="622.4609375" xlink:href="#ArialMT-6c"/>
      <use x="644.677734375" xlink:href="#ArialMT-6c"/>
      <use x="666.89453125" xlink:href="#ArialMT-73"/>
     </g>
    </g>
    <g id="text_18">
     <!-- $\times\mathdefault{10^{4}}\mathdefault{}$ -->
     <defs>
      <path d="
M7.85938 19.9688
L23.25 35.3594
L7.90625 50.6875
L13.875 56.6406
L29.2031 41.3125
L44.4844 56.5938
L50.3438 50.6875
L35.1094 35.4062
L50.4375 20.0625
L44.4844 14.1094
L29.1562 29.4375
L13.7656 14.0625
z
" id="ArialMT-d7"/>
      <path d="
M32.3281 0
L32.3281 17.1406
L1.26562 17.1406
L1.26562 25.2031
L33.9375 71.5781
L41.1094 71.5781
L41.1094 25.2031
L50.7812 25.2031
L50.7812 17.1406
L41.1094 17.1406
L41.1094 0
z

M32.3281 25.2031
L32.3281 57.4688
L9.90625 25.2031
z
" id="ArialMT-34"/>
     </defs>
     <g transform="translate(66.4034375 32.895)scale(0.12 -0.12)">
      <use transform="translate(16.66015625 0.11406250000000284)" xlink:href="#ArialMT-d7"/>
      <use transform="translate(75.8984375 0.11406250000000284)" xlink:href="#ArialMT-31"/>
      <use transform="translate(131.513671875 0.11406250000000284)" xlink:href="#ArialMT-30"/>
      <use transform="translate(187.12890625 49.8953125)scale(0.7)" xlink:href="#ArialMT-34"/>
     </g>
    </g>
   </g>
   <g id="LineCollection_1">
    <path clip-path="url(#p7875ff5245)" d="
M72.1974 228.226
L72.1974 228.067" style="fill:none;stroke:#0000ff;stroke-width:2.0;"/>
    <path clip-path="url(#p7875ff5245)" d="
M188.076 200.24
L188.076 199.481" style="fill:none;stroke:#0000ff;stroke-width:2.0;"/>
    <path clip-path="url(#p7875ff5245)" d="
M303.954 149.928
L303.954 149.666" style="fill:none;stroke:#0000ff;stroke-width:2.0;"/>
    <path clip-path="url(#p7875ff5245)" d="
M419.832 66.4391
L419.832 65.5887" style="fill:none;stroke:#0000ff;stroke-width:2.0;"/>
   </g>
   <g id="LineCollection_2">
    <path clip-path="url(#p7875ff5245)" d="
M72.1974 245.418
L72.1974 245.381" style="fill:none;stroke:#ff0000;stroke-width:2.0;"/>
    <path clip-path="url(#p7875ff5245)" d="
M188.076 244.792
L188.076 244.747" style="fill:none;stroke:#ff0000;stroke-width:2.0;"/>
    <path clip-path="url(#p7875ff5245)" d="
M303.954 243.922
L303.954 243.812" style="fill:none;stroke:#ff0000;stroke-width:2.0;"/>
    <path clip-path="url(#p7875ff5245)" d="
M419.832 242.819
L419.832 242.729" style="fill:none;stroke:#ff0000;stroke-width:2.0;"/>
   </g>
   <g id="line2d_46">
    <path clip-path="url(#p7875ff5245)" d="
M72.1974 228.147
L75.7088 227.705
L79.2203 227.252
L82.7317 226.787
L86.2432 226.312
L89.7547 225.824
L93.2661 225.325
L96.7776 224.813
L100.289 224.288
L103.801 223.751
L107.312 223.2
L110.823 222.636
L114.335 222.057
L117.846 221.465
L121.358 220.857
L124.869 220.235
L128.381 219.597
L131.892 218.943
L135.404 218.274
L138.915 217.587
L142.427 216.884
L145.938 216.163
L149.45 215.425
L152.961 214.668
L156.473 213.892
L159.984 213.097
L163.495 212.283
L167.007 211.448
L170.518 210.593
L174.03 209.716
L177.541 208.818
L181.053 207.898
L184.564 206.955
L188.076 205.988
L191.587 204.998
L195.099 203.983
L198.61 202.943
L202.122 201.877
L205.633 200.785
L209.144 199.666
L212.656 198.519
L216.167 197.344
L219.679 196.139
L223.19 194.905
L226.702 193.641
L230.213 192.345
L233.725 191.017
L237.236 189.656
L240.748 188.261
L244.259 186.832
L247.771 185.367
L251.282 183.867
L254.794 182.329
L258.305 180.753
L261.816 179.138
L265.328 177.483
L268.839 175.787
L272.351 174.049
L275.862 172.269
L279.374 170.444
L282.885 168.574
L286.397 166.657
L289.908 164.694
L293.42 162.681
L296.931 160.619
L300.443 158.506
L303.954 156.34
L307.466 154.121
L310.977 151.847
L314.488 149.517
L318 147.129
L321.511 144.682
L325.023 142.174
L328.534 139.605
L332.046 136.971
L335.557 134.273
L339.069 131.508
L342.58 128.674
L346.092 125.77
L349.603 122.795
L353.115 119.745
L356.626 116.621
L360.137 113.418
L363.649 110.137
L367.16 106.775
L370.672 103.329
L374.183 99.7978
L377.695 96.1794
L381.206 92.4715
L384.718 88.6717
L388.229 84.778
L391.741 80.7878
L395.252 76.699
L398.764 72.5089
L402.275 68.2151
L405.787 63.8151
L409.298 59.3062
L412.809 54.6857
L416.321 49.9508
L419.832 45.0988" style="fill:none;stroke:#0000ff;stroke-linecap:square;stroke-width:2.0;"/>
   </g>
   <g id="line2d_47">
    <defs>
     <path d="
M3 1.83697e-16
L-3 -1.83697e-16" id="macc9fe3a8c" style="stroke:#0000ff;stroke-width:2.0;"/>
    </defs>
    <g clip-path="url(#p7875ff5245)">
     <use style="fill:#0000ff;stroke:#0000ff;stroke-width:2.0;" x="72.1973545928" xlink:href="#macc9fe3a8c" y="228.226193406"/>
     <use style="fill:#0000ff;stroke:#0000ff;stroke-width:2.0;" x="188.075696449" xlink:href="#macc9fe3a8c" y="200.240316414"/>
     <use style="fill:#0000ff;stroke:#0000ff;stroke-width:2.0;" x="303.954038304" xlink:href="#macc9fe3a8c" y="149.927994644"/>
     <use style="fill:#0000ff;stroke:#0000ff;stroke-width:2.0;" x="419.83238016" xlink:href="#macc9fe3a8c" y="66.4390875202"/>
    </g>
   </g>
   <g id="line2d_48">
    <g clip-path="url(#p7875ff5245)">
     <use style="fill:#0000ff;stroke:#0000ff;stroke-width:2.0;" x="72.1973545928" xlink:href="#macc9fe3a8c" y="228.067049184"/>
     <use style="fill:#0000ff;stroke:#0000ff;stroke-width:2.0;" x="188.075696449" xlink:href="#macc9fe3a8c" y="199.480724166"/>
     <use style="fill:#0000ff;stroke:#0000ff;stroke-width:2.0;" x="303.954038304" xlink:href="#macc9fe3a8c" y="149.666083813"/>
     <use style="fill:#0000ff;stroke:#0000ff;stroke-width:2.0;" x="419.83238016" xlink:href="#macc9fe3a8c" y="65.5886708291"/>
    </g>
   </g>
   <g id="line2d_49">
    <defs>
     <path d="
M0 1.75
C0.464105 1.75 0.909265 1.56561 1.23744 1.23744
C1.56561 0.909265 1.75 0.464105 1.75 0
C1.75 -0.464105 1.56561 -0.909265 1.23744 -1.23744
C0.909265 -1.56561 0.464105 -1.75 0 -1.75
C-0.464105 -1.75 -0.909265 -1.56561 -1.23744 -1.23744
C-1.56561 -0.909265 -1.75 -0.464105 -1.75 0
C-1.75 0.464105 -1.56561 0.909265 -1.23744 1.23744
C-0.909265 1.56561 -0.464105 1.75 0 1.75
z
" id="mefd247b897" style="stroke:#0000ff;stroke-width:2.0;"/>
    </defs>
    <g clip-path="url(#p7875ff5245)">
     <use style="fill:#0000ff;stroke:#0000ff;stroke-width:2.0;" x="72.1973545928" xlink:href="#mefd247b897" y="228.146621295"/>
     <use style="fill:#0000ff;stroke:#0000ff;stroke-width:2.0;" x="188.075696449" xlink:href="#mefd247b897" y="199.86052029"/>
     <use style="fill:#0000ff;stroke:#0000ff;stroke-width:2.0;" x="303.954038304" xlink:href="#mefd247b897" y="149.797039228"/>
     <use style="fill:#0000ff;stroke:#0000ff;stroke-width:2.0;" x="419.83238016" xlink:href="#mefd247b897" y="66.0138791747"/>
    </g>
   </g>
   <g id="line2d_50">
    <path clip-path="url(#p7875ff5245)" d="
M72.1974 228.147" style="fill:none;opacity:0.5;stroke:#0000ff;stroke-linecap:square;stroke-width:2.0;"/>
   </g>
   <g id="line2d_51">
    <path clip-path="url(#p7875ff5245)" d="
M188.076 199.861" style="fill:none;opacity:0.5;stroke:#0000ff;stroke-linecap:square;stroke-width:2.0;"/>
   </g>
   <g id="line2d_52">
    <path clip-path="url(#p7875ff5245)" d="
M303.954 149.797" style="fill:none;opacity:0.5;stroke:#0000ff;stroke-linecap:square;stroke-width:2.0;"/>
   </g>
   <g id="line2d_53">
    <path clip-path="url(#p7875ff5245)" d="
M419.832 66.0139" style="fill:none;opacity:0.5;stroke:#0000ff;stroke-linecap:square;stroke-width:2.0;"/>
   </g>
   <g id="line2d_54">
    <path clip-path="url(#p7875ff5245)" d="
M72.1974 245.399
L75.7088 245.393
L79.2203 245.385
L82.7317 245.378
L86.2432 245.371
L89.7547 245.363
L93.2661 245.355
L96.7776 245.347
L100.289 245.339
L103.801 245.331
L107.312 245.322
L110.823 245.313
L114.335 245.304
L117.846 245.295
L121.358 245.285
L124.869 245.276
L128.381 245.266
L131.892 245.255
L135.404 245.245
L138.915 245.234
L142.427 245.223
L145.938 245.212
L149.45 245.2
L152.961 245.188
L156.473 245.176
L159.984 245.164
L163.495 245.151
L167.007 245.138
L170.518 245.124
L174.03 245.111
L177.541 245.097
L181.053 245.082
L184.564 245.067
L188.076 245.052
L191.587 245.037
L195.099 245.021
L198.61 245.005
L202.122 244.988
L205.633 244.971
L209.144 244.953
L212.656 244.935
L216.167 244.917
L219.679 244.898
L223.19 244.879
L226.702 244.859
L230.213 244.839
L233.725 244.818
L237.236 244.796
L240.748 244.775
L244.259 244.752
L247.771 244.729
L251.282 244.706
L254.794 244.682
L258.305 244.657
L261.816 244.632
L265.328 244.606
L268.839 244.579
L272.351 244.552
L275.862 244.524
L279.374 244.495
L282.885 244.466
L286.397 244.436
L289.908 244.405
L293.42 244.374
L296.931 244.341
L300.443 244.308
L303.954 244.274
L307.466 244.24
L310.977 244.204
L314.488 244.168
L318 244.13
L321.511 244.092
L325.023 244.053
L328.534 244.012
L332.046 243.971
L335.557 243.929
L339.069 243.885
L342.58 243.841
L346.092 243.796
L349.603 243.749
L353.115 243.701
L356.626 243.652
L360.137 243.602
L363.649 243.551
L367.16 243.498
L370.672 243.444
L374.183 243.389
L377.695 243.332
L381.206 243.274
L384.718 243.214
L388.229 243.153
L391.741 243.091
L395.252 243.027
L398.764 242.961
L402.275 242.894
L405.787 242.825
L409.298 242.754
L412.809 242.682
L416.321 242.608
L419.832 242.532" style="fill:none;stroke:#ff0000;stroke-linecap:square;stroke-width:2.0;"/>
   </g>
   <g id="line2d_55">
    <defs>
     <path d="
M3 1.83697e-16
L-3 -1.83697e-16" id="mab57669a25" style="stroke:#ff0000;stroke-width:2.0;"/>
    </defs>
    <g clip-path="url(#p7875ff5245)">
     <use style="fill:#ff0000;stroke:#ff0000;stroke-width:2.0;" x="72.1973545928" xlink:href="#mab57669a25" y="245.418250043"/>
     <use style="fill:#ff0000;stroke:#ff0000;stroke-width:2.0;" x="188.075696449" xlink:href="#mab57669a25" y="244.792375878"/>
     <use style="fill:#ff0000;stroke:#ff0000;stroke-width:2.0;" x="303.954038304" xlink:href="#mab57669a25" y="243.922363775"/>
     <use style="fill:#ff0000;stroke:#ff0000;stroke-width:2.0;" x="419.83238016" xlink:href="#mab57669a25" y="242.819208958"/>
    </g>
   </g>
   <g id="line2d_56">
    <g clip-path="url(#p7875ff5245)">
     <use style="fill:#ff0000;stroke:#ff0000;stroke-width:2.0;" x="72.1973545928" xlink:href="#mab57669a25" y="245.380729867"/>
     <use style="fill:#ff0000;stroke:#ff0000;stroke-width:2.0;" x="188.075696449" xlink:href="#mab57669a25" y="244.74684122"/>
     <use style="fill:#ff0000;stroke:#ff0000;stroke-width:2.0;" x="303.954038304" xlink:href="#mab57669a25" y="243.812238482"/>
     <use style="fill:#ff0000;stroke:#ff0000;stroke-width:2.0;" x="419.83238016" xlink:href="#mab57669a25" y="242.72882305"/>
    </g>
   </g>
   <g id="line2d_57">
    <defs>
     <path d="
M0 1.75
C0.464105 1.75 0.909265 1.56561 1.23744 1.23744
C1.56561 0.909265 1.75 0.464105 1.75 0
C1.75 -0.464105 1.56561 -0.909265 1.23744 -1.23744
C0.909265 -1.56561 0.464105 -1.75 0 -1.75
C-0.464105 -1.75 -0.909265 -1.56561 -1.23744 -1.23744
C-1.56561 -0.909265 -1.75 -0.464105 -1.75 0
C-1.75 0.464105 -1.56561 0.909265 -1.23744 1.23744
C-0.909265 1.56561 -0.464105 1.75 0 1.75
z
" id="m598132a03d" style="stroke:#ff0000;stroke-width:2.0;"/>
    </defs>
    <g clip-path="url(#p7875ff5245)">
     <use style="fill:#ff0000;stroke:#ff0000;stroke-width:2.0;" x="72.1973545928" xlink:href="#m598132a03d" y="245.399489955"/>
     <use style="fill:#ff0000;stroke:#ff0000;stroke-width:2.0;" x="188.075696449" xlink:href="#m598132a03d" y="244.769608549"/>
     <use style="fill:#ff0000;stroke:#ff0000;stroke-width:2.0;" x="303.954038304" xlink:href="#m598132a03d" y="243.867301129"/>
     <use style="fill:#ff0000;stroke:#ff0000;stroke-width:2.0;" x="419.83238016" xlink:href="#m598132a03d" y="242.774016004"/>
    </g>
   </g>
   <g id="line2d_58">
    <path clip-path="url(#p7875ff5245)" d="
M72.1974 245.399" style="fill:none;opacity:0.5;stroke:#ff0000;stroke-linecap:square;stroke-width:2.0;"/>
   </g>
   <g id="line2d_59">
    <path clip-path="url(#p7875ff5245)" d="
M188.076 244.77" style="fill:none;opacity:0.5;stroke:#ff0000;stroke-linecap:square;stroke-width:2.0;"/>
   </g>
   <g id="line2d_60">
    <path clip-path="url(#p7875ff5245)" d="
M303.954 243.867" style="fill:none;opacity:0.5;stroke:#ff0000;stroke-linecap:square;stroke-width:2.0;"/>
   </g>
   <g id="line2d_61">
    <path clip-path="url(#p7875ff5245)" d="
M419.832 242.774" style="fill:none;opacity:0.5;stroke:#ff0000;stroke-linecap:square;stroke-width:2.0;"/>
   </g>
   <g id="patch_3">
    <path d="
M425.626 246.007
L425.626 35.895" style="fill:none;stroke:#000000;stroke-linecap:square;stroke-linejoin:miter;"/>
   </g>
   <g id="patch_4">
    <path d="
M66.4034 35.895
L425.626 35.895" style="fill:none;stroke:#000000;stroke-linecap:square;stroke-linejoin:miter;"/>
   </g>
   <g id="patch_5">
    <path d="
M66.4034 246.007
L66.4034 35.895" style="fill:none;stroke:#000000;stroke-linecap:square;stroke-linejoin:miter;"/>
   </g>
   <g id="patch_6">
    <path d="
M66.4034 246.007
L425.626 246.007" style="fill:none;stroke:#000000;stroke-linecap:square;stroke-linejoin:miter;"/>
   </g>
   <g id="legend_1">
    <g id="patch_7">
     <path d="
M437.706 186.194
L595.303 186.194
Q598.183 186.194 598.183 183.314
L598.183 102.588
Q598.183 99.7085 595.303 99.7085
L437.706 99.7085
Q434.826 99.7085 434.826 102.588
L434.826 183.314
Q434.826 186.194 437.706 186.194
z
" style="fill:#4c4c4c;opacity:0.5;stroke:#4c4c4c;stroke-linejoin:miter;"/>
    </g>
    <g id="patch_8">
     <path d="
M435.706 184.194
L593.303 184.194
Q596.183 184.194 596.183 181.314
L596.183 100.588
Q596.183 97.7085 593.303 97.7085
L435.706 97.7085
Q432.826 97.7085 432.826 100.588
L432.826 181.314
Q432.826 184.194 435.706 184.194
z
" style="fill:#ffffff;stroke:#000000;stroke-linejoin:miter;"/>
    </g>
    <g id="line2d_62">
     <path d="
M438.586 108.911
L467.386 108.911" style="fill:none;stroke:#0000ff;stroke-linecap:square;stroke-width:2.0;"/>
    </g>
    <g id="line2d_63"/>
    <g id="text_19">
     <!-- Live cells (fitted) -->
     <defs>
      <path d="
M21 0
L1.26562 51.8594
L10.5469 51.8594
L21.6875 20.7969
Q23.4844 15.7656 25 10.3594
Q26.1719 14.4531 28.2656 20.2188
L39.7969 51.8594
L48.8281 51.8594
L29.2031 0
z
" id="ArialMT-76"/>
      <path d="
M40.2344 0
L40.2344 6.54688
Q35.2969 -1.17188 25.7344 -1.17188
Q19.5312 -1.17188 14.3281 2.25
Q9.125 5.67188 6.26562 11.7969
Q3.42188 17.9219 3.42188 25.875
Q3.42188 33.6406 6 39.9688
Q8.59375 46.2969 13.7656 49.6562
Q18.9531 53.0312 25.3438 53.0312
Q30.0312 53.0312 33.6875 51.0469
Q37.3594 49.0781 39.6562 45.9062
L39.6562 71.5781
L48.3906 71.5781
L48.3906 0
z

M12.4531 25.875
Q12.4531 15.9219 16.6406 10.9844
Q20.8438 6.0625 26.5625 6.0625
Q32.3281 6.0625 36.3438 10.7656
Q40.375 15.4844 40.375 25.1406
Q40.375 35.7969 36.2656 40.7656
Q32.1719 45.75 26.1719 45.75
Q20.3125 45.75 16.375 40.9688
Q12.4531 36.1875 12.4531 25.875" id="ArialMT-64"/>
      <path d="
M40.4375 19
L49.0781 17.875
Q47.6562 8.9375 41.8125 3.875
Q35.9844 -1.17188 27.4844 -1.17188
Q16.8438 -1.17188 10.375 5.78125
Q3.90625 12.75 3.90625 25.7344
Q3.90625 34.125 6.6875 40.4219
Q9.46875 46.7344 15.1562 49.875
Q20.8438 53.0312 27.5469 53.0312
Q35.9844 53.0312 41.3594 48.75
Q46.7344 44.4844 48.25 36.625
L39.7031 35.2969
Q38.4844 40.5312 35.375 43.1562
Q32.2812 45.7969 27.875 45.7969
Q21.2344 45.7969 17.0781 41.0312
Q12.9375 36.2812 12.9375 25.9844
Q12.9375 15.5312 16.9375 10.7969
Q20.9531 6.0625 27.3906 6.0625
Q32.5625 6.0625 36.0312 9.23438
Q39.5 12.4062 40.4375 19" id="ArialMT-63"/>
      <path d="
M7.32812 0
L7.32812 71.5781
L16.7969 71.5781
L16.7969 8.45312
L52.0469 8.45312
L52.0469 0
z
" id="ArialMT-4c"/>
     </defs>
     <g transform="translate(478.906297253 113.95125)scale(0.144 -0.144)">
      <use xlink:href="#ArialMT-4c"/>
      <use x="55.615234375" xlink:href="#ArialMT-69"/>
      <use x="77.83203125" xlink:href="#ArialMT-76"/>
      <use x="127.83203125" xlink:href="#ArialMT-65"/>
      <use x="183.447265625" xlink:href="#ArialMT-20"/>
      <use x="211.23046875" xlink:href="#ArialMT-63"/>
      <use x="261.23046875" xlink:href="#ArialMT-65"/>
      <use x="316.845703125" xlink:href="#ArialMT-6c"/>
      <use x="339.0625" xlink:href="#ArialMT-6c"/>
      <use x="361.279296875" xlink:href="#ArialMT-73"/>
      <use x="411.279296875" xlink:href="#ArialMT-20"/>
      <use x="439.0625" xlink:href="#ArialMT-28"/>
      <use x="472.36328125" xlink:href="#ArialMT-66"/>
      <use x="500.146484375" xlink:href="#ArialMT-69"/>
      <use x="522.36328125" xlink:href="#ArialMT-74"/>
      <use x="550.146484375" xlink:href="#ArialMT-74"/>
      <use x="577.9296875" xlink:href="#ArialMT-65"/>
      <use x="633.544921875" xlink:href="#ArialMT-64"/>
      <use x="689.16015625" xlink:href="#ArialMT-29"/>
     </g>
    </g>
    <g id="line2d_64">
     <path d="
M438.586 129.625
L467.386 129.625" style="fill:none;stroke:#ff0000;stroke-linecap:square;stroke-width:2.0;"/>
    </g>
    <g id="line2d_65"/>
    <g id="text_20">
     <!-- Dead cells (fitted) -->
     <g transform="translate(478.906297253 134.66475)scale(0.144 -0.144)">
      <use xlink:href="#ArialMT-44"/>
      <use x="72.216796875" xlink:href="#ArialMT-65"/>
      <use x="127.83203125" xlink:href="#ArialMT-61"/>
      <use x="183.447265625" xlink:href="#ArialMT-64"/>
      <use x="239.0625" xlink:href="#ArialMT-20"/>
      <use x="266.845703125" xlink:href="#ArialMT-63"/>
      <use x="316.845703125" xlink:href="#ArialMT-65"/>
      <use x="372.4609375" xlink:href="#ArialMT-6c"/>
      <use x="394.677734375" xlink:href="#ArialMT-6c"/>
      <use x="416.89453125" xlink:href="#ArialMT-73"/>
      <use x="466.89453125" xlink:href="#ArialMT-20"/>
      <use x="494.677734375" xlink:href="#ArialMT-28"/>
      <use x="527.978515625" xlink:href="#ArialMT-66"/>
      <use x="555.76171875" xlink:href="#ArialMT-69"/>
      <use x="577.978515625" xlink:href="#ArialMT-74"/>
      <use x="605.76171875" xlink:href="#ArialMT-74"/>
      <use x="633.544921875" xlink:href="#ArialMT-65"/>
      <use x="689.16015625" xlink:href="#ArialMT-64"/>
      <use x="744.775390625" xlink:href="#ArialMT-29"/>
     </g>
    </g>
    <g id="LineCollection_3">
     <path d="
M452.986 157.363
L452.986 142.963" style="fill:none;stroke:#0000ff;stroke-width:2.0;"/>
    </g>
    <g id="line2d_66">
     <g>
      <use style="fill:#0000ff;stroke:#0000ff;stroke-width:2.0;" x="452.986297253" xlink:href="#macc9fe3a8c" y="157.36275"/>
     </g>
    </g>
    <g id="line2d_67">
     <g>
      <use style="fill:#0000ff;stroke:#0000ff;stroke-width:2.0;" x="452.986297253" xlink:href="#macc9fe3a8c" y="142.96275"/>
     </g>
    </g>
    <g id="line2d_68"/>
    <g id="line2d_69">
     <g>
      <use style="fill:#0000ff;stroke:#0000ff;stroke-width:2.0;" x="452.986297253" xlink:href="#mefd247b897" y="150.16275"/>
     </g>
    </g>
    <g id="text_21">
     <!-- Live cells -->
     <g transform="translate(478.906297253 155.20275)scale(0.144 -0.144)">
      <use xlink:href="#ArialMT-4c"/>
      <use x="55.615234375" xlink:href="#ArialMT-69"/>
      <use x="77.83203125" xlink:href="#ArialMT-76"/>
      <use x="127.83203125" xlink:href="#ArialMT-65"/>
      <use x="183.447265625" xlink:href="#ArialMT-20"/>
      <use x="211.23046875" xlink:href="#ArialMT-63"/>
      <use x="261.23046875" xlink:href="#ArialMT-65"/>
      <use x="316.845703125" xlink:href="#ArialMT-6c"/>
      <use x="339.0625" xlink:href="#ArialMT-6c"/>
      <use x="361.279296875" xlink:href="#ArialMT-73"/>
     </g>
    </g>
    <g id="LineCollection_4">
     <path d="
M452.986 177.732
L452.986 163.332" style="fill:none;stroke:#ff0000;stroke-width:2.0;"/>
    </g>
    <g id="line2d_70">
     <g>
      <use style="fill:#ff0000;stroke:#ff0000;stroke-width:2.0;" x="452.986297253" xlink:href="#mab57669a25" y="177.732"/>
     </g>
    </g>
    <g id="line2d_71">
     <g>
      <use style="fill:#ff0000;stroke:#ff0000;stroke-width:2.0;" x="452.986297253" xlink:href="#mab57669a25" y="163.332"/>
     </g>
    </g>
    <g id="line2d_72"/>
    <g id="line2d_73">
     <g>
      <use style="fill:#ff0000;stroke:#ff0000;stroke-width:2.0;" x="452.986297253" xlink:href="#m598132a03d" y="170.532"/>
     </g>
    </g>
    <g id="text_22">
     <!-- Dead cells -->
     <g transform="translate(478.906297253 175.572)scale(0.144 -0.144)">
      <use xlink:href="#ArialMT-44"/>
      <use x="72.216796875" xlink:href="#ArialMT-65"/>
      <use x="127.83203125" xlink:href="#ArialMT-61"/>
      <use x="183.447265625" xlink:href="#ArialMT-64"/>
      <use x="239.0625" xlink:href="#ArialMT-20"/>
      <use x="266.845703125" xlink:href="#ArialMT-63"/>
      <use x="316.845703125" xlink:href="#ArialMT-65"/>
      <use x="372.4609375" xlink:href="#ArialMT-6c"/>
      <use x="394.677734375" xlink:href="#ArialMT-6c"/>
      <use x="416.89453125" xlink:href="#ArialMT-73"/>
     </g>
    </g>
   </g>
  </g>
  <g id="text_23">
   <!-- Live cells model (with cell death) -->
   <defs>
    <path d="
M16.1562 0
L0.296875 51.8594
L9.375 51.8594
L17.625 21.9219
L20.7031 10.7969
Q20.9062 11.625 23.3906 21.4844
L31.6406 51.8594
L40.6719 51.8594
L48.4375 21.7812
L51.0312 11.8594
L54 21.875
L62.8906 51.8594
L71.4375 51.8594
L55.2188 0
L46.0938 0
L37.8438 31.0625
L35.8438 39.8906
L25.3438 0
z
" id="ArialMT-77"/>
    <path d="
M6.59375 0
L6.59375 71.5781
L15.375 71.5781
L15.375 45.9062
Q21.5312 53.0312 30.9062 53.0312
Q36.6719 53.0312 40.9219 50.75
Q45.1719 48.4844 47 44.4844
Q48.8281 40.4844 48.8281 32.8594
L48.8281 0
L40.0469 0
L40.0469 32.8594
Q40.0469 39.4531 37.1875 42.4531
Q34.3281 45.4531 29.1094 45.4531
Q25.2031 45.4531 21.75 43.4219
Q18.3125 41.4062 16.8438 37.9375
Q15.375 34.4688 15.375 28.375
L15.375 0
z
" id="ArialMT-68"/>
   </defs>
   <g transform="translate(81.49875 21.759375)scale(0.2 -0.2)">
    <use xlink:href="#ArialMT-4c"/>
    <use x="55.615234375" xlink:href="#ArialMT-69"/>
    <use x="77.83203125" xlink:href="#ArialMT-76"/>
    <use x="127.83203125" xlink:href="#ArialMT-65"/>
    <use x="183.447265625" xlink:href="#ArialMT-20"/>
    <use x="211.23046875" xlink:href="#ArialMT-63"/>
    <use x="261.23046875" xlink:href="#ArialMT-65"/>
    <use x="316.845703125" xlink:href="#ArialMT-6c"/>
    <use x="339.0625" xlink:href="#ArialMT-6c"/>
    <use x="361.279296875" xlink:href="#ArialMT-73"/>
    <use x="411.279296875" xlink:href="#ArialMT-20"/>
    <use x="439.0625" xlink:href="#ArialMT-6d"/>
    <use x="522.36328125" xlink:href="#ArialMT-6f"/>
    <use x="577.978515625" xlink:href="#ArialMT-64"/>
    <use x="633.59375" xlink:href="#ArialMT-65"/>
    <use x="689.208984375" xlink:href="#ArialMT-6c"/>
    <use x="711.42578125" xlink:href="#ArialMT-20"/>
    <use x="739.208984375" xlink:href="#ArialMT-28"/>
    <use x="772.509765625" xlink:href="#ArialMT-77"/>
    <use x="844.7265625" xlink:href="#ArialMT-69"/>
    <use x="866.943359375" xlink:href="#ArialMT-74"/>
    <use x="894.7265625" xlink:href="#ArialMT-68"/>
    <use x="950.341796875" xlink:href="#ArialMT-20"/>
    <use x="978.125" xlink:href="#ArialMT-63"/>
    <use x="1028.125" xlink:href="#ArialMT-65"/>
    <use x="1083.740234375" xlink:href="#ArialMT-6c"/>
    <use x="1105.95703125" xlink:href="#ArialMT-6c"/>
    <use x="1128.173828125" xlink:href="#ArialMT-20"/>
    <use x="1155.95703125" xlink:href="#ArialMT-64"/>
    <use x="1211.572265625" xlink:href="#ArialMT-65"/>
    <use x="1267.1875" xlink:href="#ArialMT-61"/>
    <use x="1322.802734375" xlink:href="#ArialMT-74"/>
    <use x="1350.5859375" xlink:href="#ArialMT-68"/>
    <use x="1406.201171875" xlink:href="#ArialMT-29"/>
   </g>
  </g>
 </g>
 <defs>
  <clipPath id="p7875ff5245">
   <rect height="210.1125" width="359.222859753" x="66.4034375" y="35.895"/>
  </clipPath>
 </defs>
</svg>
