<table>
<tr><th>Parameter  </th><th>  Value</th><th>  Std. Error</th><th>units  </th><th>  Inv_value</th></tr>
<tr><td>growth_rate</td><td>0.0342 </td><td>0.000698    </td><td>1/hours</td><td>29.2       </td></tr>
</table>