<table>
	<tr><th></th><th colspan="2">Live cells</th><th colspan="2">Dead cells</th></tr>
	<tr><th>Hours</th><th>Mean</th><th>STD</th><th>Mean</th><th>STD</th></tr>
	<tr><td>0.0</td><td>2.93e+03</td><td>130</td><td>2.84e+03</td><td>143</td></tr>
	<tr><td>48.0</td><td>5.14e+03</td><td>129</td><td>4.86e+03</td><td>127</td></tr>
	<tr><td>72.0</td><td>5.14e+03</td><td>83.9</td><td>4.75e+03</td><td>85.8</td></tr>
</table>