Name,MAPE,Warning
Total cells model (with logistic limits),1.53,
Live cells model (with logistic limits),2.18,
Total cells model,6.88,
Live cells model,7.6,
Live cells model (with cell death and logistic limits),8.99,(c)
Live cells model (with cell death),11.4,(u)
