<?xml version="1.0" encoding="utf-8" standalone="no"?>
<!DOCTYPE svg PUBLIC "-//W3C//DTD SVG 1.1//EN"
  "http://www.w3.org/Graphics/SVG/1.1/DTD/svg11.dtd">
<!-- Created with matplotlib (http://matplotlib.org/) -->
<svg height="307pt" version="1.1" viewBox="0 0 555 307" width="555pt" xmlns="http://www.w3.org/2000/svg" xmlns:xlink="http://www.w3.org/1999/xlink">
 <defs>
  <style type="text/css">
*{stroke-linecap:butt;stroke-linejoin:round;stroke-miterlimit:100000;}
  </style>
 </defs>
 <g id="figure_1">
  <g id="patch_1">
   <path d="M 0 307.16 
L 555.09786 307.16 
L 555.09786 0 
L 0 0 
z
" style="fill:#ffffff;"/>
  </g>
  <g id="axes_1">
   <g id="patch_2">
    <path d="M 56.563437 246.0075 
L 421.62786 246.0075 
L 421.62786 35.295 
L 56.563437 35.295 
z
" style="fill:#ffffff;"/>
   </g>
   <g id="matplotlib.axis_1">
    <g id="xtick_1">
     <g id="line2d_1">
      <path clip-path="url(#p7b3928bace)" d="M 56.791318 246.0075 
L 56.791318 35.295 
" style="fill:none;opacity:0.2;stroke:#b2b2b2;stroke-linecap:square;stroke-width:0.5;"/>
     </g>
     <g id="line2d_2">
      <defs>
       <path d="M 0 0 
L 0 4 
" id="m14b051224a" style="stroke:#000000;"/>
      </defs>
      <g>
       <use style="stroke:#000000;" x="56.7913179137" xlink:href="#m14b051224a" y="246.0075"/>
      </g>
     </g>
     <g id="line2d_3">
      <defs>
       <path d="M 0 0 
L 0 -4 
" id="mfb4d24ce77" style="stroke:#000000;"/>
      </defs>
      <g>
       <use style="stroke:#000000;" x="56.7913179137" xlink:href="#mfb4d24ce77" y="35.295"/>
      </g>
     </g>
     <g id="text_1">
      <!-- $\mathdefault{0}$ -->
      <defs>
       <path d="M 4.15625 35.296875 
Q 4.15625 48 6.765625 55.734375 
Q 9.375 63.484375 14.515625 67.671875 
Q 19.671875 71.875 27.484375 71.875 
Q 33.25 71.875 37.59375 69.546875 
Q 41.9375 67.234375 44.765625 62.859375 
Q 47.609375 58.5 49.21875 52.21875 
Q 50.828125 45.953125 50.828125 35.296875 
Q 50.828125 22.703125 48.234375 14.96875 
Q 45.65625 7.234375 40.5 3 
Q 35.359375 -1.21875 27.484375 -1.21875 
Q 17.140625 -1.21875 11.234375 6.203125 
Q 4.15625 15.140625 4.15625 35.296875 
M 13.1875 35.296875 
Q 13.1875 17.671875 17.3125 11.828125 
Q 21.4375 6 27.484375 6 
Q 33.546875 6 37.671875 11.859375 
Q 41.796875 17.71875 41.796875 35.296875 
Q 41.796875 52.984375 37.671875 58.78125 
Q 33.546875 64.59375 27.390625 64.59375 
Q 21.34375 64.59375 17.71875 59.46875 
Q 13.1875 52.9375 13.1875 35.296875 
" id="ArialMT-30"/>
      </defs>
      <g transform="translate(53.4313179137 264.596875)scale(0.12 -0.12)">
       <use transform="translate(0.0 0.125)" xlink:href="#ArialMT-30"/>
      </g>
     </g>
    </g>
    <g id="xtick_2">
     <g id="line2d_4">
      <path clip-path="url(#p7b3928bace)" d="M 102.367401 246.0075 
L 102.367401 35.295 
" style="fill:none;opacity:0.2;stroke:#b2b2b2;stroke-linecap:square;stroke-width:0.5;"/>
     </g>
     <g id="line2d_5">
      <g>
       <use style="stroke:#000000;" x="102.36740065" xlink:href="#m14b051224a" y="246.0075"/>
      </g>
     </g>
     <g id="line2d_6">
      <g>
       <use style="stroke:#000000;" x="102.36740065" xlink:href="#mfb4d24ce77" y="35.295"/>
      </g>
     </g>
     <g id="text_2">
      <!-- $\mathdefault{10}$ -->
      <defs>
       <path d="M 37.25 0 
L 28.46875 0 
L 28.46875 56 
Q 25.296875 52.984375 20.140625 49.953125 
Q 14.984375 46.921875 10.890625 45.40625 
L 10.890625 53.90625 
Q 18.265625 57.375 23.78125 62.296875 
Q 29.296875 67.234375 31.59375 71.875 
L 37.25 71.875 
z
" id="ArialMT-31"/>
      </defs>
      <g transform="translate(95.6474006504 264.596875)scale(0.12 -0.12)">
       <use transform="translate(0.0 0.125)" xlink:href="#ArialMT-31"/>
       <use transform="translate(55.615234375 0.125)" xlink:href="#ArialMT-30"/>
      </g>
     </g>
    </g>
    <g id="xtick_3">
     <g id="line2d_7">
      <path clip-path="url(#p7b3928bace)" d="M 147.943483 246.0075 
L 147.943483 35.295 
" style="fill:none;opacity:0.2;stroke:#b2b2b2;stroke-linecap:square;stroke-width:0.5;"/>
     </g>
     <g id="line2d_8">
      <g>
       <use style="stroke:#000000;" x="147.943483387" xlink:href="#m14b051224a" y="246.0075"/>
      </g>
     </g>
     <g id="line2d_9">
      <g>
       <use style="stroke:#000000;" x="147.943483387" xlink:href="#mfb4d24ce77" y="35.295"/>
      </g>
     </g>
     <g id="text_3">
      <!-- $\mathdefault{20}$ -->
      <defs>
       <path d="M 50.34375 8.453125 
L 50.34375 0 
L 3.03125 0 
Q 2.9375 3.171875 4.046875 6.109375 
Q 5.859375 10.9375 9.828125 15.625 
Q 13.8125 20.3125 21.34375 26.46875 
Q 33.015625 36.03125 37.109375 41.625 
Q 41.21875 47.21875 41.21875 52.203125 
Q 41.21875 57.421875 37.46875 61 
Q 33.734375 64.59375 27.734375 64.59375 
Q 21.390625 64.59375 17.578125 60.78125 
Q 13.765625 56.984375 13.71875 50.25 
L 4.6875 51.171875 
Q 5.609375 61.28125 11.65625 66.578125 
Q 17.71875 71.875 27.9375 71.875 
Q 38.234375 71.875 44.234375 66.15625 
Q 50.25 60.453125 50.25 52 
Q 50.25 47.703125 48.484375 43.546875 
Q 46.734375 39.40625 42.65625 34.8125 
Q 38.578125 30.21875 29.109375 22.21875 
Q 21.1875 15.578125 18.9375 13.203125 
Q 16.703125 10.84375 15.234375 8.453125 
z
" id="ArialMT-32"/>
      </defs>
      <g transform="translate(141.223483387 264.596875)scale(0.12 -0.12)">
       <use transform="translate(0.0 0.125)" xlink:href="#ArialMT-32"/>
       <use transform="translate(55.615234375 0.125)" xlink:href="#ArialMT-30"/>
      </g>
     </g>
    </g>
    <g id="xtick_4">
     <g id="line2d_10">
      <path clip-path="url(#p7b3928bace)" d="M 193.519566 246.0075 
L 193.519566 35.295 
" style="fill:none;opacity:0.2;stroke:#b2b2b2;stroke-linecap:square;stroke-width:0.5;"/>
     </g>
     <g id="line2d_11">
      <g>
       <use style="stroke:#000000;" x="193.519566124" xlink:href="#m14b051224a" y="246.0075"/>
      </g>
     </g>
     <g id="line2d_12">
      <g>
       <use style="stroke:#000000;" x="193.519566124" xlink:href="#mfb4d24ce77" y="35.295"/>
      </g>
     </g>
     <g id="text_4">
      <!-- $\mathdefault{30}$ -->
      <defs>
       <path d="M 4.203125 18.890625 
L 12.984375 20.0625 
Q 14.5 12.59375 18.140625 9.296875 
Q 21.78125 6 27 6 
Q 33.203125 6 37.46875 10.296875 
Q 41.75 14.59375 41.75 20.953125 
Q 41.75 27 37.796875 30.921875 
Q 33.84375 34.859375 27.734375 34.859375 
Q 25.25 34.859375 21.53125 33.890625 
L 22.515625 41.609375 
Q 23.390625 41.5 23.921875 41.5 
Q 29.546875 41.5 34.03125 44.421875 
Q 38.53125 47.359375 38.53125 53.46875 
Q 38.53125 58.296875 35.25 61.46875 
Q 31.984375 64.65625 26.8125 64.65625 
Q 21.6875 64.65625 18.265625 61.421875 
Q 14.84375 58.203125 13.875 51.765625 
L 5.078125 53.328125 
Q 6.6875 62.15625 12.390625 67.015625 
Q 18.109375 71.875 26.609375 71.875 
Q 32.46875 71.875 37.390625 69.359375 
Q 42.328125 66.84375 44.9375 62.5 
Q 47.5625 58.15625 47.5625 53.265625 
Q 47.5625 48.640625 45.0625 44.828125 
Q 42.578125 41.015625 37.703125 38.765625 
Q 44.046875 37.3125 47.5625 32.6875 
Q 51.078125 28.078125 51.078125 21.140625 
Q 51.078125 11.765625 44.234375 5.25 
Q 37.40625 -1.265625 26.953125 -1.265625 
Q 17.53125 -1.265625 11.296875 4.34375 
Q 5.078125 9.96875 4.203125 18.890625 
" id="ArialMT-33"/>
      </defs>
      <g transform="translate(186.799566124 264.596875)scale(0.12 -0.12)">
       <use transform="translate(0.0 0.125)" xlink:href="#ArialMT-33"/>
       <use transform="translate(55.615234375 0.125)" xlink:href="#ArialMT-30"/>
      </g>
     </g>
    </g>
    <g id="xtick_5">
     <g id="line2d_13">
      <path clip-path="url(#p7b3928bace)" d="M 239.095649 246.0075 
L 239.095649 35.295 
" style="fill:none;opacity:0.2;stroke:#b2b2b2;stroke-linecap:square;stroke-width:0.5;"/>
     </g>
     <g id="line2d_14">
      <g>
       <use style="stroke:#000000;" x="239.095648861" xlink:href="#m14b051224a" y="246.0075"/>
      </g>
     </g>
     <g id="line2d_15">
      <g>
       <use style="stroke:#000000;" x="239.095648861" xlink:href="#mfb4d24ce77" y="35.295"/>
      </g>
     </g>
     <g id="text_5">
      <!-- $\mathdefault{40}$ -->
      <defs>
       <path d="M 32.328125 0 
L 32.328125 17.140625 
L 1.265625 17.140625 
L 1.265625 25.203125 
L 33.9375 71.578125 
L 41.109375 71.578125 
L 41.109375 25.203125 
L 50.78125 25.203125 
L 50.78125 17.140625 
L 41.109375 17.140625 
L 41.109375 0 
z
M 32.328125 25.203125 
L 32.328125 57.46875 
L 9.90625 25.203125 
z
" id="ArialMT-34"/>
      </defs>
      <g transform="translate(232.375648861 264.596875)scale(0.12 -0.12)">
       <use transform="translate(0.0 0.125)" xlink:href="#ArialMT-34"/>
       <use transform="translate(55.615234375 0.125)" xlink:href="#ArialMT-30"/>
      </g>
     </g>
    </g>
    <g id="xtick_6">
     <g id="line2d_16">
      <path clip-path="url(#p7b3928bace)" d="M 284.671732 246.0075 
L 284.671732 35.295 
" style="fill:none;opacity:0.2;stroke:#b2b2b2;stroke-linecap:square;stroke-width:0.5;"/>
     </g>
     <g id="line2d_17">
      <g>
       <use style="stroke:#000000;" x="284.671731597" xlink:href="#m14b051224a" y="246.0075"/>
      </g>
     </g>
     <g id="line2d_18">
      <g>
       <use style="stroke:#000000;" x="284.671731597" xlink:href="#mfb4d24ce77" y="35.295"/>
      </g>
     </g>
     <g id="text_6">
      <!-- $\mathdefault{50}$ -->
      <defs>
       <path d="M 4.15625 18.75 
L 13.375 19.53125 
Q 14.40625 12.796875 18.140625 9.390625 
Q 21.875 6 27.15625 6 
Q 33.5 6 37.890625 10.78125 
Q 42.28125 15.578125 42.28125 23.484375 
Q 42.28125 31 38.0625 35.34375 
Q 33.84375 39.703125 27 39.703125 
Q 22.75 39.703125 19.328125 37.765625 
Q 15.921875 35.84375 13.96875 32.765625 
L 5.71875 33.84375 
L 12.640625 70.609375 
L 48.25 70.609375 
L 48.25 62.203125 
L 19.671875 62.203125 
L 15.828125 42.96875 
Q 22.265625 47.46875 29.34375 47.46875 
Q 38.71875 47.46875 45.15625 40.96875 
Q 51.609375 34.46875 51.609375 24.265625 
Q 51.609375 14.546875 45.953125 7.46875 
Q 39.0625 -1.21875 27.15625 -1.21875 
Q 17.390625 -1.21875 11.203125 4.25 
Q 5.03125 9.71875 4.15625 18.75 
" id="ArialMT-35"/>
      </defs>
      <g transform="translate(277.951731597 264.596875)scale(0.12 -0.12)">
       <use transform="translate(0.0 0.125)" xlink:href="#ArialMT-35"/>
       <use transform="translate(55.615234375 0.125)" xlink:href="#ArialMT-30"/>
      </g>
     </g>
    </g>
    <g id="xtick_7">
     <g id="line2d_19">
      <path clip-path="url(#p7b3928bace)" d="M 330.247814 246.0075 
L 330.247814 35.295 
" style="fill:none;opacity:0.2;stroke:#b2b2b2;stroke-linecap:square;stroke-width:0.5;"/>
     </g>
     <g id="line2d_20">
      <g>
       <use style="stroke:#000000;" x="330.247814334" xlink:href="#m14b051224a" y="246.0075"/>
      </g>
     </g>
     <g id="line2d_21">
      <g>
       <use style="stroke:#000000;" x="330.247814334" xlink:href="#mfb4d24ce77" y="35.295"/>
      </g>
     </g>
     <g id="text_7">
      <!-- $\mathdefault{60}$ -->
      <defs>
       <path d="M 49.75 54.046875 
L 41.015625 53.375 
Q 39.84375 58.546875 37.703125 60.890625 
Q 34.125 64.65625 28.90625 64.65625 
Q 24.703125 64.65625 21.53125 62.3125 
Q 17.390625 59.28125 14.984375 53.46875 
Q 12.59375 47.65625 12.5 36.921875 
Q 15.671875 41.75 20.265625 44.09375 
Q 24.859375 46.4375 29.890625 46.4375 
Q 38.671875 46.4375 44.84375 39.96875 
Q 51.03125 33.5 51.03125 23.25 
Q 51.03125 16.5 48.125 10.71875 
Q 45.21875 4.9375 40.140625 1.859375 
Q 35.0625 -1.21875 28.609375 -1.21875 
Q 17.625 -1.21875 10.6875 6.859375 
Q 3.765625 14.9375 3.765625 33.5 
Q 3.765625 54.25 11.421875 63.671875 
Q 18.109375 71.875 29.4375 71.875 
Q 37.890625 71.875 43.28125 67.140625 
Q 48.6875 62.40625 49.75 54.046875 
M 13.875 23.1875 
Q 13.875 18.65625 15.796875 14.5 
Q 17.71875 10.359375 21.1875 8.171875 
Q 24.65625 6 28.46875 6 
Q 34.03125 6 38.03125 10.484375 
Q 42.046875 14.984375 42.046875 22.703125 
Q 42.046875 30.125 38.078125 34.390625 
Q 34.125 38.671875 28.125 38.671875 
Q 22.171875 38.671875 18.015625 34.390625 
Q 13.875 30.125 13.875 23.1875 
" id="ArialMT-36"/>
      </defs>
      <g transform="translate(323.527814334 264.596875)scale(0.12 -0.12)">
       <use transform="translate(0.0 0.125)" xlink:href="#ArialMT-36"/>
       <use transform="translate(55.615234375 0.125)" xlink:href="#ArialMT-30"/>
      </g>
     </g>
    </g>
    <g id="xtick_8">
     <g id="line2d_22">
      <path clip-path="url(#p7b3928bace)" d="M 375.823897 246.0075 
L 375.823897 35.295 
" style="fill:none;opacity:0.2;stroke:#b2b2b2;stroke-linecap:square;stroke-width:0.5;"/>
     </g>
     <g id="line2d_23">
      <g>
       <use style="stroke:#000000;" x="375.823897071" xlink:href="#m14b051224a" y="246.0075"/>
      </g>
     </g>
     <g id="line2d_24">
      <g>
       <use style="stroke:#000000;" x="375.823897071" xlink:href="#mfb4d24ce77" y="35.295"/>
      </g>
     </g>
     <g id="text_8">
      <!-- $\mathdefault{70}$ -->
      <defs>
       <path d="M 4.734375 62.203125 
L 4.734375 70.65625 
L 51.078125 70.65625 
L 51.078125 63.8125 
Q 44.234375 56.546875 37.515625 44.484375 
Q 30.8125 32.421875 27.15625 19.671875 
Q 24.515625 10.6875 23.78125 0 
L 14.75 0 
Q 14.890625 8.453125 18.0625 20.40625 
Q 21.234375 32.375 27.171875 43.484375 
Q 33.109375 54.59375 39.796875 62.203125 
z
" id="ArialMT-37"/>
      </defs>
      <g transform="translate(369.103897071 264.596875)scale(0.12 -0.12)">
       <use transform="translate(0.0 0.125)" xlink:href="#ArialMT-37"/>
       <use transform="translate(55.615234375 0.125)" xlink:href="#ArialMT-30"/>
      </g>
     </g>
    </g>
    <g id="xtick_9">
     <g id="line2d_25">
      <path clip-path="url(#p7b3928bace)" d="M 421.39998 246.0075 
L 421.39998 35.295 
" style="fill:none;opacity:0.2;stroke:#b2b2b2;stroke-linecap:square;stroke-width:0.5;"/>
     </g>
     <g id="line2d_26">
      <g>
       <use style="stroke:#000000;" x="421.399979808" xlink:href="#m14b051224a" y="246.0075"/>
      </g>
     </g>
     <g id="line2d_27">
      <g>
       <use style="stroke:#000000;" x="421.399979808" xlink:href="#mfb4d24ce77" y="35.295"/>
      </g>
     </g>
     <g id="text_9">
      <!-- $\mathdefault{80}$ -->
      <defs>
       <path d="M 17.671875 38.8125 
Q 12.203125 40.828125 9.5625 44.53125 
Q 6.9375 48.25 6.9375 53.421875 
Q 6.9375 61.234375 12.546875 66.546875 
Q 18.171875 71.875 27.484375 71.875 
Q 36.859375 71.875 42.578125 66.421875 
Q 48.296875 60.984375 48.296875 53.171875 
Q 48.296875 48.1875 45.671875 44.5 
Q 43.0625 40.828125 37.75 38.8125 
Q 44.34375 36.671875 47.78125 31.875 
Q 51.21875 27.09375 51.21875 20.453125 
Q 51.21875 11.28125 44.71875 5.03125 
Q 38.234375 -1.21875 27.640625 -1.21875 
Q 17.046875 -1.21875 10.546875 5.046875 
Q 4.046875 11.328125 4.046875 20.703125 
Q 4.046875 27.6875 7.59375 32.390625 
Q 11.140625 37.109375 17.671875 38.8125 
M 15.921875 53.71875 
Q 15.921875 48.640625 19.1875 45.40625 
Q 22.46875 42.1875 27.6875 42.1875 
Q 32.765625 42.1875 36.015625 45.375 
Q 39.265625 48.578125 39.265625 53.21875 
Q 39.265625 58.0625 35.90625 61.359375 
Q 32.5625 64.65625 27.59375 64.65625 
Q 22.5625 64.65625 19.234375 61.421875 
Q 15.921875 58.203125 15.921875 53.71875 
M 13.09375 20.65625 
Q 13.09375 16.890625 14.875 13.375 
Q 16.65625 9.859375 20.171875 7.921875 
Q 23.6875 6 27.734375 6 
Q 34.03125 6 38.125 10.046875 
Q 42.234375 14.109375 42.234375 20.359375 
Q 42.234375 26.703125 38.015625 30.859375 
Q 33.796875 35.015625 27.4375 35.015625 
Q 21.234375 35.015625 17.15625 30.90625 
Q 13.09375 26.8125 13.09375 20.65625 
" id="ArialMT-38"/>
      </defs>
      <g transform="translate(414.679979808 264.596875)scale(0.12 -0.12)">
       <use transform="translate(0.0 0.125)" xlink:href="#ArialMT-38"/>
       <use transform="translate(55.615234375 0.125)" xlink:href="#ArialMT-30"/>
      </g>
     </g>
    </g>
    <g id="text_10">
     <!-- time (Hours) -->
     <defs>
      <path d="M 6.640625 61.46875 
L 6.640625 71.578125 
L 15.4375 71.578125 
L 15.4375 61.46875 
z
M 6.640625 0 
L 6.640625 51.859375 
L 15.4375 51.859375 
L 15.4375 0 
z
" id="ArialMT-69"/>
      <path d="M 3.078125 15.484375 
L 11.765625 16.84375 
Q 12.5 11.625 15.84375 8.84375 
Q 19.1875 6.0625 25.203125 6.0625 
Q 31.25 6.0625 34.171875 8.515625 
Q 37.109375 10.984375 37.109375 14.3125 
Q 37.109375 17.28125 34.515625 19 
Q 32.71875 20.171875 25.53125 21.96875 
Q 15.875 24.421875 12.140625 26.203125 
Q 8.40625 27.984375 6.46875 31.125 
Q 4.546875 34.28125 4.546875 38.09375 
Q 4.546875 41.546875 6.125 44.5 
Q 7.71875 47.46875 10.453125 49.421875 
Q 12.5 50.921875 16.03125 51.96875 
Q 19.578125 53.03125 23.640625 53.03125 
Q 29.734375 53.03125 34.34375 51.265625 
Q 38.96875 49.515625 41.15625 46.5 
Q 43.359375 43.5 44.1875 38.484375 
L 35.59375 37.3125 
Q 35.015625 41.3125 32.203125 43.546875 
Q 29.390625 45.796875 24.265625 45.796875 
Q 18.21875 45.796875 15.625 43.796875 
Q 13.03125 41.796875 13.03125 39.109375 
Q 13.03125 37.40625 14.109375 36.03125 
Q 15.1875 34.625 17.484375 33.6875 
Q 18.796875 33.203125 25.25 31.453125 
Q 34.578125 28.953125 38.25 27.359375 
Q 41.9375 25.78125 44.03125 22.75 
Q 46.140625 19.734375 46.140625 15.234375 
Q 46.140625 10.84375 43.578125 6.953125 
Q 41.015625 3.078125 36.171875 0.953125 
Q 31.34375 -1.171875 25.25 -1.171875 
Q 15.140625 -1.171875 9.84375 3.03125 
Q 4.546875 7.234375 3.078125 15.484375 
" id="ArialMT-73"/>
      <path d="M 12.359375 -21.046875 
L 6.0625 -21.046875 
Q 20.65625 2.390625 20.65625 25.875 
Q 20.65625 35.0625 18.5625 44.09375 
Q 16.890625 51.421875 13.921875 58.15625 
Q 12.015625 62.546875 6.0625 72.796875 
L 12.359375 72.796875 
Q 21.53125 60.546875 25.921875 48.1875 
Q 29.6875 37.546875 29.6875 25.921875 
Q 29.6875 12.75 24.625 0.4375 
Q 19.578125 -11.859375 12.359375 -21.046875 
" id="ArialMT-29"/>
      <path d="M 8.015625 0 
L 8.015625 71.578125 
L 17.484375 71.578125 
L 17.484375 42.1875 
L 54.6875 42.1875 
L 54.6875 71.578125 
L 64.15625 71.578125 
L 64.15625 0 
L 54.6875 0 
L 54.6875 33.734375 
L 17.484375 33.734375 
L 17.484375 0 
z
" id="ArialMT-48"/>
      <path id="ArialMT-20"/>
      <path d="M 40.578125 0 
L 40.578125 7.625 
Q 34.515625 -1.171875 24.125 -1.171875 
Q 19.53125 -1.171875 15.546875 0.578125 
Q 11.578125 2.34375 9.640625 5 
Q 7.71875 7.671875 6.9375 11.53125 
Q 6.390625 14.109375 6.390625 19.734375 
L 6.390625 51.859375 
L 15.1875 51.859375 
L 15.1875 23.09375 
Q 15.1875 16.21875 15.71875 13.8125 
Q 16.546875 10.359375 19.234375 8.375 
Q 21.921875 6.390625 25.875 6.390625 
Q 29.828125 6.390625 33.296875 8.421875 
Q 36.765625 10.453125 38.203125 13.9375 
Q 39.65625 17.4375 39.65625 24.078125 
L 39.65625 51.859375 
L 48.4375 51.859375 
L 48.4375 0 
z
" id="ArialMT-75"/>
      <path d="M 6.5 0 
L 6.5 51.859375 
L 14.40625 51.859375 
L 14.40625 44 
Q 17.4375 49.515625 20 51.265625 
Q 22.5625 53.03125 25.640625 53.03125 
Q 30.078125 53.03125 34.671875 50.203125 
L 31.640625 42.046875 
Q 28.421875 43.953125 25.203125 43.953125 
Q 22.3125 43.953125 20.015625 42.21875 
Q 17.71875 40.484375 16.75 37.40625 
Q 15.28125 32.71875 15.28125 27.15625 
L 15.28125 0 
z
" id="ArialMT-72"/>
      <path d="M 3.328125 25.921875 
Q 3.328125 40.328125 11.328125 47.265625 
Q 18.015625 53.03125 27.640625 53.03125 
Q 38.328125 53.03125 45.109375 46.015625 
Q 51.90625 39.015625 51.90625 26.65625 
Q 51.90625 16.65625 48.90625 10.90625 
Q 45.90625 5.171875 40.15625 2 
Q 34.421875 -1.171875 27.640625 -1.171875 
Q 16.75 -1.171875 10.03125 5.8125 
Q 3.328125 12.796875 3.328125 25.921875 
M 12.359375 25.921875 
Q 12.359375 15.96875 16.703125 11.015625 
Q 21.046875 6.0625 27.640625 6.0625 
Q 34.1875 6.0625 38.53125 11.03125 
Q 42.875 16.015625 42.875 26.21875 
Q 42.875 35.84375 38.5 40.796875 
Q 34.125 45.75 27.640625 45.75 
Q 21.046875 45.75 16.703125 40.8125 
Q 12.359375 35.890625 12.359375 25.921875 
" id="ArialMT-6f"/>
      <path d="M 25.78125 7.859375 
L 27.046875 0.09375 
Q 23.34375 -0.6875 20.40625 -0.6875 
Q 15.625 -0.6875 12.984375 0.828125 
Q 10.359375 2.34375 9.28125 4.8125 
Q 8.203125 7.28125 8.203125 15.1875 
L 8.203125 45.015625 
L 1.765625 45.015625 
L 1.765625 51.859375 
L 8.203125 51.859375 
L 8.203125 64.703125 
L 16.9375 69.96875 
L 16.9375 51.859375 
L 25.78125 51.859375 
L 25.78125 45.015625 
L 16.9375 45.015625 
L 16.9375 14.703125 
Q 16.9375 10.9375 17.40625 9.859375 
Q 17.875 8.796875 18.921875 8.15625 
Q 19.96875 7.515625 21.921875 7.515625 
Q 23.390625 7.515625 25.78125 7.859375 
" id="ArialMT-74"/>
      <path d="M 23.390625 -21.046875 
Q 16.109375 -11.859375 11.078125 0.4375 
Q 6.0625 12.75 6.0625 25.921875 
Q 6.0625 37.546875 9.8125 48.1875 
Q 14.203125 60.546875 23.390625 72.796875 
L 29.6875 72.796875 
Q 23.78125 62.640625 21.875 58.296875 
Q 18.890625 51.5625 17.1875 44.234375 
Q 15.09375 35.109375 15.09375 25.875 
Q 15.09375 2.390625 29.6875 -21.046875 
z
" id="ArialMT-28"/>
      <path d="M 6.59375 0 
L 6.59375 51.859375 
L 14.453125 51.859375 
L 14.453125 44.578125 
Q 16.890625 48.390625 20.9375 50.703125 
Q 25 53.03125 30.171875 53.03125 
Q 35.9375 53.03125 39.625 50.640625 
Q 43.3125 48.25 44.828125 43.953125 
Q 50.984375 53.03125 60.84375 53.03125 
Q 68.5625 53.03125 72.703125 48.75 
Q 76.859375 44.484375 76.859375 35.59375 
L 76.859375 0 
L 68.109375 0 
L 68.109375 32.671875 
Q 68.109375 37.9375 67.25 40.25 
Q 66.40625 42.578125 64.15625 43.984375 
Q 61.921875 45.40625 58.890625 45.40625 
Q 53.421875 45.40625 49.796875 41.765625 
Q 46.1875 38.140625 46.1875 30.125 
L 46.1875 0 
L 37.40625 0 
L 37.40625 33.6875 
Q 37.40625 39.546875 35.25 42.46875 
Q 33.109375 45.40625 28.21875 45.40625 
Q 24.515625 45.40625 21.359375 43.453125 
Q 18.21875 41.5 16.796875 37.734375 
Q 15.375 33.984375 15.375 26.90625 
L 15.375 0 
z
" id="ArialMT-6d"/>
      <path d="M 42.09375 16.703125 
L 51.171875 15.578125 
Q 49.03125 7.625 43.21875 3.21875 
Q 37.40625 -1.171875 28.375 -1.171875 
Q 17 -1.171875 10.328125 5.828125 
Q 3.65625 12.84375 3.65625 25.484375 
Q 3.65625 38.578125 10.390625 45.796875 
Q 17.140625 53.03125 27.875 53.03125 
Q 38.28125 53.03125 44.875 45.953125 
Q 51.46875 38.875 51.46875 26.03125 
Q 51.46875 25.25 51.421875 23.6875 
L 12.75 23.6875 
Q 13.234375 15.140625 17.578125 10.59375 
Q 21.921875 6.0625 28.421875 6.0625 
Q 33.25 6.0625 36.671875 8.59375 
Q 40.09375 11.140625 42.09375 16.703125 
M 13.234375 30.90625 
L 42.1875 30.90625 
Q 41.609375 37.453125 38.875 40.71875 
Q 34.671875 45.796875 27.984375 45.796875 
Q 21.921875 45.796875 17.796875 41.75 
Q 13.671875 37.703125 13.234375 30.90625 
" id="ArialMT-65"/>
     </defs>
     <g transform="translate(200.594555111 282.1734375)scale(0.14 -0.14)">
      <use xlink:href="#ArialMT-74"/>
      <use x="27.783203125" xlink:href="#ArialMT-69"/>
      <use x="50.0" xlink:href="#ArialMT-6d"/>
      <use x="133.30078125" xlink:href="#ArialMT-65"/>
      <use x="188.916015625" xlink:href="#ArialMT-20"/>
      <use x="216.69921875" xlink:href="#ArialMT-28"/>
      <use x="250.0" xlink:href="#ArialMT-48"/>
      <use x="322.216796875" xlink:href="#ArialMT-6f"/>
      <use x="377.83203125" xlink:href="#ArialMT-75"/>
      <use x="433.447265625" xlink:href="#ArialMT-72"/>
      <use x="466.748046875" xlink:href="#ArialMT-73"/>
      <use x="516.748046875" xlink:href="#ArialMT-29"/>
     </g>
    </g>
   </g>
   <g id="matplotlib.axis_2">
    <g id="ytick_1">
     <g id="line2d_28">
      <path clip-path="url(#p7b3928bace)" d="M 56.563437 246.0075 
L 421.62786 246.0075 
" style="fill:none;opacity:0.2;stroke:#b2b2b2;stroke-linecap:square;stroke-width:0.5;"/>
     </g>
     <g id="line2d_29">
      <defs>
       <path d="M 0 0 
L -4 0 
" id="ma3b652f597" style="stroke:#000000;"/>
      </defs>
      <g>
       <use style="stroke:#000000;" x="56.5634375" xlink:href="#ma3b652f597" y="246.0075"/>
      </g>
     </g>
     <g id="line2d_30">
      <defs>
       <path d="M 0 0 
L 4 0 
" id="m255a61309e" style="stroke:#000000;"/>
      </defs>
      <g>
       <use style="stroke:#000000;" x="421.627860221" xlink:href="#m255a61309e" y="246.0075"/>
      </g>
     </g>
     <g id="text_11">
      <!-- $\mathdefault{0}$ -->
      <g transform="translate(39.8434375 249.1096875)scale(0.12 -0.12)">
       <use transform="translate(0.0 0.125)" xlink:href="#ArialMT-30"/>
      </g>
     </g>
    </g>
    <g id="ytick_2">
     <g id="line2d_31">
      <path clip-path="url(#p7b3928bace)" d="M 56.563437 210.88875 
L 421.62786 210.88875 
" style="fill:none;opacity:0.2;stroke:#b2b2b2;stroke-linecap:square;stroke-width:0.5;"/>
     </g>
     <g id="line2d_32">
      <g>
       <use style="stroke:#000000;" x="56.5634375" xlink:href="#ma3b652f597" y="210.88875"/>
      </g>
     </g>
     <g id="line2d_33">
      <g>
       <use style="stroke:#000000;" x="421.627860221" xlink:href="#m255a61309e" y="210.88875"/>
      </g>
     </g>
     <g id="text_12">
      <!-- $\mathdefault{1}$ -->
      <g transform="translate(39.8434375 213.9909375)scale(0.12 -0.12)">
       <use transform="translate(0.0 0.125)" xlink:href="#ArialMT-31"/>
      </g>
     </g>
    </g>
    <g id="ytick_3">
     <g id="line2d_34">
      <path clip-path="url(#p7b3928bace)" d="M 56.563437 175.77 
L 421.62786 175.77 
" style="fill:none;opacity:0.2;stroke:#b2b2b2;stroke-linecap:square;stroke-width:0.5;"/>
     </g>
     <g id="line2d_35">
      <g>
       <use style="stroke:#000000;" x="56.5634375" xlink:href="#ma3b652f597" y="175.77"/>
      </g>
     </g>
     <g id="line2d_36">
      <g>
       <use style="stroke:#000000;" x="421.627860221" xlink:href="#m255a61309e" y="175.77"/>
      </g>
     </g>
     <g id="text_13">
      <!-- $\mathdefault{2}$ -->
      <g transform="translate(39.8434375 178.8721875)scale(0.12 -0.12)">
       <use transform="translate(0.0 0.125)" xlink:href="#ArialMT-32"/>
      </g>
     </g>
    </g>
    <g id="ytick_4">
     <g id="line2d_37">
      <path clip-path="url(#p7b3928bace)" d="M 56.563437 140.65125 
L 421.62786 140.65125 
" style="fill:none;opacity:0.2;stroke:#b2b2b2;stroke-linecap:square;stroke-width:0.5;"/>
     </g>
     <g id="line2d_38">
      <g>
       <use style="stroke:#000000;" x="56.5634375" xlink:href="#ma3b652f597" y="140.65125"/>
      </g>
     </g>
     <g id="line2d_39">
      <g>
       <use style="stroke:#000000;" x="421.627860221" xlink:href="#m255a61309e" y="140.65125"/>
      </g>
     </g>
     <g id="text_14">
      <!-- $\mathdefault{3}$ -->
      <g transform="translate(39.8434375 143.7534375)scale(0.12 -0.12)">
       <use transform="translate(0.0 0.125)" xlink:href="#ArialMT-33"/>
      </g>
     </g>
    </g>
    <g id="ytick_5">
     <g id="line2d_40">
      <path clip-path="url(#p7b3928bace)" d="M 56.563437 105.5325 
L 421.62786 105.5325 
" style="fill:none;opacity:0.2;stroke:#b2b2b2;stroke-linecap:square;stroke-width:0.5;"/>
     </g>
     <g id="line2d_41">
      <g>
       <use style="stroke:#000000;" x="56.5634375" xlink:href="#ma3b652f597" y="105.5325"/>
      </g>
     </g>
     <g id="line2d_42">
      <g>
       <use style="stroke:#000000;" x="421.627860221" xlink:href="#m255a61309e" y="105.5325"/>
      </g>
     </g>
     <g id="text_15">
      <!-- $\mathdefault{4}$ -->
      <g transform="translate(39.8434375 108.6346875)scale(0.12 -0.12)">
       <use transform="translate(0.0 0.421875)" xlink:href="#ArialMT-34"/>
      </g>
     </g>
    </g>
    <g id="ytick_6">
     <g id="line2d_43">
      <path clip-path="url(#p7b3928bace)" d="M 56.563437 70.41375 
L 421.62786 70.41375 
" style="fill:none;opacity:0.2;stroke:#b2b2b2;stroke-linecap:square;stroke-width:0.5;"/>
     </g>
     <g id="line2d_44">
      <g>
       <use style="stroke:#000000;" x="56.5634375" xlink:href="#ma3b652f597" y="70.41375"/>
      </g>
     </g>
     <g id="line2d_45">
      <g>
       <use style="stroke:#000000;" x="421.627860221" xlink:href="#m255a61309e" y="70.41375"/>
      </g>
     </g>
     <g id="text_16">
      <!-- $\mathdefault{5}$ -->
      <g transform="translate(39.8434375 73.5159375)scale(0.12 -0.12)">
       <use transform="translate(0.0 0.390625)" xlink:href="#ArialMT-35"/>
      </g>
     </g>
    </g>
    <g id="ytick_7">
     <g id="line2d_46">
      <path clip-path="url(#p7b3928bace)" d="M 56.563437 35.295 
L 421.62786 35.295 
" style="fill:none;opacity:0.2;stroke:#b2b2b2;stroke-linecap:square;stroke-width:0.5;"/>
     </g>
     <g id="line2d_47">
      <g>
       <use style="stroke:#000000;" x="56.5634375" xlink:href="#ma3b652f597" y="35.295"/>
      </g>
     </g>
     <g id="line2d_48">
      <g>
       <use style="stroke:#000000;" x="421.627860221" xlink:href="#m255a61309e" y="35.295"/>
      </g>
     </g>
     <g id="text_17">
      <!-- $\mathdefault{6}$ -->
      <g transform="translate(39.8434375 38.3971875)scale(0.12 -0.12)">
       <use transform="translate(0.0 0.125)" xlink:href="#ArialMT-36"/>
      </g>
     </g>
    </g>
    <g id="text_18">
     <!-- Number of Cells -->
     <defs>
      <path d="M 58.796875 25.09375 
L 68.265625 22.703125 
Q 65.28125 11.03125 57.546875 4.90625 
Q 49.8125 -1.21875 38.625 -1.21875 
Q 27.046875 -1.21875 19.796875 3.484375 
Q 12.546875 8.203125 8.765625 17.140625 
Q 4.984375 26.078125 4.984375 36.328125 
Q 4.984375 47.515625 9.25 55.828125 
Q 13.53125 64.15625 21.40625 68.46875 
Q 29.296875 72.796875 38.765625 72.796875 
Q 49.515625 72.796875 56.828125 67.328125 
Q 64.15625 61.859375 67.046875 51.953125 
L 57.71875 49.75 
Q 55.21875 57.5625 50.484375 61.125 
Q 45.75 64.703125 38.578125 64.703125 
Q 30.328125 64.703125 24.78125 60.734375 
Q 19.234375 56.78125 16.984375 50.109375 
Q 14.75 43.453125 14.75 36.375 
Q 14.75 27.25 17.40625 20.4375 
Q 20.0625 13.625 25.671875 10.25 
Q 31.296875 6.890625 37.84375 6.890625 
Q 45.796875 6.890625 51.3125 11.46875 
Q 56.84375 16.0625 58.796875 25.09375 
" id="ArialMT-43"/>
      <path d="M 7.625 0 
L 7.625 71.578125 
L 17.328125 71.578125 
L 54.9375 15.375 
L 54.9375 71.578125 
L 64.015625 71.578125 
L 64.015625 0 
L 54.296875 0 
L 16.703125 56.25 
L 16.703125 0 
z
" id="ArialMT-4e"/>
      <path d="M 14.703125 0 
L 6.546875 0 
L 6.546875 71.578125 
L 15.328125 71.578125 
L 15.328125 46.046875 
Q 20.90625 53.03125 29.546875 53.03125 
Q 34.328125 53.03125 38.59375 51.09375 
Q 42.875 49.171875 45.625 45.671875 
Q 48.390625 42.1875 49.953125 37.25 
Q 51.515625 32.328125 51.515625 26.703125 
Q 51.515625 13.375 44.921875 6.09375 
Q 38.328125 -1.171875 29.109375 -1.171875 
Q 19.921875 -1.171875 14.703125 6.5 
z
M 14.59375 26.3125 
Q 14.59375 17 17.140625 12.84375 
Q 21.296875 6.0625 28.375 6.0625 
Q 34.125 6.0625 38.328125 11.0625 
Q 42.53125 16.0625 42.53125 25.984375 
Q 42.53125 36.140625 38.5 40.96875 
Q 34.46875 45.796875 28.765625 45.796875 
Q 23 45.796875 18.796875 40.796875 
Q 14.59375 35.796875 14.59375 26.3125 
" id="ArialMT-62"/>
      <path d="M 8.6875 0 
L 8.6875 45.015625 
L 0.921875 45.015625 
L 0.921875 51.859375 
L 8.6875 51.859375 
L 8.6875 57.375 
Q 8.6875 62.59375 9.625 65.140625 
Q 10.890625 68.5625 14.078125 70.671875 
Q 17.28125 72.796875 23.046875 72.796875 
Q 26.765625 72.796875 31.25 71.921875 
L 29.9375 64.265625 
Q 27.203125 64.75 24.75 64.75 
Q 20.75 64.75 19.09375 63.03125 
Q 17.4375 61.328125 17.4375 56.640625 
L 17.4375 51.859375 
L 27.546875 51.859375 
L 27.546875 45.015625 
L 17.4375 45.015625 
L 17.4375 0 
z
" id="ArialMT-66"/>
      <path d="M 6.390625 0 
L 6.390625 71.578125 
L 15.1875 71.578125 
L 15.1875 0 
z
" id="ArialMT-6c"/>
     </defs>
     <g transform="translate(32.0609375 190.83140625)rotate(-90.0)scale(0.14 -0.14)">
      <use xlink:href="#ArialMT-4e"/>
      <use x="72.216796875" xlink:href="#ArialMT-75"/>
      <use x="127.83203125" xlink:href="#ArialMT-6d"/>
      <use x="211.1328125" xlink:href="#ArialMT-62"/>
      <use x="266.748046875" xlink:href="#ArialMT-65"/>
      <use x="322.36328125" xlink:href="#ArialMT-72"/>
      <use x="355.6640625" xlink:href="#ArialMT-20"/>
      <use x="383.447265625" xlink:href="#ArialMT-6f"/>
      <use x="439.0625" xlink:href="#ArialMT-66"/>
      <use x="466.845703125" xlink:href="#ArialMT-20"/>
      <use x="494.62890625" xlink:href="#ArialMT-43"/>
      <use x="566.845703125" xlink:href="#ArialMT-65"/>
      <use x="622.4609375" xlink:href="#ArialMT-6c"/>
      <use x="644.677734375" xlink:href="#ArialMT-6c"/>
      <use x="666.89453125" xlink:href="#ArialMT-73"/>
     </g>
    </g>
    <g id="text_19">
     <!-- $\times\mathdefault{10^{4}}\mathdefault{}$ -->
     <defs>
      <path d="M 7.859375 19.96875 
L 23.25 35.359375 
L 7.90625 50.6875 
L 13.875 56.640625 
L 29.203125 41.3125 
L 44.484375 56.59375 
L 50.34375 50.6875 
L 35.109375 35.40625 
L 50.4375 20.0625 
L 44.484375 14.109375 
L 29.15625 29.4375 
L 13.765625 14.0625 
z
" id="ArialMT-d7"/>
     </defs>
     <g transform="translate(56.5634375 32.295)scale(0.12 -0.12)">
      <use transform="translate(0.0 0.09218749999999432)" xlink:href="#ArialMT-d7"/>
      <use transform="translate(58.3984375 0.09218749999999432)" xlink:href="#ArialMT-31"/>
      <use transform="translate(114.013671875 0.09218749999999432)" xlink:href="#ArialMT-30"/>
      <use transform="translate(174.8559375 44.895312499999996)scale(0.7)" xlink:href="#ArialMT-34"/>
     </g>
    </g>
   </g>
   <g id="LineCollection_1">
    <path clip-path="url(#p7b3928bace)" d="M 56.791318 227.482227 
L 56.791318 227.260073 
" style="fill:none;stroke:#0000ff;stroke-width:2.0;"/>
    <path clip-path="url(#p7b3928bace)" d="M 166.173916 201.128174 
L 166.173916 200.680805 
" style="fill:none;stroke:#0000ff;stroke-width:2.0;"/>
    <path clip-path="url(#p7b3928bace)" d="M 275.556515 148.454486 
L 275.556515 147.839038 
" style="fill:none;stroke:#0000ff;stroke-width:2.0;"/>
    <path clip-path="url(#p7b3928bace)" d="M 384.939114 51.962443 
L 384.939114 49.244083 
" style="fill:none;stroke:#0000ff;stroke-width:2.0;"/>
   </g>
   <g id="LineCollection_2">
    <path clip-path="url(#p7b3928bace)" d="M 56.791318 246.001432 
L 56.791318 245.99952 
" style="fill:none;stroke:#500000;stroke-width:2.0;"/>
    <path clip-path="url(#p7b3928bace)" d="M 166.173916 246.006262 
L 166.173916 246.004055 
" style="fill:none;stroke:#500000;stroke-width:2.0;"/>
    <path clip-path="url(#p7b3928bace)" d="M 275.556515 245.981478 
L 275.556515 245.972649 
" style="fill:none;stroke:#500000;stroke-width:2.0;"/>
    <path clip-path="url(#p7b3928bace)" d="M 384.939114 245.913957 
L 384.939114 245.906719 
" style="fill:none;stroke:#500000;stroke-width:2.0;"/>
   </g>
   <g id="line2d_49">
    <defs>
     <path d="M 3 0 
L -3 -0 
" id="m7b20cf42a4" style="stroke:#0000ff;stroke-width:2.0;"/>
    </defs>
    <g clip-path="url(#p7b3928bace)">
     <use style="fill:#0000ff;stroke:#0000ff;stroke-width:2.0;" x="56.7913179137" xlink:href="#m7b20cf42a4" y="227.482227173"/>
     <use style="fill:#0000ff;stroke:#0000ff;stroke-width:2.0;" x="166.173916482" xlink:href="#m7b20cf42a4" y="201.128173728"/>
     <use style="fill:#0000ff;stroke:#0000ff;stroke-width:2.0;" x="275.55651505" xlink:href="#m7b20cf42a4" y="148.454486114"/>
     <use style="fill:#0000ff;stroke:#0000ff;stroke-width:2.0;" x="384.939113618" xlink:href="#m7b20cf42a4" y="51.9624429396"/>
    </g>
   </g>
   <g id="line2d_50">
    <g clip-path="url(#p7b3928bace)">
     <use style="fill:#0000ff;stroke:#0000ff;stroke-width:2.0;" x="56.7913179137" xlink:href="#m7b20cf42a4" y="227.260072827"/>
     <use style="fill:#0000ff;stroke:#0000ff;stroke-width:2.0;" x="166.173916482" xlink:href="#m7b20cf42a4" y="200.680805022"/>
     <use style="fill:#0000ff;stroke:#0000ff;stroke-width:2.0;" x="275.55651505" xlink:href="#m7b20cf42a4" y="147.839037636"/>
     <use style="fill:#0000ff;stroke:#0000ff;stroke-width:2.0;" x="384.939113618" xlink:href="#m7b20cf42a4" y="49.2440833104"/>
    </g>
   </g>
   <g id="line2d_51">
    <path clip-path="url(#p7b3928bace)" d="M 56.791318 227.37115 
L 166.173916 200.904489 
L 275.556515 148.146762 
L 384.939114 50.603263 
" style="fill:none;stroke:#0000ff;stroke-dasharray:1.000000,3.000000;stroke-dashoffset:0.0;stroke-linecap:round;stroke-width:2.0;"/>
    <defs>
     <path d="M 0 1.75 
C 0.464105 1.75 0.909265 1.565609 1.237437 1.237437 
C 1.565609 0.909265 1.75 0.464105 1.75 0 
C 1.75 -0.464105 1.565609 -0.909265 1.237437 -1.237437 
C 0.909265 -1.565609 0.464105 -1.75 0 -1.75 
C -0.464105 -1.75 -0.909265 -1.565609 -1.237437 -1.237437 
C -1.565609 -0.909265 -1.75 -0.464105 -1.75 0 
C -1.75 0.464105 -1.565609 0.909265 -1.237437 1.237437 
C -0.909265 1.565609 -0.464105 1.75 0 1.75 
z
" id="mb93ac34a60" style="stroke:#0000ff;stroke-width:2.0;"/>
    </defs>
    <g clip-path="url(#p7b3928bace)">
     <use style="fill:#0000ff;stroke:#0000ff;stroke-width:2.0;" x="56.7913179137" xlink:href="#mb93ac34a60" y="227.37115"/>
     <use style="fill:#0000ff;stroke:#0000ff;stroke-width:2.0;" x="166.173916482" xlink:href="#mb93ac34a60" y="200.904489375"/>
     <use style="fill:#0000ff;stroke:#0000ff;stroke-width:2.0;" x="275.55651505" xlink:href="#mb93ac34a60" y="148.146761875"/>
     <use style="fill:#0000ff;stroke:#0000ff;stroke-width:2.0;" x="384.939113618" xlink:href="#mb93ac34a60" y="50.603263125"/>
    </g>
   </g>
   <g id="line2d_52">
    <defs>
     <path d="M 0 1.75 
C 0.464105 1.75 0.909265 1.565609 1.237437 1.237437 
C 1.565609 0.909265 1.75 0.464105 1.75 0 
C 1.75 -0.464105 1.565609 -0.909265 1.237437 -1.237437 
C 0.909265 -1.565609 0.464105 -1.75 0 -1.75 
C -0.464105 -1.75 -0.909265 -1.565609 -1.237437 -1.237437 
C -1.565609 -0.909265 -1.75 -0.464105 -1.75 0 
C -1.75 0.464105 -1.565609 0.909265 -1.237437 1.237437 
C -0.909265 1.565609 -0.464105 1.75 0 1.75 
z
" id="ma4afb22a60" style="stroke:#0000ff;stroke-width:2.0;"/>
    </defs>
    <g clip-path="url(#p7b3928bace)">
     <use style="fill:#0000ff;opacity:0.5;stroke:#0000ff;stroke-width:2.0;" x="56.7913179137" xlink:href="#ma4afb22a60" y="227.26111125"/>
    </g>
   </g>
   <g id="line2d_53">
    <g clip-path="url(#p7b3928bace)">
     <use style="fill:#0000ff;opacity:0.5;stroke:#0000ff;stroke-width:2.0;" x="56.7913179137" xlink:href="#ma4afb22a60" y="227.0293275"/>
    </g>
   </g>
   <g id="line2d_54">
    <g clip-path="url(#p7b3928bace)">
     <use style="fill:#0000ff;opacity:0.5;stroke:#0000ff;stroke-width:2.0;" x="56.7913179137" xlink:href="#ma4afb22a60" y="227.82301125"/>
    </g>
   </g>
   <g id="line2d_55">
    <g clip-path="url(#p7b3928bace)">
     <use style="fill:#0000ff;opacity:0.5;stroke:#0000ff;stroke-width:2.0;" x="166.173916482" xlink:href="#ma4afb22a60" y="199.963306875"/>
    </g>
   </g>
   <g id="line2d_56">
    <g clip-path="url(#p7b3928bace)">
     <use style="fill:#0000ff;opacity:0.5;stroke:#0000ff;stroke-width:2.0;" x="166.173916482" xlink:href="#ma4afb22a60" y="201.269724375"/>
    </g>
   </g>
   <g id="line2d_57">
    <g clip-path="url(#p7b3928bace)">
     <use style="fill:#0000ff;opacity:0.5;stroke:#0000ff;stroke-width:2.0;" x="166.173916482" xlink:href="#ma4afb22a60" y="201.480436875"/>
    </g>
   </g>
   <g id="line2d_58">
    <g clip-path="url(#p7b3928bace)">
     <use style="fill:#0000ff;opacity:0.5;stroke:#0000ff;stroke-width:2.0;" x="275.55651505" xlink:href="#ma4afb22a60" y="149.24129625"/>
    </g>
   </g>
   <g id="line2d_59">
    <g clip-path="url(#p7b3928bace)">
     <use style="fill:#0000ff;opacity:0.5;stroke:#0000ff;stroke-width:2.0;" x="275.55651505" xlink:href="#ma4afb22a60" y="148.21582875"/>
    </g>
   </g>
   <g id="line2d_60">
    <g clip-path="url(#p7b3928bace)">
     <use style="fill:#0000ff;opacity:0.5;stroke:#0000ff;stroke-width:2.0;" x="275.55651505" xlink:href="#ma4afb22a60" y="146.983160625"/>
    </g>
   </g>
   <g id="line2d_61">
    <g clip-path="url(#p7b3928bace)">
     <use style="fill:#0000ff;opacity:0.5;stroke:#0000ff;stroke-width:2.0;" x="384.939113618" xlink:href="#ma4afb22a60" y="54.789418125"/>
    </g>
   </g>
   <g id="line2d_62">
    <g clip-path="url(#p7b3928bace)">
     <use style="fill:#0000ff;opacity:0.5;stroke:#0000ff;stroke-width:2.0;" x="384.939113618" xlink:href="#ma4afb22a60" y="45.075571875"/>
    </g>
   </g>
   <g id="line2d_63">
    <g clip-path="url(#p7b3928bace)">
     <use style="fill:#0000ff;opacity:0.5;stroke:#0000ff;stroke-width:2.0;" x="384.939113618" xlink:href="#ma4afb22a60" y="51.944799375"/>
    </g>
   </g>
   <g id="line2d_64">
    <defs>
     <path d="M 3 0 
L -3 -0 
" id="m1d53354fd8" style="stroke:#500000;stroke-width:2.0;"/>
    </defs>
    <g clip-path="url(#p7b3928bace)">
     <use style="fill:#500000;stroke:#500000;stroke-width:2.0;" x="56.7913179137" xlink:href="#m1d53354fd8" y="246.001432061"/>
     <use style="fill:#500000;stroke:#500000;stroke-width:2.0;" x="166.173916482" xlink:href="#m1d53354fd8" y="246.006262426"/>
     <use style="fill:#500000;stroke:#500000;stroke-width:2.0;" x="275.55651505" xlink:href="#m1d53354fd8" y="245.981478453"/>
     <use style="fill:#500000;stroke:#500000;stroke-width:2.0;" x="384.939113618" xlink:href="#m1d53354fd8" y="245.913956768"/>
    </g>
   </g>
   <g id="line2d_65">
    <g clip-path="url(#p7b3928bace)">
     <use style="fill:#500000;stroke:#500000;stroke-width:2.0;" x="56.7913179137" xlink:href="#m1d53354fd8" y="245.999520439"/>
     <use style="fill:#500000;stroke:#500000;stroke-width:2.0;" x="166.173916482" xlink:href="#m1d53354fd8" y="246.004055074"/>
     <use style="fill:#500000;stroke:#500000;stroke-width:2.0;" x="275.55651505" xlink:href="#m1d53354fd8" y="245.972649047"/>
     <use style="fill:#500000;stroke:#500000;stroke-width:2.0;" x="384.939113618" xlink:href="#m1d53354fd8" y="245.906719482"/>
    </g>
   </g>
   <g id="line2d_66">
    <path clip-path="url(#p7b3928bace)" d="M 56.791318 246.000476 
L 166.173916 246.005159 
L 275.556515 245.977064 
L 384.939114 245.910338 
" style="fill:none;stroke:#500000;stroke-dasharray:1.000000,3.000000;stroke-dashoffset:0.0;stroke-linecap:round;stroke-width:2.0;"/>
    <defs>
     <path d="M 0 1.75 
C 0.464105 1.75 0.909265 1.565609 1.237437 1.237437 
C 1.565609 0.909265 1.75 0.464105 1.75 0 
C 1.75 -0.464105 1.565609 -0.909265 1.237437 -1.237437 
C 0.909265 -1.565609 0.464105 -1.75 0 -1.75 
C -0.464105 -1.75 -0.909265 -1.565609 -1.237437 -1.237437 
C -1.565609 -0.909265 -1.75 -0.464105 -1.75 0 
C -1.75 0.464105 -1.565609 0.909265 -1.237437 1.237437 
C -0.909265 1.565609 -0.464105 1.75 0 1.75 
z
" id="m4299e5da1f" style="stroke:#500000;stroke-width:2.0;"/>
    </defs>
    <g clip-path="url(#p7b3928bace)">
     <use style="fill:#500000;stroke:#500000;stroke-width:2.0;" x="56.7913179137" xlink:href="#m4299e5da1f" y="246.00047625"/>
     <use style="fill:#500000;stroke:#500000;stroke-width:2.0;" x="166.173916482" xlink:href="#m4299e5da1f" y="246.00515875"/>
     <use style="fill:#500000;stroke:#500000;stroke-width:2.0;" x="275.55651505" xlink:href="#m4299e5da1f" y="245.97706375"/>
     <use style="fill:#500000;stroke:#500000;stroke-width:2.0;" x="384.939113618" xlink:href="#m4299e5da1f" y="245.910338125"/>
    </g>
   </g>
   <g id="line2d_67">
    <g clip-path="url(#p7b3928bace)">
     <use style="fill:#0000ff;opacity:0.5;stroke:#0000ff;stroke-width:2.0;" x="56.7913179137" xlink:href="#ma4afb22a60" y="245.996964375"/>
    </g>
   </g>
   <g id="line2d_68">
    <g clip-path="url(#p7b3928bace)">
     <use style="fill:#0000ff;opacity:0.5;stroke:#0000ff;stroke-width:2.0;" x="56.7913179137" xlink:href="#ma4afb22a60" y="246.00047625"/>
    </g>
   </g>
   <g id="line2d_69">
    <g clip-path="url(#p7b3928bace)">
     <use style="fill:#0000ff;opacity:0.5;stroke:#0000ff;stroke-width:2.0;" x="56.7913179137" xlink:href="#ma4afb22a60" y="246.003988125"/>
    </g>
   </g>
   <g id="line2d_70">
    <g clip-path="url(#p7b3928bace)">
     <use style="fill:#0000ff;opacity:0.5;stroke:#0000ff;stroke-width:2.0;" x="166.173916482" xlink:href="#ma4afb22a60" y="246.00047625"/>
    </g>
   </g>
   <g id="line2d_71">
    <g clip-path="url(#p7b3928bace)">
     <use style="fill:#0000ff;opacity:0.5;stroke:#0000ff;stroke-width:2.0;" x="166.173916482" xlink:href="#ma4afb22a60" y="246.0075"/>
    </g>
   </g>
   <g id="line2d_72">
    <g clip-path="url(#p7b3928bace)">
     <use style="fill:#0000ff;opacity:0.5;stroke:#0000ff;stroke-width:2.0;" x="166.173916482" xlink:href="#ma4afb22a60" y="246.0075"/>
    </g>
   </g>
   <g id="line2d_73">
    <g clip-path="url(#p7b3928bace)">
     <use style="fill:#0000ff;opacity:0.5;stroke:#0000ff;stroke-width:2.0;" x="275.55651505" xlink:href="#ma4afb22a60" y="245.95833375"/>
    </g>
   </g>
   <g id="line2d_74">
    <g clip-path="url(#p7b3928bace)">
     <use style="fill:#0000ff;opacity:0.5;stroke:#0000ff;stroke-width:2.0;" x="275.55651505" xlink:href="#ma4afb22a60" y="245.98642875"/>
    </g>
   </g>
   <g id="line2d_75">
    <g clip-path="url(#p7b3928bace)">
     <use style="fill:#0000ff;opacity:0.5;stroke:#0000ff;stroke-width:2.0;" x="275.55651505" xlink:href="#ma4afb22a60" y="245.98642875"/>
    </g>
   </g>
   <g id="line2d_76">
    <g clip-path="url(#p7b3928bace)">
     <use style="fill:#0000ff;opacity:0.5;stroke:#0000ff;stroke-width:2.0;" x="384.939113618" xlink:href="#ma4afb22a60" y="245.89512"/>
    </g>
   </g>
   <g id="line2d_77">
    <g clip-path="url(#p7b3928bace)">
     <use style="fill:#0000ff;opacity:0.5;stroke:#0000ff;stroke-width:2.0;" x="384.939113618" xlink:href="#ma4afb22a60" y="245.91619125"/>
    </g>
   </g>
   <g id="line2d_78">
    <g clip-path="url(#p7b3928bace)">
     <use style="fill:#0000ff;opacity:0.5;stroke:#0000ff;stroke-width:2.0;" x="384.939113618" xlink:href="#ma4afb22a60" y="245.919703125"/>
    </g>
   </g>
   <g id="patch_3">
    <path d="M 56.563437 35.295 
L 421.62786 35.295 
" style="fill:none;stroke:#000000;stroke-linecap:square;stroke-linejoin:miter;"/>
   </g>
   <g id="patch_4">
    <path d="M 56.563437 246.0075 
L 421.62786 246.0075 
" style="fill:none;stroke:#000000;stroke-linecap:square;stroke-linejoin:miter;"/>
   </g>
   <g id="patch_5">
    <path d="M 56.563437 246.0075 
L 56.563437 35.295 
" style="fill:none;stroke:#000000;stroke-linecap:square;stroke-linejoin:miter;"/>
   </g>
   <g id="patch_6">
    <path d="M 421.62786 246.0075 
L 421.62786 35.295 
" style="fill:none;stroke:#000000;stroke-linecap:square;stroke-linejoin:miter;"/>
   </g>
   <g id="legend_1">
    <g id="patch_7">
     <path d="M 433.70786 165.1805 
L 547.01786 165.1805 
Q 549.89786 165.1805 549.89786 162.3005 
L 549.89786 123.002 
Q 549.89786 120.122 547.01786 120.122 
L 433.70786 120.122 
Q 430.82786 120.122 430.82786 123.002 
L 430.82786 162.3005 
Q 430.82786 165.1805 433.70786 165.1805 
z
" style="fill:#4c4c4c;opacity:0.5;stroke:#4c4c4c;stroke-linejoin:miter;"/>
    </g>
    <g id="patch_8">
     <path d="M 431.70786 163.1805 
L 545.01786 163.1805 
Q 547.89786 163.1805 547.89786 160.3005 
L 547.89786 121.002 
Q 547.89786 118.122 545.01786 118.122 
L 431.70786 118.122 
Q 428.82786 118.122 428.82786 121.002 
L 428.82786 160.3005 
Q 428.82786 163.1805 431.70786 163.1805 
z
" style="fill:#ffffff;stroke:#000000;stroke-linejoin:miter;"/>
    </g>
    <g id="LineCollection_3">
     <path d="M 448.98786 136.34925 
L 448.98786 121.94925 
" style="fill:none;stroke:#0000ff;stroke-width:2.0;"/>
    </g>
    <g id="line2d_79">
     <g>
      <use style="fill:#0000ff;stroke:#0000ff;stroke-width:2.0;" x="448.987860221" xlink:href="#m7b20cf42a4" y="136.34925"/>
     </g>
    </g>
    <g id="line2d_80">
     <g>
      <use style="fill:#0000ff;stroke:#0000ff;stroke-width:2.0;" x="448.987860221" xlink:href="#m7b20cf42a4" y="121.94925"/>
     </g>
    </g>
    <g id="line2d_81">
     <path d="M 434.58786 129.14925 
L 463.38786 129.14925 
" style="fill:none;stroke:#0000ff;stroke-dasharray:1.000000,3.000000;stroke-dashoffset:0.0;stroke-linecap:round;stroke-width:2.0;"/>
    </g>
    <g id="line2d_82">
     <g>
      <use style="fill:#0000ff;stroke:#0000ff;stroke-width:2.0;" x="448.987860221" xlink:href="#mb93ac34a60" y="129.14925"/>
     </g>
    </g>
    <g id="text_20">
     <!-- Live cells -->
     <defs>
      <path d="M 21 0 
L 1.265625 51.859375 
L 10.546875 51.859375 
L 21.6875 20.796875 
Q 23.484375 15.765625 25 10.359375 
Q 26.171875 14.453125 28.265625 20.21875 
L 39.796875 51.859375 
L 48.828125 51.859375 
L 29.203125 0 
z
" id="ArialMT-76"/>
      <path d="M 40.4375 19 
L 49.078125 17.875 
Q 47.65625 8.9375 41.8125 3.875 
Q 35.984375 -1.171875 27.484375 -1.171875 
Q 16.84375 -1.171875 10.375 5.78125 
Q 3.90625 12.75 3.90625 25.734375 
Q 3.90625 34.125 6.6875 40.421875 
Q 9.46875 46.734375 15.15625 49.875 
Q 20.84375 53.03125 27.546875 53.03125 
Q 35.984375 53.03125 41.359375 48.75 
Q 46.734375 44.484375 48.25 36.625 
L 39.703125 35.296875 
Q 38.484375 40.53125 35.375 43.15625 
Q 32.28125 45.796875 27.875 45.796875 
Q 21.234375 45.796875 17.078125 41.03125 
Q 12.9375 36.28125 12.9375 25.984375 
Q 12.9375 15.53125 16.9375 10.796875 
Q 20.953125 6.0625 27.390625 6.0625 
Q 32.5625 6.0625 36.03125 9.234375 
Q 39.5 12.40625 40.4375 19 
" id="ArialMT-63"/>
      <path d="M 7.328125 0 
L 7.328125 71.578125 
L 16.796875 71.578125 
L 16.796875 8.453125 
L 52.046875 8.453125 
L 52.046875 0 
z
" id="ArialMT-4c"/>
     </defs>
     <g transform="translate(474.907860221 134.18925)scale(0.144 -0.144)">
      <use xlink:href="#ArialMT-4c"/>
      <use x="55.615234375" xlink:href="#ArialMT-69"/>
      <use x="77.83203125" xlink:href="#ArialMT-76"/>
      <use x="127.83203125" xlink:href="#ArialMT-65"/>
      <use x="183.447265625" xlink:href="#ArialMT-20"/>
      <use x="211.23046875" xlink:href="#ArialMT-63"/>
      <use x="261.23046875" xlink:href="#ArialMT-65"/>
      <use x="316.845703125" xlink:href="#ArialMT-6c"/>
      <use x="339.0625" xlink:href="#ArialMT-6c"/>
      <use x="361.279296875" xlink:href="#ArialMT-73"/>
     </g>
    </g>
    <g id="LineCollection_4">
     <path d="M 448.98786 156.7185 
L 448.98786 142.3185 
" style="fill:none;stroke:#500000;stroke-width:2.0;"/>
    </g>
    <g id="line2d_83">
     <g>
      <use style="fill:#500000;stroke:#500000;stroke-width:2.0;" x="448.987860221" xlink:href="#m1d53354fd8" y="156.7185"/>
     </g>
    </g>
    <g id="line2d_84">
     <g>
      <use style="fill:#500000;stroke:#500000;stroke-width:2.0;" x="448.987860221" xlink:href="#m1d53354fd8" y="142.3185"/>
     </g>
    </g>
    <g id="line2d_85">
     <path d="M 434.58786 149.5185 
L 463.38786 149.5185 
" style="fill:none;stroke:#500000;stroke-dasharray:1.000000,3.000000;stroke-dashoffset:0.0;stroke-linecap:round;stroke-width:2.0;"/>
    </g>
    <g id="line2d_86">
     <g>
      <use style="fill:#500000;stroke:#500000;stroke-width:2.0;" x="448.987860221" xlink:href="#m4299e5da1f" y="149.5185"/>
     </g>
    </g>
    <g id="text_21">
     <!-- Dead cells -->
     <defs>
      <path d="M 7.71875 0 
L 7.71875 71.578125 
L 32.375 71.578125 
Q 40.71875 71.578125 45.125 70.5625 
Q 51.265625 69.140625 55.609375 65.4375 
Q 61.28125 60.640625 64.078125 53.1875 
Q 66.890625 45.75 66.890625 36.1875 
Q 66.890625 28.03125 64.984375 21.734375 
Q 63.09375 15.4375 60.109375 11.296875 
Q 57.125 7.171875 53.578125 4.796875 
Q 50.046875 2.4375 45.046875 1.21875 
Q 40.046875 0 33.546875 0 
z
M 17.1875 8.453125 
L 32.46875 8.453125 
Q 39.546875 8.453125 43.578125 9.765625 
Q 47.609375 11.078125 50 13.484375 
Q 53.375 16.84375 55.25 22.53125 
Q 57.125 28.21875 57.125 36.328125 
Q 57.125 47.5625 53.4375 53.59375 
Q 49.75 59.625 44.484375 61.671875 
Q 40.671875 63.140625 32.234375 63.140625 
L 17.1875 63.140625 
z
" id="ArialMT-44"/>
      <path d="M 40.234375 0 
L 40.234375 6.546875 
Q 35.296875 -1.171875 25.734375 -1.171875 
Q 19.53125 -1.171875 14.328125 2.25 
Q 9.125 5.671875 6.265625 11.796875 
Q 3.421875 17.921875 3.421875 25.875 
Q 3.421875 33.640625 6 39.96875 
Q 8.59375 46.296875 13.765625 49.65625 
Q 18.953125 53.03125 25.34375 53.03125 
Q 30.03125 53.03125 33.6875 51.046875 
Q 37.359375 49.078125 39.65625 45.90625 
L 39.65625 71.578125 
L 48.390625 71.578125 
L 48.390625 0 
z
M 12.453125 25.875 
Q 12.453125 15.921875 16.640625 10.984375 
Q 20.84375 6.0625 26.5625 6.0625 
Q 32.328125 6.0625 36.34375 10.765625 
Q 40.375 15.484375 40.375 25.140625 
Q 40.375 35.796875 36.265625 40.765625 
Q 32.171875 45.75 26.171875 45.75 
Q 20.3125 45.75 16.375 40.96875 
Q 12.453125 36.1875 12.453125 25.875 
" id="ArialMT-64"/>
      <path d="M 40.4375 6.390625 
Q 35.546875 2.25 31.03125 0.53125 
Q 26.515625 -1.171875 21.34375 -1.171875 
Q 12.796875 -1.171875 8.203125 3 
Q 3.609375 7.171875 3.609375 13.671875 
Q 3.609375 17.484375 5.34375 20.625 
Q 7.078125 23.78125 9.890625 25.6875 
Q 12.703125 27.59375 16.21875 28.5625 
Q 18.796875 29.25 24.03125 29.890625 
Q 34.671875 31.15625 39.703125 32.90625 
Q 39.75 34.71875 39.75 35.203125 
Q 39.75 40.578125 37.25 42.78125 
Q 33.890625 45.75 27.25 45.75 
Q 21.046875 45.75 18.09375 43.578125 
Q 15.140625 41.40625 13.71875 35.890625 
L 5.125 37.0625 
Q 6.296875 42.578125 8.984375 45.96875 
Q 11.671875 49.359375 16.75 51.1875 
Q 21.828125 53.03125 28.515625 53.03125 
Q 35.15625 53.03125 39.296875 51.46875 
Q 43.453125 49.90625 45.40625 47.53125 
Q 47.359375 45.171875 48.140625 41.546875 
Q 48.578125 39.3125 48.578125 33.453125 
L 48.578125 21.734375 
Q 48.578125 9.46875 49.140625 6.21875 
Q 49.703125 2.984375 51.375 0 
L 42.1875 0 
Q 40.828125 2.734375 40.4375 6.390625 
M 39.703125 26.03125 
Q 34.90625 24.078125 25.34375 22.703125 
Q 19.921875 21.921875 17.671875 20.9375 
Q 15.4375 19.96875 14.203125 18.09375 
Q 12.984375 16.21875 12.984375 13.921875 
Q 12.984375 10.40625 15.640625 8.0625 
Q 18.3125 5.71875 23.4375 5.71875 
Q 28.515625 5.71875 32.46875 7.9375 
Q 36.421875 10.15625 38.28125 14.015625 
Q 39.703125 17 39.703125 22.796875 
z
" id="ArialMT-61"/>
     </defs>
     <g transform="translate(474.907860221 154.5585)scale(0.144 -0.144)">
      <use xlink:href="#ArialMT-44"/>
      <use x="72.216796875" xlink:href="#ArialMT-65"/>
      <use x="127.83203125" xlink:href="#ArialMT-61"/>
      <use x="183.447265625" xlink:href="#ArialMT-64"/>
      <use x="239.0625" xlink:href="#ArialMT-20"/>
      <use x="266.845703125" xlink:href="#ArialMT-63"/>
      <use x="316.845703125" xlink:href="#ArialMT-65"/>
      <use x="372.4609375" xlink:href="#ArialMT-6c"/>
      <use x="394.677734375" xlink:href="#ArialMT-6c"/>
      <use x="416.89453125" xlink:href="#ArialMT-73"/>
     </g>
    </g>
   </g>
  </g>
  <g id="text_22">
   <!-- Data provided -->
   <defs>
    <path d="M 6.59375 -19.875 
L 6.59375 51.859375 
L 14.59375 51.859375 
L 14.59375 45.125 
Q 17.4375 49.078125 21 51.046875 
Q 24.5625 53.03125 29.640625 53.03125 
Q 36.28125 53.03125 41.359375 49.609375 
Q 46.4375 46.1875 49.015625 39.953125 
Q 51.609375 33.734375 51.609375 26.3125 
Q 51.609375 18.359375 48.75 11.984375 
Q 45.90625 5.609375 40.453125 2.21875 
Q 35.015625 -1.171875 29 -1.171875 
Q 24.609375 -1.171875 21.109375 0.6875 
Q 17.625 2.546875 15.375 5.375 
L 15.375 -19.875 
z
M 14.546875 25.640625 
Q 14.546875 15.625 18.59375 10.84375 
Q 22.65625 6.0625 28.421875 6.0625 
Q 34.28125 6.0625 38.453125 11.015625 
Q 42.625 15.96875 42.625 26.375 
Q 42.625 36.28125 38.546875 41.203125 
Q 34.46875 46.140625 28.8125 46.140625 
Q 23.1875 46.140625 18.859375 40.890625 
Q 14.546875 35.640625 14.546875 25.640625 
" id="ArialMT-70"/>
   </defs>
   <g transform="translate(150.3725 24.37875)scale(0.24 -0.24)">
    <use xlink:href="#ArialMT-44"/>
    <use x="72.216796875" xlink:href="#ArialMT-61"/>
    <use x="127.83203125" xlink:href="#ArialMT-74"/>
    <use x="155.615234375" xlink:href="#ArialMT-61"/>
    <use x="211.23046875" xlink:href="#ArialMT-20"/>
    <use x="239.013671875" xlink:href="#ArialMT-70"/>
    <use x="294.62890625" xlink:href="#ArialMT-72"/>
    <use x="327.9296875" xlink:href="#ArialMT-6f"/>
    <use x="383.544921875" xlink:href="#ArialMT-76"/>
    <use x="433.544921875" xlink:href="#ArialMT-69"/>
    <use x="455.76171875" xlink:href="#ArialMT-64"/>
    <use x="511.376953125" xlink:href="#ArialMT-65"/>
    <use x="566.9921875" xlink:href="#ArialMT-64"/>
   </g>
  </g>
 </g>
 <defs>
  <clipPath id="p7b3928bace">
   <rect height="210.7125" width="365.064422721" x="56.5634375" y="35.295"/>
  </clipPath>
 </defs>
</svg>
