<?xml version="1.0" encoding="utf-8" standalone="no"?>
<!DOCTYPE svg PUBLIC "-//W3C//DTD SVG 1.1//EN"
  "http://www.w3.org/Graphics/SVG/1.1/DTD/svg11.dtd">
<!-- Created with matplotlib (http://matplotlib.org/) -->
<svg height="307pt" version="1.1" viewBox="0 0 607 307" width="607pt" xmlns="http://www.w3.org/2000/svg" xmlns:xlink="http://www.w3.org/1999/xlink">
 <defs>
  <style type="text/css">
*{stroke-linecap:butt;stroke-linejoin:round;}
  </style>
 </defs>
 <g id="figure_1">
  <g id="patch_1">
   <path d="
M0 307.16
L607.6 307.16
L607.6 0
L0 0
z
" style="fill:#ffffff;"/>
  </g>
  <g id="axes_1">
   <g id="patch_2">
    <path d="
M60.6209 246.007
L429.843 246.007
L429.843 36.015
L60.6209 36.015
z
" style="fill:#ffffff;"/>
   </g>
   <g id="matplotlib.axis_1">
    <g id="xtick_1">
     <g id="line2d_1">
      <path clip-path="url(#p4a5a979e75)" d="
M66.5761 246.007
L66.5761 36.015" style="fill:none;opacity:0.2;stroke:#b2b2b2;stroke-linecap:square;stroke-width:0.5;"/>
     </g>
     <g id="line2d_2">
      <defs>
       <path d="
M0 0
L0 4" id="m8a7fcc65d0" style="stroke:#000000;"/>
      </defs>
      <g>
       <use style="stroke:#000000;" x="66.5761327007" xlink:href="#m8a7fcc65d0" y="246.0075"/>
      </g>
     </g>
     <g id="line2d_3">
      <defs>
       <path d="
M0 0
L0 -4" id="mf06237e818" style="stroke:#000000;"/>
      </defs>
      <g>
       <use style="stroke:#000000;" x="66.5761327007" xlink:href="#mf06237e818" y="36.015"/>
      </g>
     </g>
     <g id="text_1">
      <!-- $\mathdefault{0.0}$ -->
      <defs>
       <path d="
M9.07812 0
L9.07812 10.0156
L19.0938 10.0156
L19.0938 0
z
" id="ArialMT-2e"/>
       <path d="
M4.15625 35.2969
Q4.15625 48 6.76562 55.7344
Q9.375 63.4844 14.5156 67.6719
Q19.6719 71.875 27.4844 71.875
Q33.25 71.875 37.5938 69.5469
Q41.9375 67.2344 44.7656 62.8594
Q47.6094 58.5 49.2188 52.2188
Q50.8281 45.9531 50.8281 35.2969
Q50.8281 22.7031 48.2344 14.9688
Q45.6562 7.23438 40.5 3
Q35.3594 -1.21875 27.4844 -1.21875
Q17.1406 -1.21875 11.2344 6.20312
Q4.15625 15.1406 4.15625 35.2969
M13.1875 35.2969
Q13.1875 17.6719 17.3125 11.8281
Q21.4375 6 27.4844 6
Q33.5469 6 37.6719 11.8594
Q41.7969 17.7188 41.7969 35.2969
Q41.7969 52.9844 37.6719 58.7812
Q33.5469 64.5938 27.3906 64.5938
Q21.3438 64.5938 17.7188 59.4688
Q13.1875 52.9375 13.1875 35.2969" id="ArialMT-30"/>
      </defs>
      <g transform="translate(58.2961327007 264.596875)scale(0.12 -0.12)">
       <use transform="translate(0.0 0.125)" xlink:href="#ArialMT-30"/>
       <use transform="translate(55.615234375 0.125)" xlink:href="#ArialMT-2e"/>
       <use transform="translate(82.275390625 0.125)" xlink:href="#ArialMT-30"/>
      </g>
     </g>
    </g>
    <g id="xtick_2">
     <g id="line2d_4">
      <path clip-path="url(#p4a5a979e75)" d="
M126.128 246.007
L126.128 36.015" style="fill:none;opacity:0.2;stroke:#b2b2b2;stroke-linecap:square;stroke-width:0.5;"/>
     </g>
     <g id="line2d_5">
      <g>
       <use style="stroke:#000000;" x="126.128084708" xlink:href="#m8a7fcc65d0" y="246.0075"/>
      </g>
     </g>
     <g id="line2d_6">
      <g>
       <use style="stroke:#000000;" x="126.128084708" xlink:href="#mf06237e818" y="36.015"/>
      </g>
     </g>
     <g id="text_2">
      <!-- $\mathdefault{0.5}$ -->
      <defs>
       <path d="
M4.15625 18.75
L13.375 19.5312
Q14.4062 12.7969 18.1406 9.39062
Q21.875 6 27.1562 6
Q33.5 6 37.8906 10.7812
Q42.2812 15.5781 42.2812 23.4844
Q42.2812 31 38.0625 35.3438
Q33.8438 39.7031 27 39.7031
Q22.75 39.7031 19.3281 37.7656
Q15.9219 35.8438 13.9688 32.7656
L5.71875 33.8438
L12.6406 70.6094
L48.25 70.6094
L48.25 62.2031
L19.6719 62.2031
L15.8281 42.9688
Q22.2656 47.4688 29.3438 47.4688
Q38.7188 47.4688 45.1562 40.9688
Q51.6094 34.4688 51.6094 24.2656
Q51.6094 14.5469 45.9531 7.46875
Q39.0625 -1.21875 27.1562 -1.21875
Q17.3906 -1.21875 11.2031 4.25
Q5.03125 9.71875 4.15625 18.75" id="ArialMT-35"/>
      </defs>
      <g transform="translate(117.848084708 264.596875)scale(0.12 -0.12)">
       <use transform="translate(0.0 0.125)" xlink:href="#ArialMT-30"/>
       <use transform="translate(55.615234375 0.125)" xlink:href="#ArialMT-2e"/>
       <use transform="translate(82.275390625 0.125)" xlink:href="#ArialMT-35"/>
      </g>
     </g>
    </g>
    <g id="xtick_3">
     <g id="line2d_7">
      <path clip-path="url(#p4a5a979e75)" d="
M185.68 246.007
L185.68 36.015" style="fill:none;opacity:0.2;stroke:#b2b2b2;stroke-linecap:square;stroke-width:0.5;"/>
     </g>
     <g id="line2d_8">
      <g>
       <use style="stroke:#000000;" x="185.680036715" xlink:href="#m8a7fcc65d0" y="246.0075"/>
      </g>
     </g>
     <g id="line2d_9">
      <g>
       <use style="stroke:#000000;" x="185.680036715" xlink:href="#mf06237e818" y="36.015"/>
      </g>
     </g>
     <g id="text_3">
      <!-- $\mathdefault{1.0}$ -->
      <defs>
       <path d="
M37.25 0
L28.4688 0
L28.4688 56
Q25.2969 52.9844 20.1406 49.9531
Q14.9844 46.9219 10.8906 45.4062
L10.8906 53.9062
Q18.2656 57.375 23.7812 62.2969
Q29.2969 67.2344 31.5938 71.875
L37.25 71.875
z
" id="ArialMT-31"/>
      </defs>
      <g transform="translate(177.400036715 264.596875)scale(0.12 -0.12)">
       <use transform="translate(0.0 0.125)" xlink:href="#ArialMT-31"/>
       <use transform="translate(55.615234375 0.125)" xlink:href="#ArialMT-2e"/>
       <use transform="translate(82.275390625 0.125)" xlink:href="#ArialMT-30"/>
      </g>
     </g>
    </g>
    <g id="xtick_4">
     <g id="line2d_10">
      <path clip-path="url(#p4a5a979e75)" d="
M245.232 246.007
L245.232 36.015" style="fill:none;opacity:0.2;stroke:#b2b2b2;stroke-linecap:square;stroke-width:0.5;"/>
     </g>
     <g id="line2d_11">
      <g>
       <use style="stroke:#000000;" x="245.231988722" xlink:href="#m8a7fcc65d0" y="246.0075"/>
      </g>
     </g>
     <g id="line2d_12">
      <g>
       <use style="stroke:#000000;" x="245.231988722" xlink:href="#mf06237e818" y="36.015"/>
      </g>
     </g>
     <g id="text_4">
      <!-- $\mathdefault{1.5}$ -->
      <g transform="translate(236.951988722 264.596875)scale(0.12 -0.12)">
       <use transform="translate(0.0 0.125)" xlink:href="#ArialMT-31"/>
       <use transform="translate(55.615234375 0.125)" xlink:href="#ArialMT-2e"/>
       <use transform="translate(82.275390625 0.125)" xlink:href="#ArialMT-35"/>
      </g>
     </g>
    </g>
    <g id="xtick_5">
     <g id="line2d_13">
      <path clip-path="url(#p4a5a979e75)" d="
M304.784 246.007
L304.784 36.015" style="fill:none;opacity:0.2;stroke:#b2b2b2;stroke-linecap:square;stroke-width:0.5;"/>
     </g>
     <g id="line2d_14">
      <g>
       <use style="stroke:#000000;" x="304.783940729" xlink:href="#m8a7fcc65d0" y="246.0075"/>
      </g>
     </g>
     <g id="line2d_15">
      <g>
       <use style="stroke:#000000;" x="304.783940729" xlink:href="#mf06237e818" y="36.015"/>
      </g>
     </g>
     <g id="text_5">
      <!-- $\mathdefault{2.0}$ -->
      <defs>
       <path d="
M50.3438 8.45312
L50.3438 0
L3.03125 0
Q2.9375 3.17188 4.04688 6.10938
Q5.85938 10.9375 9.82812 15.625
Q13.8125 20.3125 21.3438 26.4688
Q33.0156 36.0312 37.1094 41.625
Q41.2188 47.2188 41.2188 52.2031
Q41.2188 57.4219 37.4688 61
Q33.7344 64.5938 27.7344 64.5938
Q21.3906 64.5938 17.5781 60.7812
Q13.7656 56.9844 13.7188 50.25
L4.6875 51.1719
Q5.60938 61.2812 11.6562 66.5781
Q17.7188 71.875 27.9375 71.875
Q38.2344 71.875 44.2344 66.1562
Q50.25 60.4531 50.25 52
Q50.25 47.7031 48.4844 43.5469
Q46.7344 39.4062 42.6562 34.8125
Q38.5781 30.2188 29.1094 22.2188
Q21.1875 15.5781 18.9375 13.2031
Q16.7031 10.8438 15.2344 8.45312
z
" id="ArialMT-32"/>
      </defs>
      <g transform="translate(296.503940729 264.596875)scale(0.12 -0.12)">
       <use transform="translate(0.0 0.125)" xlink:href="#ArialMT-32"/>
       <use transform="translate(55.615234375 0.125)" xlink:href="#ArialMT-2e"/>
       <use transform="translate(82.275390625 0.125)" xlink:href="#ArialMT-30"/>
      </g>
     </g>
    </g>
    <g id="xtick_6">
     <g id="line2d_16">
      <path clip-path="url(#p4a5a979e75)" d="
M364.336 246.007
L364.336 36.015" style="fill:none;opacity:0.2;stroke:#b2b2b2;stroke-linecap:square;stroke-width:0.5;"/>
     </g>
     <g id="line2d_17">
      <g>
       <use style="stroke:#000000;" x="364.335892737" xlink:href="#m8a7fcc65d0" y="246.0075"/>
      </g>
     </g>
     <g id="line2d_18">
      <g>
       <use style="stroke:#000000;" x="364.335892737" xlink:href="#mf06237e818" y="36.015"/>
      </g>
     </g>
     <g id="text_6">
      <!-- $\mathdefault{2.5}$ -->
      <g transform="translate(356.055892737 264.596875)scale(0.12 -0.12)">
       <use transform="translate(0.0 0.125)" xlink:href="#ArialMT-32"/>
       <use transform="translate(55.615234375 0.125)" xlink:href="#ArialMT-2e"/>
       <use transform="translate(82.275390625 0.125)" xlink:href="#ArialMT-35"/>
      </g>
     </g>
    </g>
    <g id="xtick_7">
     <g id="line2d_19">
      <path clip-path="url(#p4a5a979e75)" d="
M423.888 246.007
L423.888 36.015" style="fill:none;opacity:0.2;stroke:#b2b2b2;stroke-linecap:square;stroke-width:0.5;"/>
     </g>
     <g id="line2d_20">
      <g>
       <use style="stroke:#000000;" x="423.887844744" xlink:href="#m8a7fcc65d0" y="246.0075"/>
      </g>
     </g>
     <g id="line2d_21">
      <g>
       <use style="stroke:#000000;" x="423.887844744" xlink:href="#mf06237e818" y="36.015"/>
      </g>
     </g>
     <g id="text_7">
      <!-- $\mathdefault{3.0}$ -->
      <defs>
       <path d="
M4.20312 18.8906
L12.9844 20.0625
Q14.5 12.5938 18.1406 9.29688
Q21.7812 6 27 6
Q33.2031 6 37.4688 10.2969
Q41.75 14.5938 41.75 20.9531
Q41.75 27 37.7969 30.9219
Q33.8438 34.8594 27.7344 34.8594
Q25.25 34.8594 21.5312 33.8906
L22.5156 41.6094
Q23.3906 41.5 23.9219 41.5
Q29.5469 41.5 34.0312 44.4219
Q38.5312 47.3594 38.5312 53.4688
Q38.5312 58.2969 35.25 61.4688
Q31.9844 64.6562 26.8125 64.6562
Q21.6875 64.6562 18.2656 61.4219
Q14.8438 58.2031 13.875 51.7656
L5.07812 53.3281
Q6.6875 62.1562 12.3906 67.0156
Q18.1094 71.875 26.6094 71.875
Q32.4688 71.875 37.3906 69.3594
Q42.3281 66.8438 44.9375 62.5
Q47.5625 58.1562 47.5625 53.2656
Q47.5625 48.6406 45.0625 44.8281
Q42.5781 41.0156 37.7031 38.7656
Q44.0469 37.3125 47.5625 32.6875
Q51.0781 28.0781 51.0781 21.1406
Q51.0781 11.7656 44.2344 5.25
Q37.4062 -1.26562 26.9531 -1.26562
Q17.5312 -1.26562 11.2969 4.34375
Q5.07812 9.96875 4.20312 18.8906" id="ArialMT-33"/>
      </defs>
      <g transform="translate(415.607844744 264.596875)scale(0.12 -0.12)">
       <use transform="translate(0.0 0.125)" xlink:href="#ArialMT-33"/>
       <use transform="translate(55.615234375 0.125)" xlink:href="#ArialMT-2e"/>
       <use transform="translate(82.275390625 0.125)" xlink:href="#ArialMT-30"/>
      </g>
     </g>
    </g>
    <g id="text_8">
     <!-- time (Days) -->
     <defs>
      <path d="
M3.07812 15.4844
L11.7656 16.8438
Q12.5 11.625 15.8438 8.84375
Q19.1875 6.0625 25.2031 6.0625
Q31.25 6.0625 34.1719 8.51562
Q37.1094 10.9844 37.1094 14.3125
Q37.1094 17.2812 34.5156 19
Q32.7188 20.1719 25.5312 21.9688
Q15.875 24.4219 12.1406 26.2031
Q8.40625 27.9844 6.46875 31.125
Q4.54688 34.2812 4.54688 38.0938
Q4.54688 41.5469 6.125 44.5
Q7.71875 47.4688 10.4531 49.4219
Q12.5 50.9219 16.0312 51.9688
Q19.5781 53.0312 23.6406 53.0312
Q29.7344 53.0312 34.3438 51.2656
Q38.9688 49.5156 41.1562 46.5
Q43.3594 43.5 44.1875 38.4844
L35.5938 37.3125
Q35.0156 41.3125 32.2031 43.5469
Q29.3906 45.7969 24.2656 45.7969
Q18.2188 45.7969 15.625 43.7969
Q13.0312 41.7969 13.0312 39.1094
Q13.0312 37.4062 14.1094 36.0312
Q15.1875 34.625 17.4844 33.6875
Q18.7969 33.2031 25.25 31.4531
Q34.5781 28.9531 38.25 27.3594
Q41.9375 25.7812 44.0312 22.75
Q46.1406 19.7344 46.1406 15.2344
Q46.1406 10.8438 43.5781 6.95312
Q41.0156 3.07812 36.1719 0.953125
Q31.3438 -1.17188 25.25 -1.17188
Q15.1406 -1.17188 9.84375 3.03125
Q4.54688 7.23438 3.07812 15.4844" id="ArialMT-73"/>
      <path d="
M25.7812 7.85938
L27.0469 0.09375
Q23.3438 -0.6875 20.4062 -0.6875
Q15.625 -0.6875 12.9844 0.828125
Q10.3594 2.34375 9.28125 4.8125
Q8.20312 7.28125 8.20312 15.1875
L8.20312 45.0156
L1.76562 45.0156
L1.76562 51.8594
L8.20312 51.8594
L8.20312 64.7031
L16.9375 69.9688
L16.9375 51.8594
L25.7812 51.8594
L25.7812 45.0156
L16.9375 45.0156
L16.9375 14.7031
Q16.9375 10.9375 17.4062 9.85938
Q17.875 8.79688 18.9219 8.15625
Q19.9688 7.51562 21.9219 7.51562
Q23.3906 7.51562 25.7812 7.85938" id="ArialMT-74"/>
      <path d="
M7.71875 0
L7.71875 71.5781
L32.375 71.5781
Q40.7188 71.5781 45.125 70.5625
Q51.2656 69.1406 55.6094 65.4375
Q61.2812 60.6406 64.0781 53.1875
Q66.8906 45.75 66.8906 36.1875
Q66.8906 28.0312 64.9844 21.7344
Q63.0938 15.4375 60.1094 11.2969
Q57.125 7.17188 53.5781 4.79688
Q50.0469 2.4375 45.0469 1.21875
Q40.0469 0 33.5469 0
z

M17.1875 8.45312
L32.4688 8.45312
Q39.5469 8.45312 43.5781 9.76562
Q47.6094 11.0781 50 13.4844
Q53.375 16.8438 55.25 22.5312
Q57.125 28.2188 57.125 36.3281
Q57.125 47.5625 53.4375 53.5938
Q49.75 59.625 44.4844 61.6719
Q40.6719 63.1406 32.2344 63.1406
L17.1875 63.1406
z
" id="ArialMT-44"/>
      <path d="
M40.4375 6.39062
Q35.5469 2.25 31.0312 0.53125
Q26.5156 -1.17188 21.3438 -1.17188
Q12.7969 -1.17188 8.20312 3
Q3.60938 7.17188 3.60938 13.6719
Q3.60938 17.4844 5.34375 20.625
Q7.07812 23.7812 9.89062 25.6875
Q12.7031 27.5938 16.2188 28.5625
Q18.7969 29.25 24.0312 29.8906
Q34.6719 31.1562 39.7031 32.9062
Q39.75 34.7188 39.75 35.2031
Q39.75 40.5781 37.25 42.7812
Q33.8906 45.75 27.25 45.75
Q21.0469 45.75 18.0938 43.5781
Q15.1406 41.4062 13.7188 35.8906
L5.125 37.0625
Q6.29688 42.5781 8.98438 45.9688
Q11.6719 49.3594 16.75 51.1875
Q21.8281 53.0312 28.5156 53.0312
Q35.1562 53.0312 39.2969 51.4688
Q43.4531 49.9062 45.4062 47.5312
Q47.3594 45.1719 48.1406 41.5469
Q48.5781 39.3125 48.5781 33.4531
L48.5781 21.7344
Q48.5781 9.46875 49.1406 6.21875
Q49.7031 2.98438 51.375 0
L42.1875 0
Q40.8281 2.73438 40.4375 6.39062
M39.7031 26.0312
Q34.9062 24.0781 25.3438 22.7031
Q19.9219 21.9219 17.6719 20.9375
Q15.4375 19.9688 14.2031 18.0938
Q12.9844 16.2188 12.9844 13.9219
Q12.9844 10.4062 15.6406 8.0625
Q18.3125 5.71875 23.4375 5.71875
Q28.5156 5.71875 32.4688 7.9375
Q36.4219 10.1562 38.2812 14.0156
Q39.7031 17 39.7031 22.7969
z
" id="ArialMT-61"/>
      <path d="
M23.3906 -21.0469
Q16.1094 -11.8594 11.0781 0.4375
Q6.0625 12.75 6.0625 25.9219
Q6.0625 37.5469 9.8125 48.1875
Q14.2031 60.5469 23.3906 72.7969
L29.6875 72.7969
Q23.7812 62.6406 21.875 58.2969
Q18.8906 51.5625 17.1875 44.2344
Q15.0938 35.1094 15.0938 25.875
Q15.0938 2.39062 29.6875 -21.0469
z
" id="ArialMT-28"/>
      <path d="
M12.3594 -21.0469
L6.0625 -21.0469
Q20.6562 2.39062 20.6562 25.875
Q20.6562 35.0625 18.5625 44.0938
Q16.8906 51.4219 13.9219 58.1562
Q12.0156 62.5469 6.0625 72.7969
L12.3594 72.7969
Q21.5312 60.5469 25.9219 48.1875
Q29.6875 37.5469 29.6875 25.9219
Q29.6875 12.75 24.625 0.4375
Q19.5781 -11.8594 12.3594 -21.0469" id="ArialMT-29"/>
      <path d="
M6.64062 61.4688
L6.64062 71.5781
L15.4375 71.5781
L15.4375 61.4688
z

M6.64062 0
L6.64062 51.8594
L15.4375 51.8594
L15.4375 0
z
" id="ArialMT-69"/>
      <path d="
M6.59375 0
L6.59375 51.8594
L14.4531 51.8594
L14.4531 44.5781
Q16.8906 48.3906 20.9375 50.7031
Q25 53.0312 30.1719 53.0312
Q35.9375 53.0312 39.625 50.6406
Q43.3125 48.25 44.8281 43.9531
Q50.9844 53.0312 60.8438 53.0312
Q68.5625 53.0312 72.7031 48.75
Q76.8594 44.4844 76.8594 35.5938
L76.8594 0
L68.1094 0
L68.1094 32.6719
Q68.1094 37.9375 67.25 40.25
Q66.4062 42.5781 64.1562 43.9844
Q61.9219 45.4062 58.8906 45.4062
Q53.4219 45.4062 49.7969 41.7656
Q46.1875 38.1406 46.1875 30.125
L46.1875 0
L37.4062 0
L37.4062 33.6875
Q37.4062 39.5469 35.25 42.4688
Q33.1094 45.4062 28.2188 45.4062
Q24.5156 45.4062 21.3594 43.4531
Q18.2188 41.5 16.7969 37.7344
Q15.375 33.9844 15.375 26.9062
L15.375 0
z
" id="ArialMT-6d"/>
      <path d="
M6.20312 -19.9688
L5.21875 -11.7188
Q8.10938 -12.5 10.25 -12.5
Q13.1875 -12.5 14.9375 -11.5156
Q16.7031 -10.5469 17.8281 -8.79688
Q18.6562 -7.46875 20.5156 -2.25
Q20.75 -1.51562 21.2969 -0.09375
L1.60938 51.8594
L11.0781 51.8594
L21.875 21.8281
Q23.9688 16.1094 25.6406 9.8125
Q27.1562 15.875 29.25 21.625
L40.3281 51.8594
L49.125 51.8594
L29.3906 -0.875
Q26.2188 -9.42188 24.4688 -12.6406
Q22.125 -17 19.0938 -19.0156
Q16.0625 -21.0469 11.8594 -21.0469
Q9.32812 -21.0469 6.20312 -19.9688" id="ArialMT-79"/>
      <path d="
M42.0938 16.7031
L51.1719 15.5781
Q49.0312 7.625 43.2188 3.21875
Q37.4062 -1.17188 28.375 -1.17188
Q17 -1.17188 10.3281 5.82812
Q3.65625 12.8438 3.65625 25.4844
Q3.65625 38.5781 10.3906 45.7969
Q17.1406 53.0312 27.875 53.0312
Q38.2812 53.0312 44.875 45.9531
Q51.4688 38.875 51.4688 26.0312
Q51.4688 25.25 51.4219 23.6875
L12.75 23.6875
Q13.2344 15.1406 17.5781 10.5938
Q21.9219 6.0625 28.4219 6.0625
Q33.25 6.0625 36.6719 8.59375
Q40.0938 11.1406 42.0938 16.7031
M13.2344 30.9062
L42.1875 30.9062
Q41.6094 37.4531 38.875 40.7188
Q34.6719 45.7969 27.9844 45.7969
Q21.9219 45.7969 17.7969 41.75
Q13.6719 37.7031 13.2344 30.9062" id="ArialMT-65"/>
      <path id="ArialMT-20"/>
     </defs>
     <g transform="translate(209.706988722 282.1734375)scale(0.14 -0.14)">
      <use xlink:href="#ArialMT-74"/>
      <use x="27.783203125" xlink:href="#ArialMT-69"/>
      <use x="50.0" xlink:href="#ArialMT-6d"/>
      <use x="133.30078125" xlink:href="#ArialMT-65"/>
      <use x="188.916015625" xlink:href="#ArialMT-20"/>
      <use x="216.69921875" xlink:href="#ArialMT-28"/>
      <use x="250.0" xlink:href="#ArialMT-44"/>
      <use x="322.216796875" xlink:href="#ArialMT-61"/>
      <use x="377.83203125" xlink:href="#ArialMT-79"/>
      <use x="427.83203125" xlink:href="#ArialMT-73"/>
      <use x="477.83203125" xlink:href="#ArialMT-29"/>
     </g>
    </g>
   </g>
   <g id="matplotlib.axis_2">
    <g id="ytick_1">
     <g id="line2d_22">
      <path clip-path="url(#p4a5a979e75)" d="
M60.6209 246.007
L429.843 246.007" style="fill:none;opacity:0.2;stroke:#b2b2b2;stroke-linecap:square;stroke-width:0.5;"/>
     </g>
     <g id="line2d_23">
      <defs>
       <path d="
M0 0
L-4 0" id="mc35cc452be" style="stroke:#000000;"/>
      </defs>
      <g>
       <use style="stroke:#000000;" x="60.6209375" xlink:href="#mc35cc452be" y="246.0075"/>
      </g>
     </g>
     <g id="line2d_24">
      <defs>
       <path d="
M0 0
L4 0" id="m82fbe672db" style="stroke:#000000;"/>
      </defs>
      <g>
       <use style="stroke:#000000;" x="429.843039945" xlink:href="#m82fbe672db" y="246.0075"/>
      </g>
     </g>
     <g id="text_9">
      <!-- $\mathdefault{0}$ -->
      <g transform="translate(43.9009375 249.1096875)scale(0.12 -0.12)">
       <use transform="translate(0.0 0.125)" xlink:href="#ArialMT-30"/>
      </g>
     </g>
    </g>
    <g id="ytick_2">
     <g id="line2d_25">
      <path clip-path="url(#p4a5a979e75)" d="
M60.6209 211.009
L429.843 211.009" style="fill:none;opacity:0.2;stroke:#b2b2b2;stroke-linecap:square;stroke-width:0.5;"/>
     </g>
     <g id="line2d_26">
      <g>
       <use style="stroke:#000000;" x="60.6209375" xlink:href="#mc35cc452be" y="211.00875"/>
      </g>
     </g>
     <g id="line2d_27">
      <g>
       <use style="stroke:#000000;" x="429.843039945" xlink:href="#m82fbe672db" y="211.00875"/>
      </g>
     </g>
     <g id="text_10">
      <!-- $\mathdefault{1}$ -->
      <g transform="translate(43.9009375 214.1109375)scale(0.12 -0.12)">
       <use transform="translate(0.0 0.125)" xlink:href="#ArialMT-31"/>
      </g>
     </g>
    </g>
    <g id="ytick_3">
     <g id="line2d_28">
      <path clip-path="url(#p4a5a979e75)" d="
M60.6209 176.01
L429.843 176.01" style="fill:none;opacity:0.2;stroke:#b2b2b2;stroke-linecap:square;stroke-width:0.5;"/>
     </g>
     <g id="line2d_29">
      <g>
       <use style="stroke:#000000;" x="60.6209375" xlink:href="#mc35cc452be" y="176.01"/>
      </g>
     </g>
     <g id="line2d_30">
      <g>
       <use style="stroke:#000000;" x="429.843039945" xlink:href="#m82fbe672db" y="176.01"/>
      </g>
     </g>
     <g id="text_11">
      <!-- $\mathdefault{2}$ -->
      <g transform="translate(43.9009375 179.1121875)scale(0.12 -0.12)">
       <use transform="translate(0.0 0.125)" xlink:href="#ArialMT-32"/>
      </g>
     </g>
    </g>
    <g id="ytick_4">
     <g id="line2d_31">
      <path clip-path="url(#p4a5a979e75)" d="
M60.6209 141.011
L429.843 141.011" style="fill:none;opacity:0.2;stroke:#b2b2b2;stroke-linecap:square;stroke-width:0.5;"/>
     </g>
     <g id="line2d_32">
      <g>
       <use style="stroke:#000000;" x="60.6209375" xlink:href="#mc35cc452be" y="141.01125"/>
      </g>
     </g>
     <g id="line2d_33">
      <g>
       <use style="stroke:#000000;" x="429.843039945" xlink:href="#m82fbe672db" y="141.01125"/>
      </g>
     </g>
     <g id="text_12">
      <!-- $\mathdefault{3}$ -->
      <g transform="translate(43.9009375 144.1134375)scale(0.12 -0.12)">
       <use transform="translate(0.0 0.125)" xlink:href="#ArialMT-33"/>
      </g>
     </g>
    </g>
    <g id="ytick_5">
     <g id="line2d_34">
      <path clip-path="url(#p4a5a979e75)" d="
M60.6209 106.012
L429.843 106.012" style="fill:none;opacity:0.2;stroke:#b2b2b2;stroke-linecap:square;stroke-width:0.5;"/>
     </g>
     <g id="line2d_35">
      <g>
       <use style="stroke:#000000;" x="60.6209375" xlink:href="#mc35cc452be" y="106.0125"/>
      </g>
     </g>
     <g id="line2d_36">
      <g>
       <use style="stroke:#000000;" x="429.843039945" xlink:href="#m82fbe672db" y="106.0125"/>
      </g>
     </g>
     <g id="text_13">
      <!-- $\mathdefault{4}$ -->
      <defs>
       <path d="
M32.3281 0
L32.3281 17.1406
L1.26562 17.1406
L1.26562 25.2031
L33.9375 71.5781
L41.1094 71.5781
L41.1094 25.2031
L50.7812 25.2031
L50.7812 17.1406
L41.1094 17.1406
L41.1094 0
z

M32.3281 25.2031
L32.3281 57.4688
L9.90625 25.2031
z
" id="ArialMT-34"/>
      </defs>
      <g transform="translate(43.9009375 109.1146875)scale(0.12 -0.12)">
       <use transform="translate(0.0 0.421875)" xlink:href="#ArialMT-34"/>
      </g>
     </g>
    </g>
    <g id="ytick_6">
     <g id="line2d_37">
      <path clip-path="url(#p4a5a979e75)" d="
M60.6209 71.0137
L429.843 71.0137" style="fill:none;opacity:0.2;stroke:#b2b2b2;stroke-linecap:square;stroke-width:0.5;"/>
     </g>
     <g id="line2d_38">
      <g>
       <use style="stroke:#000000;" x="60.6209375" xlink:href="#mc35cc452be" y="71.01375"/>
      </g>
     </g>
     <g id="line2d_39">
      <g>
       <use style="stroke:#000000;" x="429.843039945" xlink:href="#m82fbe672db" y="71.01375"/>
      </g>
     </g>
     <g id="text_14">
      <!-- $\mathdefault{5}$ -->
      <g transform="translate(43.9009375 74.1159375)scale(0.12 -0.12)">
       <use transform="translate(0.0 0.390625)" xlink:href="#ArialMT-35"/>
      </g>
     </g>
    </g>
    <g id="ytick_7">
     <g id="line2d_40">
      <path clip-path="url(#p4a5a979e75)" d="
M60.6209 36.015
L429.843 36.015" style="fill:none;opacity:0.2;stroke:#b2b2b2;stroke-linecap:square;stroke-width:0.5;"/>
     </g>
     <g id="line2d_41">
      <g>
       <use style="stroke:#000000;" x="60.6209375" xlink:href="#mc35cc452be" y="36.015"/>
      </g>
     </g>
     <g id="line2d_42">
      <g>
       <use style="stroke:#000000;" x="429.843039945" xlink:href="#m82fbe672db" y="36.015"/>
      </g>
     </g>
     <g id="text_15">
      <!-- $\mathdefault{6}$ -->
      <defs>
       <path d="
M49.75 54.0469
L41.0156 53.375
Q39.8438 58.5469 37.7031 60.8906
Q34.125 64.6562 28.9062 64.6562
Q24.7031 64.6562 21.5312 62.3125
Q17.3906 59.2812 14.9844 53.4688
Q12.5938 47.6562 12.5 36.9219
Q15.6719 41.75 20.2656 44.0938
Q24.8594 46.4375 29.8906 46.4375
Q38.6719 46.4375 44.8438 39.9688
Q51.0312 33.5 51.0312 23.25
Q51.0312 16.5 48.125 10.7188
Q45.2188 4.9375 40.1406 1.85938
Q35.0625 -1.21875 28.6094 -1.21875
Q17.625 -1.21875 10.6875 6.85938
Q3.76562 14.9375 3.76562 33.5
Q3.76562 54.25 11.4219 63.6719
Q18.1094 71.875 29.4375 71.875
Q37.8906 71.875 43.2812 67.1406
Q48.6875 62.4062 49.75 54.0469
M13.875 23.1875
Q13.875 18.6562 15.7969 14.5
Q17.7188 10.3594 21.1875 8.17188
Q24.6562 6 28.4688 6
Q34.0312 6 38.0312 10.4844
Q42.0469 14.9844 42.0469 22.7031
Q42.0469 30.125 38.0781 34.3906
Q34.125 38.6719 28.125 38.6719
Q22.1719 38.6719 18.0156 34.3906
Q13.875 30.125 13.875 23.1875" id="ArialMT-36"/>
      </defs>
      <g transform="translate(43.9009375 39.1171875)scale(0.12 -0.12)">
       <use transform="translate(0.0 0.125)" xlink:href="#ArialMT-36"/>
      </g>
     </g>
    </g>
    <g id="text_16">
     <!-- Number of Cells -->
     <defs>
      <path d="
M14.7031 0
L6.54688 0
L6.54688 71.5781
L15.3281 71.5781
L15.3281 46.0469
Q20.9062 53.0312 29.5469 53.0312
Q34.3281 53.0312 38.5938 51.0938
Q42.875 49.1719 45.625 45.6719
Q48.3906 42.1875 49.9531 37.25
Q51.5156 32.3281 51.5156 26.7031
Q51.5156 13.375 44.9219 6.09375
Q38.3281 -1.17188 29.1094 -1.17188
Q19.9219 -1.17188 14.7031 6.5
z

M14.5938 26.3125
Q14.5938 17 17.1406 12.8438
Q21.2969 6.0625 28.375 6.0625
Q34.125 6.0625 38.3281 11.0625
Q42.5312 16.0625 42.5312 25.9844
Q42.5312 36.1406 38.5 40.9688
Q34.4688 45.7969 28.7656 45.7969
Q23 45.7969 18.7969 40.7969
Q14.5938 35.7969 14.5938 26.3125" id="ArialMT-62"/>
      <path d="
M7.625 0
L7.625 71.5781
L17.3281 71.5781
L54.9375 15.375
L54.9375 71.5781
L64.0156 71.5781
L64.0156 0
L54.2969 0
L16.7031 56.25
L16.7031 0
z
" id="ArialMT-4e"/>
      <path d="
M6.39062 0
L6.39062 71.5781
L15.1875 71.5781
L15.1875 0
z
" id="ArialMT-6c"/>
      <path d="
M3.32812 25.9219
Q3.32812 40.3281 11.3281 47.2656
Q18.0156 53.0312 27.6406 53.0312
Q38.3281 53.0312 45.1094 46.0156
Q51.9062 39.0156 51.9062 26.6562
Q51.9062 16.6562 48.9062 10.9062
Q45.9062 5.17188 40.1562 2
Q34.4219 -1.17188 27.6406 -1.17188
Q16.75 -1.17188 10.0312 5.8125
Q3.32812 12.7969 3.32812 25.9219
M12.3594 25.9219
Q12.3594 15.9688 16.7031 11.0156
Q21.0469 6.0625 27.6406 6.0625
Q34.1875 6.0625 38.5312 11.0312
Q42.875 16.0156 42.875 26.2188
Q42.875 35.8438 38.5 40.7969
Q34.125 45.75 27.6406 45.75
Q21.0469 45.75 16.7031 40.8125
Q12.3594 35.8906 12.3594 25.9219" id="ArialMT-6f"/>
      <path d="
M8.6875 0
L8.6875 45.0156
L0.921875 45.0156
L0.921875 51.8594
L8.6875 51.8594
L8.6875 57.375
Q8.6875 62.5938 9.625 65.1406
Q10.8906 68.5625 14.0781 70.6719
Q17.2812 72.7969 23.0469 72.7969
Q26.7656 72.7969 31.25 71.9219
L29.9375 64.2656
Q27.2031 64.75 24.75 64.75
Q20.75 64.75 19.0938 63.0312
Q17.4375 61.3281 17.4375 56.6406
L17.4375 51.8594
L27.5469 51.8594
L27.5469 45.0156
L17.4375 45.0156
L17.4375 0
z
" id="ArialMT-66"/>
      <path d="
M58.7969 25.0938
L68.2656 22.7031
Q65.2812 11.0312 57.5469 4.90625
Q49.8125 -1.21875 38.625 -1.21875
Q27.0469 -1.21875 19.7969 3.48438
Q12.5469 8.20312 8.76562 17.1406
Q4.98438 26.0781 4.98438 36.3281
Q4.98438 47.5156 9.25 55.8281
Q13.5312 64.1562 21.4062 68.4688
Q29.2969 72.7969 38.7656 72.7969
Q49.5156 72.7969 56.8281 67.3281
Q64.1562 61.8594 67.0469 51.9531
L57.7188 49.75
Q55.2188 57.5625 50.4844 61.125
Q45.75 64.7031 38.5781 64.7031
Q30.3281 64.7031 24.7812 60.7344
Q19.2344 56.7812 16.9844 50.1094
Q14.75 43.4531 14.75 36.375
Q14.75 27.25 17.4062 20.4375
Q20.0625 13.625 25.6719 10.25
Q31.2969 6.89062 37.8438 6.89062
Q45.7969 6.89062 51.3125 11.4688
Q56.8438 16.0625 58.7969 25.0938" id="ArialMT-43"/>
      <path d="
M40.5781 0
L40.5781 7.625
Q34.5156 -1.17188 24.125 -1.17188
Q19.5312 -1.17188 15.5469 0.578125
Q11.5781 2.34375 9.64062 5
Q7.71875 7.67188 6.9375 11.5312
Q6.39062 14.1094 6.39062 19.7344
L6.39062 51.8594
L15.1875 51.8594
L15.1875 23.0938
Q15.1875 16.2188 15.7188 13.8125
Q16.5469 10.3594 19.2344 8.375
Q21.9219 6.39062 25.875 6.39062
Q29.8281 6.39062 33.2969 8.42188
Q36.7656 10.4531 38.2031 13.9375
Q39.6562 17.4375 39.6562 24.0781
L39.6562 51.8594
L48.4375 51.8594
L48.4375 0
z
" id="ArialMT-75"/>
      <path d="
M6.5 0
L6.5 51.8594
L14.4062 51.8594
L14.4062 44
Q17.4375 49.5156 20 51.2656
Q22.5625 53.0312 25.6406 53.0312
Q30.0781 53.0312 34.6719 50.2031
L31.6406 42.0469
Q28.4219 43.9531 25.2031 43.9531
Q22.3125 43.9531 20.0156 42.2188
Q17.7188 40.4844 16.75 37.4062
Q15.2812 32.7188 15.2812 27.1562
L15.2812 0
z
" id="ArialMT-72"/>
     </defs>
     <g transform="translate(36.1184375 190.92125)rotate(-90.0)scale(0.14 -0.14)">
      <use xlink:href="#ArialMT-4e"/>
      <use x="72.216796875" xlink:href="#ArialMT-75"/>
      <use x="127.83203125" xlink:href="#ArialMT-6d"/>
      <use x="211.1328125" xlink:href="#ArialMT-62"/>
      <use x="266.748046875" xlink:href="#ArialMT-65"/>
      <use x="322.36328125" xlink:href="#ArialMT-72"/>
      <use x="355.6640625" xlink:href="#ArialMT-20"/>
      <use x="383.447265625" xlink:href="#ArialMT-6f"/>
      <use x="439.0625" xlink:href="#ArialMT-66"/>
      <use x="466.845703125" xlink:href="#ArialMT-20"/>
      <use x="494.62890625" xlink:href="#ArialMT-43"/>
      <use x="566.845703125" xlink:href="#ArialMT-65"/>
      <use x="622.4609375" xlink:href="#ArialMT-6c"/>
      <use x="644.677734375" xlink:href="#ArialMT-6c"/>
      <use x="666.89453125" xlink:href="#ArialMT-73"/>
     </g>
    </g>
    <g id="text_17">
     <!-- $\times\mathdefault{10^{3}}\mathdefault{}$ -->
     <defs>
      <path d="
M7.85938 19.9688
L23.25 35.3594
L7.90625 50.6875
L13.875 56.6406
L29.2031 41.3125
L44.4844 56.5938
L50.3438 50.6875
L35.1094 35.4062
L50.4375 20.0625
L44.4844 14.1094
L29.1562 29.4375
L13.7656 14.0625
z
" id="ArialMT-d7"/>
     </defs>
     <g transform="translate(60.6209375 33.015)scale(0.12 -0.12)">
      <use transform="translate(16.66015625 0.90625)" xlink:href="#ArialMT-d7"/>
      <use transform="translate(75.8984375 0.90625)" xlink:href="#ArialMT-31"/>
      <use transform="translate(131.513671875 0.90625)" xlink:href="#ArialMT-30"/>
      <use transform="translate(187.12890625 50.6875)scale(0.7)" xlink:href="#ArialMT-33"/>
     </g>
    </g>
   </g>
   <g id="LineCollection_1">
    <path clip-path="url(#p4a5a979e75)" d="
M66.5761 140.69
L66.5761 138.65" style="fill:none;stroke:#0000ff;stroke-width:2.0;"/>
    <path clip-path="url(#p4a5a979e75)" d="
M185.68 95.2084
L185.68 91.0872" style="fill:none;stroke:#0000ff;stroke-width:2.0;"/>
    <path clip-path="url(#p4a5a979e75)" d="
M304.784 73.6179
L304.784 70.7385" style="fill:none;stroke:#0000ff;stroke-width:2.0;"/>
    <path clip-path="url(#p4a5a979e75)" d="
M423.888 92.6728
L423.888 87.0558" style="fill:none;stroke:#0000ff;stroke-width:2.0;"/>
   </g>
   <g id="LineCollection_2">
    <path clip-path="url(#p4a5a979e75)" d="
M66.5761 244.12
L66.5761 243.951" style="fill:none;stroke:#ff0000;stroke-width:2.0;"/>
    <path clip-path="url(#p4a5a979e75)" d="
M185.68 244.903
L185.68 244.865" style="fill:none;stroke:#ff0000;stroke-width:2.0;"/>
    <path clip-path="url(#p4a5a979e75)" d="
M304.784 245.013
L304.784 244.906" style="fill:none;stroke:#ff0000;stroke-width:2.0;"/>
    <path clip-path="url(#p4a5a979e75)" d="
M423.888 242.988
L423.888 242.778" style="fill:none;stroke:#ff0000;stroke-width:2.0;"/>
   </g>
   <g id="line2d_43">
    <path clip-path="url(#p4a5a979e75)" d="
M66.5761 139.67
L70.1853 137.803
L73.7946 135.956
L77.4038 134.131
L81.013 132.327
L84.6222 130.548
L88.2314 128.794
L91.8406 127.067
L95.4498 125.367
L99.059 123.696
L102.668 122.054
L106.277 120.442
L109.887 118.862
L113.496 117.313
L117.105 115.797
L120.714 114.313
L124.323 112.863
L127.933 111.446
L131.542 110.063
L135.151 108.714
L138.76 107.399
L142.37 106.118
L145.979 104.87
L149.588 103.657
L153.197 102.477
L156.806 101.33
L160.416 100.217
L164.025 99.136
L167.634 98.0877
L171.243 97.0713
L174.852 96.0864
L178.462 95.1325
L182.071 94.2091
L185.68 93.3156
L189.289 92.4514
L192.898 91.616
L196.508 90.8088
L200.117 90.029
L203.726 89.2762
L207.335 88.5495
L210.945 87.8485
L214.554 87.1724
L218.163 86.5205
L221.772 85.8922
L225.381 85.2869
L228.991 84.7039
L232.6 84.1425
L236.209 83.6021
L239.818 83.082
L243.427 82.5817
L247.037 82.1004
L250.646 81.6377
L254.255 81.1928
L257.864 80.7651
L261.473 80.3542
L265.083 79.9594
L268.692 79.5802
L272.301 79.216
L275.91 78.8663
L279.519 78.5306
L283.129 78.2084
L286.738 77.8991
L290.347 77.6024
L293.956 77.3177
L297.566 77.0447
L301.175 76.7827
L304.784 76.5316
L308.393 76.2907
L312.002 76.0598
L315.612 75.8385
L319.221 75.6263
L322.83 75.423
L326.439 75.2281
L330.048 75.0414
L333.658 74.8624
L337.267 74.691
L340.876 74.5268
L344.485 74.3695
L348.094 74.2189
L351.704 74.0746
L355.313 73.9364
L358.922 73.8041
L362.531 73.6774
L366.14 73.5561
L369.75 73.44
L373.359 73.3288
L376.968 73.2224
L380.577 73.1205
L384.187 73.023
L387.796 72.9297
L391.405 72.8403
L395.014 72.7548
L398.623 72.673
L402.233 72.5947
L405.842 72.5198
L409.451 72.4481
L413.06 72.3795
L416.669 72.3138
L420.279 72.251
L423.888 72.1909" style="fill:none;stroke:#0000ff;stroke-linecap:square;stroke-width:2.0;"/>
   </g>
   <g id="line2d_44">
    <defs>
     <path d="
M3 1.83697e-16
L-3 -1.83697e-16" id="macc9fe3a8c" style="stroke:#0000ff;stroke-width:2.0;"/>
    </defs>
    <g clip-path="url(#p4a5a979e75)">
     <use style="fill:#0000ff;stroke:#0000ff;stroke-width:2.0;" x="66.5761327007" xlink:href="#macc9fe3a8c" y="140.690015303"/>
     <use style="fill:#0000ff;stroke:#0000ff;stroke-width:2.0;" x="185.680036715" xlink:href="#macc9fe3a8c" y="95.2083686651"/>
     <use style="fill:#0000ff;stroke:#0000ff;stroke-width:2.0;" x="304.783940729" xlink:href="#macc9fe3a8c" y="73.6179264298"/>
     <use style="fill:#0000ff;stroke:#0000ff;stroke-width:2.0;" x="423.887844744" xlink:href="#macc9fe3a8c" y="92.6727918645"/>
    </g>
   </g>
   <g id="line2d_45">
    <g clip-path="url(#p4a5a979e75)">
     <use style="fill:#0000ff;stroke:#0000ff;stroke-width:2.0;" x="66.5761327007" xlink:href="#macc9fe3a8c" y="138.650021836"/>
     <use style="fill:#0000ff;stroke:#0000ff;stroke-width:2.0;" x="185.680036715" xlink:href="#macc9fe3a8c" y="91.0871579441"/>
     <use style="fill:#0000ff;stroke:#0000ff;stroke-width:2.0;" x="304.783940729" xlink:href="#macc9fe3a8c" y="70.7384930582"/>
     <use style="fill:#0000ff;stroke:#0000ff;stroke-width:2.0;" x="423.887844744" xlink:href="#macc9fe3a8c" y="87.0557932867"/>
    </g>
   </g>
   <g id="line2d_46">
    <defs>
     <path d="
M0 1.75
C0.464105 1.75 0.909265 1.56561 1.23744 1.23744
C1.56561 0.909265 1.75 0.464105 1.75 0
C1.75 -0.464105 1.56561 -0.909265 1.23744 -1.23744
C0.909265 -1.56561 0.464105 -1.75 0 -1.75
C-0.464105 -1.75 -0.909265 -1.56561 -1.23744 -1.23744
C-1.56561 -0.909265 -1.75 -0.464105 -1.75 0
C-1.75 0.464105 -1.56561 0.909265 -1.23744 1.23744
C-0.909265 1.56561 -0.464105 1.75 0 1.75
z
" id="mefd247b897" style="stroke:#0000ff;stroke-width:2.0;"/>
    </defs>
    <g clip-path="url(#p4a5a979e75)">
     <use style="fill:#0000ff;stroke:#0000ff;stroke-width:2.0;" x="66.5761327007" xlink:href="#mefd247b897" y="139.670018569"/>
     <use style="fill:#0000ff;stroke:#0000ff;stroke-width:2.0;" x="185.680036715" xlink:href="#mefd247b897" y="93.1477633046"/>
     <use style="fill:#0000ff;stroke:#0000ff;stroke-width:2.0;" x="304.783940729" xlink:href="#mefd247b897" y="72.178209744"/>
     <use style="fill:#0000ff;stroke:#0000ff;stroke-width:2.0;" x="423.887844744" xlink:href="#mefd247b897" y="89.8642925756"/>
    </g>
   </g>
   <g id="line2d_47">
    <path clip-path="url(#p4a5a979e75)" d="
M66.5761 139.67" style="fill:none;opacity:0.5;stroke:#0000ff;stroke-linecap:square;stroke-width:2.0;"/>
   </g>
   <g id="line2d_48">
    <path clip-path="url(#p4a5a979e75)" d="
M185.68 93.1478" style="fill:none;opacity:0.5;stroke:#0000ff;stroke-linecap:square;stroke-width:2.0;"/>
   </g>
   <g id="line2d_49">
    <path clip-path="url(#p4a5a979e75)" d="
M304.784 72.1782" style="fill:none;opacity:0.5;stroke:#0000ff;stroke-linecap:square;stroke-width:2.0;"/>
   </g>
   <g id="line2d_50">
    <path clip-path="url(#p4a5a979e75)" d="
M423.888 89.8643" style="fill:none;opacity:0.5;stroke:#0000ff;stroke-linecap:square;stroke-width:2.0;"/>
   </g>
   <g id="line2d_51">
    <path clip-path="url(#p4a5a979e75)" d="
M66.5761 244.036
L70.1853 244.157
L73.7946 244.264
L77.4038 244.358
L81.013 244.44
L84.6222 244.512
L88.2314 244.574
L91.8406 244.629
L95.4498 244.676
L99.059 244.716
L102.668 244.751
L106.277 244.78
L109.887 244.805
L113.496 244.826
L117.105 244.843
L120.714 244.858
L124.323 244.869
L127.933 244.878
L131.542 244.885
L135.151 244.89
L138.76 244.893
L142.37 244.895
L145.979 244.895
L149.588 244.895
L153.197 244.893
L156.806 244.891
L160.416 244.888
L164.025 244.884
L167.634 244.88
L171.243 244.875
L174.852 244.87
L178.462 244.865
L182.071 244.859
L185.68 244.854
L189.289 244.848
L192.898 244.842
L196.508 244.836
L200.117 244.83
L203.726 244.824
L207.335 244.818
L210.945 244.812
L214.554 244.806
L218.163 244.8
L221.772 244.795
L225.381 244.789
L228.991 244.783
L232.6 244.778
L236.209 244.773
L239.818 244.767
L243.427 244.762
L247.037 244.757
L250.646 244.753
L254.255 244.748
L257.864 244.743
L261.473 244.739
L265.083 244.735
L268.692 244.731
L272.301 244.727
L275.91 244.723
L279.519 244.719
L283.129 244.715
L286.738 244.712
L290.347 244.709
L293.956 244.705
L297.566 244.702
L301.175 244.699
L304.784 244.696
L308.393 244.693
L312.002 244.691
L315.612 244.688
L319.221 244.685
L322.83 244.683
L326.439 244.681
L330.048 244.678
L333.658 244.676
L337.267 244.674
L340.876 244.672
L344.485 244.67
L348.094 244.669
L351.704 244.667
L355.313 244.665
L358.922 244.663
L362.531 244.662
L366.14 244.66
L369.75 244.659
L373.359 244.658
L376.968 244.656
L380.577 244.655
L384.187 244.654
L387.796 244.653
L391.405 244.651
L395.014 244.65
L398.623 244.649
L402.233 244.648
L405.842 244.647
L409.451 244.647
L413.06 244.646
L416.669 244.645
L420.279 244.644
L423.888 244.643" style="fill:none;stroke:#ff0000;stroke-linecap:square;stroke-width:2.0;"/>
   </g>
   <g id="line2d_52">
    <defs>
     <path d="
M3 1.83697e-16
L-3 -1.83697e-16" id="mab57669a25" style="stroke:#ff0000;stroke-width:2.0;"/>
    </defs>
    <g clip-path="url(#p4a5a979e75)">
     <use style="fill:#ff0000;stroke:#ff0000;stroke-width:2.0;" x="66.5761327007" xlink:href="#mab57669a25" y="244.119950368"/>
     <use style="fill:#ff0000;stroke:#ff0000;stroke-width:2.0;" x="185.680036715" xlink:href="#mab57669a25" y="244.903322766"/>
     <use style="fill:#ff0000;stroke:#ff0000;stroke-width:2.0;" x="304.783940729" xlink:href="#mab57669a25" y="245.012971874"/>
     <use style="fill:#ff0000;stroke:#ff0000;stroke-width:2.0;" x="423.887844744" xlink:href="#mab57669a25" y="242.988249059"/>
    </g>
   </g>
   <g id="line2d_53">
    <g clip-path="url(#p4a5a979e75)">
     <use style="fill:#ff0000;stroke:#ff0000;stroke-width:2.0;" x="66.5761327007" xlink:href="#mab57669a25" y="243.951082493"/>
     <use style="fill:#ff0000;stroke:#ff0000;stroke-width:2.0;" x="185.680036715" xlink:href="#mab57669a25" y="244.865483125"/>
     <use style="fill:#ff0000;stroke:#ff0000;stroke-width:2.0;" x="304.783940729" xlink:href="#mab57669a25" y="244.906433638"/>
     <use style="fill:#ff0000;stroke:#ff0000;stroke-width:2.0;" x="423.887844744" xlink:href="#mab57669a25" y="242.77787579"/>
    </g>
   </g>
   <g id="line2d_54">
    <defs>
     <path d="
M0 1.75
C0.464105 1.75 0.909265 1.56561 1.23744 1.23744
C1.56561 0.909265 1.75 0.464105 1.75 0
C1.75 -0.464105 1.56561 -0.909265 1.23744 -1.23744
C0.909265 -1.56561 0.464105 -1.75 0 -1.75
C-0.464105 -1.75 -0.909265 -1.56561 -1.23744 -1.23744
C-1.56561 -0.909265 -1.75 -0.464105 -1.75 0
C-1.75 0.464105 -1.56561 0.909265 -1.23744 1.23744
C-0.909265 1.56561 -0.464105 1.75 0 1.75
z
" id="m598132a03d" style="stroke:#ff0000;stroke-width:2.0;"/>
    </defs>
    <g clip-path="url(#p4a5a979e75)">
     <use style="fill:#ff0000;stroke:#ff0000;stroke-width:2.0;" x="66.5761327007" xlink:href="#m598132a03d" y="244.035516431"/>
     <use style="fill:#ff0000;stroke:#ff0000;stroke-width:2.0;" x="185.680036715" xlink:href="#m598132a03d" y="244.884402945"/>
     <use style="fill:#ff0000;stroke:#ff0000;stroke-width:2.0;" x="304.783940729" xlink:href="#m598132a03d" y="244.959702756"/>
     <use style="fill:#ff0000;stroke:#ff0000;stroke-width:2.0;" x="423.887844744" xlink:href="#m598132a03d" y="242.883062424"/>
    </g>
   </g>
   <g id="line2d_55">
    <path clip-path="url(#p4a5a979e75)" d="
M66.5761 244.036" style="fill:none;opacity:0.5;stroke:#ff0000;stroke-linecap:square;stroke-width:2.0;"/>
   </g>
   <g id="line2d_56">
    <path clip-path="url(#p4a5a979e75)" d="
M185.68 244.884" style="fill:none;opacity:0.5;stroke:#ff0000;stroke-linecap:square;stroke-width:2.0;"/>
   </g>
   <g id="line2d_57">
    <path clip-path="url(#p4a5a979e75)" d="
M304.784 244.96" style="fill:none;opacity:0.5;stroke:#ff0000;stroke-linecap:square;stroke-width:2.0;"/>
   </g>
   <g id="line2d_58">
    <path clip-path="url(#p4a5a979e75)" d="
M423.888 242.883" style="fill:none;opacity:0.5;stroke:#ff0000;stroke-linecap:square;stroke-width:2.0;"/>
   </g>
   <g id="patch_3">
    <path d="
M60.6209 36.015
L429.843 36.015" style="fill:none;stroke:#000000;stroke-linecap:square;stroke-linejoin:miter;"/>
   </g>
   <g id="patch_4">
    <path d="
M60.6209 246.007
L429.843 246.007" style="fill:none;stroke:#000000;stroke-linecap:square;stroke-linejoin:miter;"/>
   </g>
   <g id="patch_5">
    <path d="
M60.6209 246.007
L60.6209 36.015" style="fill:none;stroke:#000000;stroke-linecap:square;stroke-linejoin:miter;"/>
   </g>
   <g id="patch_6">
    <path d="
M429.843 246.007
L429.843 36.015" style="fill:none;stroke:#000000;stroke-linecap:square;stroke-linejoin:miter;"/>
   </g>
   <g id="legend_1">
    <g id="patch_7">
     <path d="
M441.923 186.254
L599.52 186.254
Q602.4 186.254 602.4 183.374
L602.4 102.648
Q602.4 99.7685 599.52 99.7685
L441.923 99.7685
Q439.043 99.7685 439.043 102.648
L439.043 183.374
Q439.043 186.254 441.923 186.254
z
" style="fill:#4c4c4c;opacity:0.5;stroke:#4c4c4c;stroke-linejoin:miter;"/>
    </g>
    <g id="patch_8">
     <path d="
M439.923 184.254
L597.52 184.254
Q600.4 184.254 600.4 181.374
L600.4 100.648
Q600.4 97.7685 597.52 97.7685
L439.923 97.7685
Q437.043 97.7685 437.043 100.648
L437.043 181.374
Q437.043 184.254 439.923 184.254
z
" style="fill:#ffffff;stroke:#000000;stroke-linejoin:miter;"/>
    </g>
    <g id="line2d_59">
     <path d="
M442.803 108.971
L471.603 108.971" style="fill:none;stroke:#0000ff;stroke-linecap:square;stroke-width:2.0;"/>
    </g>
    <g id="line2d_60"/>
    <g id="text_18">
     <!-- Live cells (fitted) -->
     <defs>
      <path d="
M40.2344 0
L40.2344 6.54688
Q35.2969 -1.17188 25.7344 -1.17188
Q19.5312 -1.17188 14.3281 2.25
Q9.125 5.67188 6.26562 11.7969
Q3.42188 17.9219 3.42188 25.875
Q3.42188 33.6406 6 39.9688
Q8.59375 46.2969 13.7656 49.6562
Q18.9531 53.0312 25.3438 53.0312
Q30.0312 53.0312 33.6875 51.0469
Q37.3594 49.0781 39.6562 45.9062
L39.6562 71.5781
L48.3906 71.5781
L48.3906 0
z

M12.4531 25.875
Q12.4531 15.9219 16.6406 10.9844
Q20.8438 6.0625 26.5625 6.0625
Q32.3281 6.0625 36.3438 10.7656
Q40.375 15.4844 40.375 25.1406
Q40.375 35.7969 36.2656 40.7656
Q32.1719 45.75 26.1719 45.75
Q20.3125 45.75 16.375 40.9688
Q12.4531 36.1875 12.4531 25.875" id="ArialMT-64"/>
      <path d="
M21 0
L1.26562 51.8594
L10.5469 51.8594
L21.6875 20.7969
Q23.4844 15.7656 25 10.3594
Q26.1719 14.4531 28.2656 20.2188
L39.7969 51.8594
L48.8281 51.8594
L29.2031 0
z
" id="ArialMT-76"/>
      <path d="
M40.4375 19
L49.0781 17.875
Q47.6562 8.9375 41.8125 3.875
Q35.9844 -1.17188 27.4844 -1.17188
Q16.8438 -1.17188 10.375 5.78125
Q3.90625 12.75 3.90625 25.7344
Q3.90625 34.125 6.6875 40.4219
Q9.46875 46.7344 15.1562 49.875
Q20.8438 53.0312 27.5469 53.0312
Q35.9844 53.0312 41.3594 48.75
Q46.7344 44.4844 48.25 36.625
L39.7031 35.2969
Q38.4844 40.5312 35.375 43.1562
Q32.2812 45.7969 27.875 45.7969
Q21.2344 45.7969 17.0781 41.0312
Q12.9375 36.2812 12.9375 25.9844
Q12.9375 15.5312 16.9375 10.7969
Q20.9531 6.0625 27.3906 6.0625
Q32.5625 6.0625 36.0312 9.23438
Q39.5 12.4062 40.4375 19" id="ArialMT-63"/>
      <path d="
M7.32812 0
L7.32812 71.5781
L16.7969 71.5781
L16.7969 8.45312
L52.0469 8.45312
L52.0469 0
z
" id="ArialMT-4c"/>
     </defs>
     <g transform="translate(483.123039945 114.01125)scale(0.144 -0.144)">
      <use xlink:href="#ArialMT-4c"/>
      <use x="55.615234375" xlink:href="#ArialMT-69"/>
      <use x="77.83203125" xlink:href="#ArialMT-76"/>
      <use x="127.83203125" xlink:href="#ArialMT-65"/>
      <use x="183.447265625" xlink:href="#ArialMT-20"/>
      <use x="211.23046875" xlink:href="#ArialMT-63"/>
      <use x="261.23046875" xlink:href="#ArialMT-65"/>
      <use x="316.845703125" xlink:href="#ArialMT-6c"/>
      <use x="339.0625" xlink:href="#ArialMT-6c"/>
      <use x="361.279296875" xlink:href="#ArialMT-73"/>
      <use x="411.279296875" xlink:href="#ArialMT-20"/>
      <use x="439.0625" xlink:href="#ArialMT-28"/>
      <use x="472.36328125" xlink:href="#ArialMT-66"/>
      <use x="500.146484375" xlink:href="#ArialMT-69"/>
      <use x="522.36328125" xlink:href="#ArialMT-74"/>
      <use x="550.146484375" xlink:href="#ArialMT-74"/>
      <use x="577.9296875" xlink:href="#ArialMT-65"/>
      <use x="633.544921875" xlink:href="#ArialMT-64"/>
      <use x="689.16015625" xlink:href="#ArialMT-29"/>
     </g>
    </g>
    <g id="line2d_61">
     <path d="
M442.803 129.685
L471.603 129.685" style="fill:none;stroke:#ff0000;stroke-linecap:square;stroke-width:2.0;"/>
    </g>
    <g id="line2d_62"/>
    <g id="text_19">
     <!-- Dead cells (fitted) -->
     <g transform="translate(483.123039945 134.72475)scale(0.144 -0.144)">
      <use xlink:href="#ArialMT-44"/>
      <use x="72.216796875" xlink:href="#ArialMT-65"/>
      <use x="127.83203125" xlink:href="#ArialMT-61"/>
      <use x="183.447265625" xlink:href="#ArialMT-64"/>
      <use x="239.0625" xlink:href="#ArialMT-20"/>
      <use x="266.845703125" xlink:href="#ArialMT-63"/>
      <use x="316.845703125" xlink:href="#ArialMT-65"/>
      <use x="372.4609375" xlink:href="#ArialMT-6c"/>
      <use x="394.677734375" xlink:href="#ArialMT-6c"/>
      <use x="416.89453125" xlink:href="#ArialMT-73"/>
      <use x="466.89453125" xlink:href="#ArialMT-20"/>
      <use x="494.677734375" xlink:href="#ArialMT-28"/>
      <use x="527.978515625" xlink:href="#ArialMT-66"/>
      <use x="555.76171875" xlink:href="#ArialMT-69"/>
      <use x="577.978515625" xlink:href="#ArialMT-74"/>
      <use x="605.76171875" xlink:href="#ArialMT-74"/>
      <use x="633.544921875" xlink:href="#ArialMT-65"/>
      <use x="689.16015625" xlink:href="#ArialMT-64"/>
      <use x="744.775390625" xlink:href="#ArialMT-29"/>
     </g>
    </g>
    <g id="LineCollection_3">
     <path d="
M457.203 157.423
L457.203 143.023" style="fill:none;stroke:#0000ff;stroke-width:2.0;"/>
    </g>
    <g id="line2d_63">
     <g>
      <use style="fill:#0000ff;stroke:#0000ff;stroke-width:2.0;" x="457.203039945" xlink:href="#macc9fe3a8c" y="157.42275"/>
     </g>
    </g>
    <g id="line2d_64">
     <g>
      <use style="fill:#0000ff;stroke:#0000ff;stroke-width:2.0;" x="457.203039945" xlink:href="#macc9fe3a8c" y="143.02275"/>
     </g>
    </g>
    <g id="line2d_65"/>
    <g id="line2d_66">
     <g>
      <use style="fill:#0000ff;stroke:#0000ff;stroke-width:2.0;" x="457.203039945" xlink:href="#mefd247b897" y="150.22275"/>
     </g>
    </g>
    <g id="text_20">
     <!-- Live cells -->
     <g transform="translate(483.123039945 155.26275)scale(0.144 -0.144)">
      <use xlink:href="#ArialMT-4c"/>
      <use x="55.615234375" xlink:href="#ArialMT-69"/>
      <use x="77.83203125" xlink:href="#ArialMT-76"/>
      <use x="127.83203125" xlink:href="#ArialMT-65"/>
      <use x="183.447265625" xlink:href="#ArialMT-20"/>
      <use x="211.23046875" xlink:href="#ArialMT-63"/>
      <use x="261.23046875" xlink:href="#ArialMT-65"/>
      <use x="316.845703125" xlink:href="#ArialMT-6c"/>
      <use x="339.0625" xlink:href="#ArialMT-6c"/>
      <use x="361.279296875" xlink:href="#ArialMT-73"/>
     </g>
    </g>
    <g id="LineCollection_4">
     <path d="
M457.203 177.792
L457.203 163.392" style="fill:none;stroke:#ff0000;stroke-width:2.0;"/>
    </g>
    <g id="line2d_67">
     <g>
      <use style="fill:#ff0000;stroke:#ff0000;stroke-width:2.0;" x="457.203039945" xlink:href="#mab57669a25" y="177.792"/>
     </g>
    </g>
    <g id="line2d_68">
     <g>
      <use style="fill:#ff0000;stroke:#ff0000;stroke-width:2.0;" x="457.203039945" xlink:href="#mab57669a25" y="163.392"/>
     </g>
    </g>
    <g id="line2d_69"/>
    <g id="line2d_70">
     <g>
      <use style="fill:#ff0000;stroke:#ff0000;stroke-width:2.0;" x="457.203039945" xlink:href="#m598132a03d" y="170.592"/>
     </g>
    </g>
    <g id="text_21">
     <!-- Dead cells -->
     <g transform="translate(483.123039945 175.632)scale(0.144 -0.144)">
      <use xlink:href="#ArialMT-44"/>
      <use x="72.216796875" xlink:href="#ArialMT-65"/>
      <use x="127.83203125" xlink:href="#ArialMT-61"/>
      <use x="183.447265625" xlink:href="#ArialMT-64"/>
      <use x="239.0625" xlink:href="#ArialMT-20"/>
      <use x="266.845703125" xlink:href="#ArialMT-63"/>
      <use x="316.845703125" xlink:href="#ArialMT-65"/>
      <use x="372.4609375" xlink:href="#ArialMT-6c"/>
      <use x="394.677734375" xlink:href="#ArialMT-6c"/>
      <use x="416.89453125" xlink:href="#ArialMT-73"/>
     </g>
    </g>
   </g>
  </g>
  <g id="text_22">
   <!-- Live cells model (with cell death and logistic limits) -->
   <defs>
    <path d="
M6.59375 0
L6.59375 71.5781
L15.375 71.5781
L15.375 45.9062
Q21.5312 53.0312 30.9062 53.0312
Q36.6719 53.0312 40.9219 50.75
Q45.1719 48.4844 47 44.4844
Q48.8281 40.4844 48.8281 32.8594
L48.8281 0
L40.0469 0
L40.0469 32.8594
Q40.0469 39.4531 37.1875 42.4531
Q34.3281 45.4531 29.1094 45.4531
Q25.2031 45.4531 21.75 43.4219
Q18.3125 41.4062 16.8438 37.9375
Q15.375 34.4688 15.375 28.375
L15.375 0
z
" id="ArialMT-68"/>
    <path d="
M16.1562 0
L0.296875 51.8594
L9.375 51.8594
L17.625 21.9219
L20.7031 10.7969
Q20.9062 11.625 23.3906 21.4844
L31.6406 51.8594
L40.6719 51.8594
L48.4375 21.7812
L51.0312 11.8594
L54 21.875
L62.8906 51.8594
L71.4375 51.8594
L55.2188 0
L46.0938 0
L37.8438 31.0625
L35.8438 39.8906
L25.3438 0
z
" id="ArialMT-77"/>
    <path d="
M6.59375 0
L6.59375 51.8594
L14.5 51.8594
L14.5 44.4844
Q20.2188 53.0312 31 53.0312
Q35.6875 53.0312 39.625 51.3438
Q43.5625 49.6562 45.5156 46.9219
Q47.4688 44.1875 48.25 40.4375
Q48.7344 37.9844 48.7344 31.8906
L48.7344 0
L39.9375 0
L39.9375 31.5469
Q39.9375 36.9219 38.9062 39.5781
Q37.8906 42.2344 35.2812 43.8125
Q32.6719 45.4062 29.1562 45.4062
Q23.5312 45.4062 19.4531 41.8438
Q15.375 38.2812 15.375 28.3281
L15.375 0
z
" id="ArialMT-6e"/>
    <path d="
M4.98438 -4.29688
L13.5312 -5.5625
Q14.0625 -9.51562 16.5 -11.3281
Q19.7812 -13.7656 25.4375 -13.7656
Q31.5469 -13.7656 34.8594 -11.3281
Q38.1875 -8.89062 39.3594 -4.5
Q40.0469 -1.8125 39.9844 6.78125
Q34.2344 0 25.6406 0
Q14.9375 0 9.07812 7.71875
Q3.21875 15.4375 3.21875 26.2188
Q3.21875 33.6406 5.90625 39.9062
Q8.59375 46.1875 13.6875 49.6094
Q18.7969 53.0312 25.6875 53.0312
Q34.8594 53.0312 40.8281 45.6094
L40.8281 51.8594
L48.9219 51.8594
L48.9219 7.03125
Q48.9219 -5.07812 46.4531 -10.125
Q44 -15.1875 38.6406 -18.1094
Q33.2969 -21.0469 25.4844 -21.0469
Q16.2188 -21.0469 10.5 -16.875
Q4.78125 -12.7031 4.98438 -4.29688
M12.25 26.8594
Q12.25 16.6562 16.2969 11.9688
Q20.3594 7.28125 26.4688 7.28125
Q32.5156 7.28125 36.6094 11.9375
Q40.7188 16.6094 40.7188 26.5625
Q40.7188 36.0781 36.5 40.9062
Q32.2812 45.75 26.3125 45.75
Q20.4531 45.75 16.3438 40.9844
Q12.25 36.2344 12.25 26.8594" id="ArialMT-67"/>
   </defs>
   <g transform="translate(7.2 21.759375)scale(0.2 -0.2)">
    <use xlink:href="#ArialMT-4c"/>
    <use x="55.615234375" xlink:href="#ArialMT-69"/>
    <use x="77.83203125" xlink:href="#ArialMT-76"/>
    <use x="127.83203125" xlink:href="#ArialMT-65"/>
    <use x="183.447265625" xlink:href="#ArialMT-20"/>
    <use x="211.23046875" xlink:href="#ArialMT-63"/>
    <use x="261.23046875" xlink:href="#ArialMT-65"/>
    <use x="316.845703125" xlink:href="#ArialMT-6c"/>
    <use x="339.0625" xlink:href="#ArialMT-6c"/>
    <use x="361.279296875" xlink:href="#ArialMT-73"/>
    <use x="411.279296875" xlink:href="#ArialMT-20"/>
    <use x="439.0625" xlink:href="#ArialMT-6d"/>
    <use x="522.36328125" xlink:href="#ArialMT-6f"/>
    <use x="577.978515625" xlink:href="#ArialMT-64"/>
    <use x="633.59375" xlink:href="#ArialMT-65"/>
    <use x="689.208984375" xlink:href="#ArialMT-6c"/>
    <use x="711.42578125" xlink:href="#ArialMT-20"/>
    <use x="739.208984375" xlink:href="#ArialMT-28"/>
    <use x="772.509765625" xlink:href="#ArialMT-77"/>
    <use x="844.7265625" xlink:href="#ArialMT-69"/>
    <use x="866.943359375" xlink:href="#ArialMT-74"/>
    <use x="894.7265625" xlink:href="#ArialMT-68"/>
    <use x="950.341796875" xlink:href="#ArialMT-20"/>
    <use x="978.125" xlink:href="#ArialMT-63"/>
    <use x="1028.125" xlink:href="#ArialMT-65"/>
    <use x="1083.740234375" xlink:href="#ArialMT-6c"/>
    <use x="1105.95703125" xlink:href="#ArialMT-6c"/>
    <use x="1128.173828125" xlink:href="#ArialMT-20"/>
    <use x="1155.95703125" xlink:href="#ArialMT-64"/>
    <use x="1211.572265625" xlink:href="#ArialMT-65"/>
    <use x="1267.1875" xlink:href="#ArialMT-61"/>
    <use x="1322.802734375" xlink:href="#ArialMT-74"/>
    <use x="1350.5859375" xlink:href="#ArialMT-68"/>
    <use x="1406.201171875" xlink:href="#ArialMT-20"/>
    <use x="1433.984375" xlink:href="#ArialMT-61"/>
    <use x="1489.599609375" xlink:href="#ArialMT-6e"/>
    <use x="1545.21484375" xlink:href="#ArialMT-64"/>
    <use x="1600.830078125" xlink:href="#ArialMT-20"/>
    <use x="1628.61328125" xlink:href="#ArialMT-6c"/>
    <use x="1650.830078125" xlink:href="#ArialMT-6f"/>
    <use x="1706.4453125" xlink:href="#ArialMT-67"/>
    <use x="1762.060546875" xlink:href="#ArialMT-69"/>
    <use x="1784.27734375" xlink:href="#ArialMT-73"/>
    <use x="1834.27734375" xlink:href="#ArialMT-74"/>
    <use x="1862.060546875" xlink:href="#ArialMT-69"/>
    <use x="1884.27734375" xlink:href="#ArialMT-63"/>
    <use x="1934.27734375" xlink:href="#ArialMT-20"/>
    <use x="1962.060546875" xlink:href="#ArialMT-6c"/>
    <use x="1984.27734375" xlink:href="#ArialMT-69"/>
    <use x="2006.494140625" xlink:href="#ArialMT-6d"/>
    <use x="2089.794921875" xlink:href="#ArialMT-69"/>
    <use x="2112.01171875" xlink:href="#ArialMT-74"/>
    <use x="2139.794921875" xlink:href="#ArialMT-73"/>
    <use x="2189.794921875" xlink:href="#ArialMT-29"/>
   </g>
  </g>
 </g>
 <defs>
  <clipPath id="p4a5a979e75">
   <rect height="209.9925" width="369.222102445" x="60.6209375" y="36.015"/>
  </clipPath>
 </defs>
</svg>
