<table>
<tr><th>Parameter    </th><th>   Value</th><th>  Std. Error</th><th>units          </th><th>  Inv_value</th></tr>
<tr><td>growth_rate  </td><td>0.028   </td><td>0.0018      </td><td>1/hours        </td><td>35.8       </td></tr>
<tr><td>seeding_cells</td><td>6.16e+03</td><td>509         </td><td>number of cells</td><td>0.000162   </td></tr>
</table>