<table>
	<tr><th></th><th colspan="2">Total cells</th></tr>
	<tr><th>Hours</th><th>Mean</th><th>STD</th></tr>
	<tr><td>0.0</td><td>1.13e+03</td><td>53</td></tr>
	<tr><td>48.0</td><td>5.51e+03</td><td>755</td></tr>
	<tr><td>72.0</td><td>1.55e+04</td><td>1.67e+03</td></tr>
</table>